serieparalelo/IDLE-COM/muxy.vcd
$date
	Fri Jun  5 20:52:04 2020
$end
$version
	Icarus Verilog
$end
$timescale
	1ps
$end
$scope module BUF $end
$var wire 1 ! A $end
$var wire 1 " Y $end
$upscope $end
$scope module DFFSR $end
$var wire 1 # C $end
$var wire 1 $ D $end
$var wire 1 % R $end
$var wire 1 & S $end
$var reg 1 ' Q $end
$upscope $end
$scope module NAND $end
$var wire 1 ( A $end
$var wire 1 ) B $end
$var wire 1 * Y $end
$upscope $end
$scope module NOR $end
$var wire 1 + A $end
$var wire 1 , B $end
$var wire 1 - Y $end
$upscope $end
$scope module NOT $end
$var wire 1 . A $end
$var wire 1 / Y $end
$upscope $end
$scope module bancoPruebas $end
$var wire 1 0 reset $end
$var wire 1 1 outs $end
$var wire 1 2 outc $end
$var wire 1 3 in $end
$var wire 1 4 clk4f $end
$var wire 1 5 clk32f $end
$scope module Probador $end
$var wire 1 6 valid $end
$var wire 1 1 outs $end
$var wire 1 2 outc $end
$var reg 1 7 clk $end
$var reg 1 8 clk16f $end
$var reg 1 9 clk1f $end
$var reg 1 : clk2f $end
$var reg 1 5 clk32f $end
$var reg 1 4 clk4f $end
$var reg 1 ; clk8f $end
$var reg 1 3 in $end
$var reg 1 0 reset $end
$var reg 1 < test $end
$upscope $end
$scope module spc $end
$var wire 1 5 clk32f $end
$var wire 1 4 clk4f $end
$var wire 1 3 in $end
$var wire 1 0 reset $end
$var reg 4 = BC_counter [3:0] $end
$var reg 1 > active $end
$var reg 8 ? register [7:0] $end
$var reg 1 2 valido $end
$upscope $end
$scope module sps $end
$var wire 1 @ _03_ $end
$var wire 1 A _10_ $end
$var wire 1 B _16_ $end
$var wire 1 C _17_ $end
$var wire 1 D _18_ $end
$var wire 1 E _19_ $end
$var wire 1 F _20_ $end
$var wire 1 G active $end
$var wire 1 5 clk32f $end
$var wire 1 4 clk4f $end
$var wire 1 3 in $end
$var wire 1 0 reset $end
$var wire 1 1 valido $end
$var wire 8 H register [7:0] $end
$var wire 32 I _15_ [31:0] $end
$var wire 32 J _14_ [31:0] $end
$var wire 32 K _13_ [31:0] $end
$var wire 4 L _12_ [3:0] $end
$var wire 4 M _11_ [3:0] $end
$var wire 8 N _09_ [7:0] $end
$var wire 8 O _08_ [7:0] $end
$var wire 16 P _07_ [15:0] $end
$var wire 2 Q _06_ [1:0] $end
$var wire 4 R _05_ [3:0] $end
$var wire 32 S _04_ [31:0] $end
$var wire 1 T _02_ $end
$var wire 8 U _01_ [7:0] $end
$var wire 4 V _00_ [3:0] $end
$var wire 4 W BC_counter [3:0] $end
$scope module _55_ $end
$var wire 1 4 C $end
$var wire 1 X D $end
$var reg 1 Y Q $end
$upscope $end
$scope module _56_ $end
$var wire 1 4 C $end
$var wire 1 Z D $end
$var reg 1 [ Q $end
$upscope $end
$scope module _57_ $end
$var wire 1 4 C $end
$var wire 1 \ D $end
$var reg 1 ] Q $end
$upscope $end
$scope module _58_ $end
$var wire 1 4 C $end
$var wire 1 ^ D $end
$var reg 1 _ Q $end
$upscope $end
$scope module _59_ $end
$var wire 1 4 C $end
$var wire 1 T D $end
$var reg 1 1 Q $end
$upscope $end
$scope module _60_ $end
$var wire 1 5 C $end
$var wire 1 ` D $end
$var reg 1 a Q $end
$upscope $end
$scope module _61_ $end
$var wire 1 5 C $end
$var wire 1 b D $end
$var reg 1 c Q $end
$upscope $end
$scope module _62_ $end
$var wire 1 5 C $end
$var wire 1 d D $end
$var reg 1 e Q $end
$upscope $end
$scope module _63_ $end
$var wire 1 5 C $end
$var wire 1 f D $end
$var reg 1 g Q $end
$upscope $end
$scope module _64_ $end
$var wire 1 5 C $end
$var wire 1 h D $end
$var reg 1 i Q $end
$upscope $end
$scope module _65_ $end
$var wire 1 5 C $end
$var wire 1 j D $end
$var reg 1 k Q $end
$upscope $end
$scope module _66_ $end
$var wire 1 5 C $end
$var wire 1 l D $end
$var reg 1 m Q $end
$upscope $end
$scope module _67_ $end
$var wire 1 5 C $end
$var wire 1 n D $end
$var reg 1 o Q $end
$upscope $end
$upscope $end
$upscope $end
$enddefinitions $end
#0
$dumpvars
xo
0n
xm
0l
xk
0j
xi
0h
xg
0f
xe
0d
xc
0b
xa
0`
x_
0^
x]
0\
x[
0Z
xY
0X
bx W
b0 V
b0 U
0T
b0zxxxx S
bx R
bx Q
b11111111111111xx P
b1111111x O
bx N
bx M
bx L
b0zxxx K
bxzxx J
b1111111111111111111111111111xxxx I
bx H
xG
xF
xE
xD
xC
xB
xA
x@
bx ?
x>
bx =
x<
0;
0:
09
08
07
z6
05
04
03
x2
x1
00
z/
z.
x-
z,
z+
x*
z)
z(
x'
z&
z%
z$
z#
z"
z!
$end
#1000000000000
19
0@
0G
0C
1D
1B
1E
b0z11 J
b1 M
0F
b11111110 O
b0z0001 S
b0z000 K
b1111111111111101 P
b11111111111111111111111111111011 I
b0 L
0>
1:
02
b0 =
0Y
0[
0]
b0 W
0_
01
14
1;
1A
b11 Q
b1110 R
b10111100 N
18
b0 ?
0a
0c
0e
0g
0i
0k
0m
b0 H
0o
1<
15
17
#2000000000000
07
#3000000000000
05
17
#4000000000000
07
#5000000000000
08
15
17
#6000000000000
07
#7000000000000
05
17
#8000000000000
07
#9000000000000
0;
18
10
15
17
#10000000000000
07
#11000000000000
05
17
#12000000000000
07
#13000000000000
08
15
17
#14000000000000
07
#15000000000000
05
17
#16000000000000
07
#17000000000000
04
1;
18
15
17
#18000000000000
07
#19000000000000
05
17
#20000000000000
07
#21000000000000
1`
b1 U
08
13
15
17
#22000000000000
07
#23000000000000
05
17
#24000000000000
07
#25000000000000
0;
1b
0`
b10111101 N
b1111 R
b10 U
03
18
b1 ?
b1 H
1a
15
17
#26000000000000
07
#27000000000000
05
17
#28000000000000
07
#29000000000000
1d
0b
b10111110 N
1`
b101 U
1c
b10 H
0a
b10 ?
08
13
15
17
#30000000000000
07
#31000000000000
05
17
#32000000000000
07
#33000000000000
0:
14
1;
1b
0d
1f
b10111001 N
b1011 U
18
b101 ?
1a
0c
b101 H
1e
15
17
#34000000000000
07
#35000000000000
05
17
#36000000000000
07
#37000000000000
1h
0f
1d
b10110111 N
0`
b10110 U
1g
0e
b1011 H
1c
b1011 ?
08
03
15
17
#38000000000000
07
#39000000000000
05
17
#40000000000000
07
#41000000000000
0;
0b
1f
0h
1j
1`
b10101010 N
b101101 U
13
18
b10110 ?
0a
1e
0g
b10110 H
1i
15
17
#42000000000000
07
#43000000000000
05
17
#44000000000000
07
#45000000000000
b1101 R
1l
0j
1h
0d
1b
b10010001 N
b1011011 U
1k
0i
1g
0c
b101101 H
1a
b101101 ?
08
15
17
#46000000000000
07
#47000000000000
05
17
#48000000000000
07
#49000000000000
04
1;
b1111 R
1d
0f
1j
0l
1n
b11100111 N
b10110111 U
18
b1011011 ?
1c
0e
1i
0k
b1011011 H
1m
15
17
#50000000000000
07
#51000000000000
05
17
#52000000000000
07
#53000000000000
b1 Q
b11 R
0n
1l
0h
1f
b1011 N
b1101111 U
1o
0m
1k
0g
b10110111 H
1e
b10110111 ?
08
15
17
#54000000000000
07
#55000000000000
05
17
#56000000000000
07
#57000000000000
0;
b11 Q
1h
0j
1n
0`
b1101 R
b11010011 N
b11011110 U
03
18
b1101111 ?
1g
0i
1m
b1101111 H
0o
15
17
#58000000000000
07
#59000000000000
05
17
#60000000000000
07
#61000000000000
0l
1j
0b
b1100010 N
b10111100 U
1o
0k
1i
b11011110 H
0a
b11011110 ?
08
15
17
#62000000000000
07
#63000000000000
05
17
#64000000000000
07
#65000000000000
09
1Z
b11111111111111111111111111111010 I
b10 M
b1111111111111100 P
b0z0010 S
b0z001 K
1:
b1 =
b1 W
1Y
14
1;
0X
b10 V
b10 L
0A
b0 Q
0d
1l
0n
1`
b0 N
b0 R
b1111001 U
13
18
b10111100 ?
0c
1k
b10111100 H
0m
15
17
#66000000000000
07
#67000000000000
05
17
#68000000000000
07
#69000000000000
1X
0Z
b1 V
b1 L
1A
b11 Q
1n
0f
1b
b11000101 N
b1011 R
0`
b11110010 U
0o
1m
0e
b1111001 H
1a
b1111001 ?
08
03
15
17
#70000000000000
07
#71000000000000
05
17
#72000000000000
07
#73000000000000
0;
0b
1d
0h
1`
b1001110 N
b11100101 U
13
18
b11110010 ?
0a
1c
0g
b11110010 H
1o
15
17
#74000000000000
07
#75000000000000
05
17
#76000000000000
07
#77000000000000
b1111 R
0j
1f
0d
1b
b1011001 N
b11001011 U
0i
1e
0c
b11100101 H
1a
b11100101 ?
08
15
17
#78000000000000
07
#79000000000000
05
17
#80000000000000
07
#81000000000000
04
1;
1d
0f
1h
0l
b1110111 N
b10010111 U
18
b11001011 ?
1c
0e
1g
b11001011 H
0k
15
17
#82000000000000
07
#83000000000000
05
17
#84000000000000
07
#85000000000000
0n
1j
0h
1f
b111 R
b101011 N
b101111 U
0m
1i
0g
b10010111 H
1e
b10010111 ?
08
15
17
#86000000000000
07
#87000000000000
05
17
#88000000000000
07
#89000000000000
0;
b1101 R
1h
0j
1l
0`
b10010011 N
b1011110 U
03
18
b101111 ?
1g
0i
1k
b101111 H
0o
15
17
#90000000000000
07
#91000000000000
05
17
#92000000000000
07
#93000000000000
1n
0l
1j
0b
b11100010 N
b10111100 U
1m
0k
1i
b1011110 H
0a
b1011110 ?
08
15
17
#94000000000000
07
#95000000000000
05
17
#96000000000000
07
#97000000000000
0E
b11 M
b11111111111111111111111111111001 I
b0z11 J
b0z0011 S
b0z000 K
1[
b10 W
0Y
b10 =
0:
14
1;
1X
1Z
b11 V
b11 L
0A
b0 Q
0d
1l
0n
1`
b0 R
b0 N
b1111001 U
13
18
b10111100 ?
0c
1k
0m
b10111100 H
1o
15
17
#98000000000000
07
#99000000000000
05
17
#100000000000000
07
#101000000000000
0X
b10 V
b10 L
1A
b11 Q
1n
0f
1b
b11000101 N
b1011 R
0`
b11110010 U
0o
1m
0e
b1111001 H
1a
b1111001 ?
08
03
15
17
#102000000000000
07
#103000000000000
05
17
#104000000000000
07
#105000000000000
0;
0b
1d
0h
1`
b1001110 N
b11100101 U
13
18
b11110010 ?
0a
1c
0g
b11110010 H
1o
15
17
#106000000000000
07
#107000000000000
05
17
#108000000000000
07
#109000000000000
b1111 R
0j
1f
0d
1b
b1011001 N
b11001011 U
0i
1e
0c
b11100101 H
1a
b11100101 ?
08
15
17
#110000000000000
07
#111000000000000
05
17
#112000000000000
07
#113000000000000
04
1;
1d
0f
1h
0l
b1110111 N
b10010111 U
18
b11001011 ?
1c
0e
1g
b11001011 H
0k
15
17
#114000000000000
07
#115000000000000
05
17
#116000000000000
07
#117000000000000
0n
1j
0h
1f
b111 R
b101011 N
b101111 U
0m
1i
0g
b10010111 H
1e
b10010111 ?
08
15
17
#118000000000000
07
#119000000000000
05
17
#120000000000000
07
#121000000000000
0;
b1101 R
1h
0j
1l
0`
b10010011 N
b1011110 U
03
18
b101111 ?
1g
0i
1k
b101111 H
0o
15
17
#122000000000000
07
#123000000000000
05
17
#124000000000000
07
#125000000000000
1n
0l
1j
0b
b11100010 N
b10111100 U
1m
0k
1i
b1011110 H
0a
b1011110 ?
08
15
17
#126000000000000
07
#127000000000000
05
17
#128000000000000
07
#129000000000000
19
1\
0Z
b11111111111111111111111111111000 I
b100 M
b0z0100 S
b0z011 K
1:
b11 =
b11 W
1Y
14
1;
0X
b100 V
b100 L
0A
b0 Q
0d
1l
0n
1`
b0 R
b0 N
b1111001 U
13
18
b10111100 ?
0c
1k
0m
b10111100 H
1o
15
17
#130000000000000
07
#131000000000000
05
17
#132000000000000
07
#133000000000000
1X
1Z
0\
b11 V
b11 L
1A
b11 Q
1n
0f
1b
b11000101 N
b1011 R
0`
b11110010 U
0o
1m
0e
b1111001 H
1a
b1111001 ?
08
03
15
17
#134000000000000
07
#135000000000000
05
17
#136000000000000
07
#137000000000000
0;
0b
1d
0h
1`
b1001110 N
b11100101 U
13
18
b11110010 ?
0a
1c
0g
b11110010 H
1o
15
17
#138000000000000
07
#139000000000000
05
17
#140000000000000
07
#141000000000000
b1111 R
0j
1f
0d
1b
b1011001 N
b11001011 U
0i
1e
0c
b11100101 H
1a
b11100101 ?
08
15
17
#142000000000000
07
#143000000000000
05
17
#144000000000000
07
#145000000000000
04
1;
1d
0f
1h
0l
b1110111 N
b10010111 U
18
b11001011 ?
1c
0e
1g
b11001011 H
0k
15
17
#146000000000000
07
#147000000000000
05
17
#148000000000000
07
#149000000000000
0n
1j
0h
1f
b111 R
b101011 N
b101111 U
0m
1i
0g
b10010111 H
1e
b10010111 ?
08
15
17
#150000000000000
07
#151000000000000
05
17
#152000000000000
07
#153000000000000
0;
b1101 R
1h
0j
1l
0`
b10010011 N
b1011110 U
03
18
b101111 ?
1g
0i
1k
b101111 H
0o
15
17
#154000000000000
07
#155000000000000
05
17
#156000000000000
07
#157000000000000
1n
0l
1j
0b
b11100010 N
b10111100 U
1m
0k
1i
b1011110 H
0a
b1011110 ?
08
15
17
#158000000000000
07
#159000000000000
05
17
#160000000000000
07
#161000000000000
0B
0^
1F
1G
1E
b11111111 O
b100 M
b1111111111111111 P
b11111111111111111111111111111111 I
b11111111111111111111111111111z11 J
b0z0101 S
b0z000 K
1>
1]
0[
b100 W
0Y
b100 =
0:
14
1;
0X
0Z
1\
b100 V
b100 L
0A
b0 Q
0d
1l
0n
1`
b0 R
b0 N
b1111001 U
13
18
b10111100 ?
0c
1k
0m
b10111100 H
1o
15
17
#162000000000000
07
#163000000000000
05
17
#164000000000000
07
#165000000000000
1T
1@
1A
b11 Q
1n
0f
1b
b11000101 N
b1011 R
0`
b11110010 U
0o
1m
0e
b1111001 H
1a
b1111001 ?
08
03
15
17
#166000000000000
07
#167000000000000
05
17
#168000000000000
07
#169000000000000
0;
0b
1d
0h
1`
b1001110 N
b11100101 U
13
18
b11110010 ?
0a
1c
0g
b11110010 H
1o
15
17
#170000000000000
07
#171000000000000
05
17
#172000000000000
07
#173000000000000
b1111 R
0j
1f
0d
1b
b1011001 N
0`
b11001010 U
0i
1e
0c
b11100101 H
1a
b11100101 ?
08
03
15
17
#174000000000000
07
#175000000000000
05
17
#176000000000000
07
#177000000000000
04
1;
0b
1d
0f
1h
0l
1`
b1110110 N
b10010101 U
13
18
b11001010 ?
0a
1c
0e
1g
b11001010 H
0k
15
17
#178000000000000
07
#179000000000000
05
17
#180000000000000
07
#181000000000000
0n
1j
0h
1f
0d
1b
b111 R
b101001 N
0`
b101010 U
0m
1i
0g
1e
0c
b10010101 H
1a
b10010101 ?
08
03
15
17
#182000000000000
07
#183000000000000
05
17
#184000000000000
07
#185000000000000
0;
b1111 R
0b
1d
0f
1h
0j
1l
1`
b10010110 N
b1010101 U
13
18
b101010 ?
0a
1c
0e
1g
0i
1k
b101010 H
0o
15
17
#186000000000000
07
#187000000000000
05
17
#188000000000000
07
#189000000000000
1n
0l
1j
0h
1f
0d
1b
b11101001 N
0`
b10101010 U
1m
0k
1i
0g
1e
0c
b1010101 H
1a
b1010101 ?
08
03
15
17
#190000000000000
07
#191000000000000
05
17
#192000000000000
07
#193000000000000
09
1:
11
12
14
1;
b111 R
0b
1d
0f
1h
0j
1l
0n
1`
b10110 N
b1010101 U
13
18
b10101010 ?
0a
1c
0e
1g
0i
1k
0m
b10101010 H
1o
15
17
#194000000000000
07
#195000000000000
05
17
#196000000000000
07
#197000000000000
1n
0l
1j
0h
1f
0d
1b
b1111 R
b11101001 N
0`
b10101010 U
0o
1m
0k
1i
0g
1e
0c
b1010101 H
1a
b1010101 ?
08
03
15
17
#198000000000000
07
#199000000000000
05
17
#200000000000000
07
#201000000000000
0;
b111 R
0b
1d
0f
1h
0j
1l
0n
1`
b10110 N
b1010101 U
13
18
b10101010 ?
0a
1c
0e
1g
0i
1k
0m
b10101010 H
1o
15
17
#202000000000000
07
#203000000000000
05
17
#204000000000000
07
#205000000000000
1n
0l
1j
0h
1f
0d
1b
b1111 R
b11101001 N
0`
b10101010 U
0o
1m
0k
1i
0g
1e
0c
b1010101 H
1a
b1010101 ?
08
03
15
17
#206000000000000
07
#207000000000000
05
17
#208000000000000
07
#209000000000000
04
1;
b111 R
0b
1d
0f
1h
0j
1l
0n
1`
b10110 N
b1010101 U
13
18
b10101010 ?
0a
1c
0e
1g
0i
1k
0m
b10101010 H
1o
15
17
#210000000000000
07
#211000000000000
05
17
#212000000000000
07
#213000000000000
1n
0l
1j
0h
1f
0d
1b
b1111 R
b11101001 N
0`
b10101010 U
0o
1m
0k
1i
0g
1e
0c
b1010101 H
1a
b1010101 ?
08
03
15
17
#214000000000000
07
#215000000000000
05
17
#216000000000000
07
#217000000000000
0;
b111 R
0b
1d
0f
1h
0j
1l
0n
1`
b10110 N
b1010101 U
13
18
b10101010 ?
0a
1c
0e
1g
0i
1k
0m
b10101010 H
1o
15
17
#218000000000000
07
#219000000000000
05
17
#220000000000000
07
#221000000000000
1n
0l
1j
0h
1f
0d
1b
b1111 R
b11101001 N
0`
b10101010 U
0o
1m
0k
1i
0g
1e
0c
b1010101 H
1a
b1010101 ?
08
03
15
17
#222000000000000
07
#223000000000000
05
17
#224000000000000
07
#225000000000000
0:
14
1;
b111 R
0b
1d
0f
1h
0j
1l
0n
1`
b10110 N
b1010101 U
13
18
b10101010 ?
0a
1c
0e
1g
0i
1k
0m
b10101010 H
1o
15
17
#226000000000000
07
#227000000000000
05
17
#228000000000000
07
#229000000000000
1n
0l
1j
0h
1f
0d
1b
b1111 R
b11101001 N
b10101011 U
0o
1m
0k
1i
0g
1e
0c
b1010101 H
1a
b1010101 ?
08
15
17
#230000000000000
07
#231000000000000
05
17
#232000000000000
07
#233000000000000
0;
b111 R
1d
0f
1h
0j
1l
0n
b1010111 U
b10111 N
18
b10101011 ?
1c
0e
1g
0i
1k
0m
b10101011 H
1o
15
17
#234000000000000
07
#235000000000000
05
17
#236000000000000
07
#237000000000000
1n
0l
1j
0h
1f
b1111 R
b11101011 N
0`
b10101110 U
0o
1m
0k
1i
0g
b1010111 H
1e
b1010111 ?
08
03
15
17
#238000000000000
07
#239000000000000
05
17
#240000000000000
07
#241000000000000
04
1;
b101 R
0b
1h
0j
1l
0n
1`
b10010 N
b1011101 U
13
18
b10101110 ?
0a
1g
0i
1k
0m
b10101110 H
1o
15
17
#242000000000000
07
#243000000000000
05
17
#244000000000000
07
#245000000000000
1n
0l
1j
0d
1b
b1101 R
b11100001 N
b10111011 U
0o
1m
0k
1i
0c
b1011101 H
1a
b1011101 ?
08
15
17
#246000000000000
07
#247000000000000
05
17
#248000000000000
07
#249000000000000
0;
b1 Q
b11 R
1d
0f
1l
0n
b1110111 U
b111 N
18
b10111011 ?
1c
0e
1k
0m
b10111011 H
1o
15
17
#250000000000000
07
#251000000000000
05
17
#252000000000000
07
#253000000000000
b11 Q
1n
0h
1f
b1011 R
b11001011 N
0`
b11101110 U
0o
1m
0g
b1110111 H
1e
b1110111 ?
08
03
15
17
#254000000000000
07
#255000000000000
05
17
#256000000000000
07
#257000000000000
19
1:
14
1;
b1101 R
0b
1h
0j
1`
b1010010 N
b11011101 U
13
18
b11101110 ?
0a
1g
0i
b11101110 H
1o
15
17
#258000000000000
07
#259000000000000
05
17
#260000000000000
07
#261000000000000
0l
1j
0d
1b
b1100001 N
b10111011 U
0k
1i
0c
b11011101 H
1a
b11011101 ?
08
15
17
#262000000000000
07
#263000000000000
05
17
#264000000000000
07
#265000000000000
0;
b1 Q
1d
0f
1l
0n
b111 N
b1110111 U
b11 R
18
b10111011 ?
1c
0e
1k
b10111011 H
0m
15
17
#266000000000000
07
#267000000000000
05
17
#268000000000000
07
#269000000000000
b11 Q
1n
0h
1f
b1011 R
b11001011 N
b11101111 U
0o
1m
0g
b1110111 H
1e
b1110111 ?
08
15
17
#270000000000000
07
#271000000000000
05
17
#272000000000000
07
#273000000000000
04
1;
b1101 R
1h
0j
b11011111 U
b1010011 N
18
b11101111 ?
1g
0i
b11101111 H
1o
15
17
#274000000000000
07
#275000000000000
05
17
#276000000000000
07
#277000000000000
0l
1j
b1100011 N
b10111111 U
0k
b11011111 H
1i
b11011111 ?
08
15
17
#278000000000000
07
#279000000000000
05
17
#280000000000000
07
#281000000000000
0;
b1 Q
1l
0n
b11 N
b1111111 U
b1 R
18
b10111111 ?
1k
b10111111 H
0m
15
17
#282000000000000
07
#283000000000000
05
17
#284000000000000
07
#285000000000000
b11 Q
1n
b11000011 N
b11111111 U
b1001 R
0o
b1111111 H
1m
b1111111 ?
08
15
17
#286000000000000
07
#287000000000000
05
17
#288000000000000
07
#289000000000000
0:
14
1;
b1000011 N
18
b11111111 ?
b11111111 H
1o
15
17
#290000000000000
07
#291000000000000
05
17
#292000000000000
07
#293000000000000
0`
b11111110 U
08
03
15
17
#294000000000000
07
#295000000000000
05
17
#296000000000000
07
#297000000000000
0;
0b
1`
b1000010 N
b11111101 U
13
18
b11111110 ?
b11111110 H
0a
15
17
#298000000000000
07
#299000000000000
05
17
#300000000000000
07
#301000000000000
0d
1b
b1000001 N
b11111011 U
0c
b11111101 H
1a
b11111101 ?
08
15
17
#302000000000000
07
#303000000000000
05
17
#304000000000000
07
#305000000000000
04
1;
b1011 R
1d
0f
b1000111 N
b11110111 U
18
b11111011 ?
1c
b11111011 H
0e
15
17
#306000000000000
07
#307000000000000
05
17
#308000000000000
07
#309000000000000
0h
1f
b1001011 N
b11101111 U
0g
b11110111 H
1e
b11110111 ?
08
15
17
#310000000000000
07
#311000000000000
05
17
#312000000000000
07
#313000000000000
0;
b1101 R
1h
0j
0`
b1010011 N
b11011110 U
03
18
b11101111 ?
1g
b11101111 H
0i
15
17
#314000000000000
07
#315000000000000
05
17
#316000000000000
07
#317000000000000
0l
1j
0b
b1100010 N
b10111100 U
0k
1i
b11011110 H
0a
b11011110 ?
08
15
17
#318000000000000
07
#319000000000000
05
17
#320000000000000
07
#321000000000000
09
1:
01
02
14
1;
0T
0@
0A
b0 Q
0d
1l
0n
1`
b0 N
b0 R
b1111001 U
13
18
b10111100 ?
0c
1k
b10111100 H
0m
15
17
#322000000000000
07
#323000000000000
05
17
#324000000000000
07
#325000000000000
1T
1@
1A
b11 Q
1n
0f
1b
b11000101 N
b1011 R
0`
b11110010 U
0o
1m
0e
b1111001 H
1a
b1111001 ?
08
03
15
17
#326000000000000
07
#327000000000000
05
17
#328000000000000
07
#329000000000000
0;
0b
1d
0h
1`
b1001110 N
b11100101 U
13
18
b11110010 ?
0a
1c
0g
b11110010 H
1o
15
17
#330000000000000
07
#331000000000000
05
17
#332000000000000
07
#333000000000000
b1111 R
0j
1f
0d
1b
b1011001 N
b11001011 U
0i
1e
0c
b11100101 H
1a
b11100101 ?
08
15
17
#334000000000000
07
#335000000000000
05
17
#336000000000000
07
#337000000000000
04
1;
1d
0f
1h
0l
b1110111 N
b10010111 U
18
b11001011 ?
1c
0e
1g
b11001011 H
0k
15
17
#338000000000000
07
#339000000000000
05
17
#340000000000000
07
#341000000000000
0n
1j
0h
1f
b111 R
b101011 N
b101111 U
0m
1i
0g
b10010111 H
1e
b10010111 ?
08
15
17
#342000000000000
07
#343000000000000
05
17
#344000000000000
07
#345000000000000
0;
b1101 R
1h
0j
1l
0`
b10010011 N
b1011110 U
03
18
b101111 ?
1g
0i
1k
b101111 H
0o
15
17
#346000000000000
07
#347000000000000
05
17
#348000000000000
07
#349000000000000
1n
0l
1j
0b
b11100010 N
b10111100 U
1m
0k
1i
b1011110 H
0a
b1011110 ?
08
15
17
#350000000000000
07
#351000000000000
05
17
#352000000000000
07
#353000000000000
0:
14
1;
0T
0@
0A
b0 Q
0d
1l
0n
1`
b0 R
b0 N
b1111001 U
13
18
b10111100 ?
0c
1k
0m
b10111100 H
1o
15
17
#354000000000000
07
#355000000000000
05
17
#356000000000000
07
#357000000000000
1T
1@
1A
b11 Q
1n
0f
1b
b11000101 N
b1011 R
0`
b11110010 U
0o
1m
0e
b1111001 H
1a
b1111001 ?
08
03
15
17
#358000000000000
07
#359000000000000
05
17
#360000000000000
07
#361000000000000
0;
0b
1d
0h
1`
b1001110 N
b11100101 U
13
18
b11110010 ?
0a
1c
0g
b11110010 H
1o
15
17
#362000000000000
07
#363000000000000
05
17
#364000000000000
07
#365000000000000
b1111 R
0j
1f
0d
1b
b1011001 N
b11001011 U
0i
1e
0c
b11100101 H
1a
b11100101 ?
08
15
17
#366000000000000
07
#367000000000000
05
17
#368000000000000
07
#369000000000000
04
1;
1d
0f
1h
0l
b1110111 N
b10010111 U
18
b11001011 ?
1c
0e
1g
b11001011 H
0k
15
17
#370000000000000
07
#371000000000000
05
17
#372000000000000
07
#373000000000000
0n
1j
0h
1f
b111 R
b101011 N
b101111 U
0m
1i
0g
b10010111 H
1e
b10010111 ?
08
15
17
#374000000000000
07
#375000000000000
05
17
#376000000000000
07
#377000000000000
0;
b1101 R
1h
0j
1l
0`
b10010011 N
b1011110 U
03
18
b101111 ?
1g
0i
1k
b101111 H
0o
15
17
#378000000000000
07
#379000000000000
05
17
#380000000000000
07
#381000000000000
1n
0l
1j
0b
b11100010 N
b10111100 U
1m
0k
1i
b1011110 H
0a
b1011110 ?
08
15
17
#382000000000000
07
#383000000000000
05
17
#384000000000000
07
#385000000000000
19
1:
14
1;
0T
0@
0A
b0 Q
0d
1l
0n
1`
b0 R
b0 N
b1111001 U
13
18
b10111100 ?
0c
1k
0m
b10111100 H
1o
15
17
#386000000000000
07
#387000000000000
05
17
#388000000000000
07
#389000000000000
1T
1@
1A
b11 Q
1n
0f
1b
b11000101 N
b1011 R
0`
b11110010 U
0o
1m
0e
b1111001 H
1a
b1111001 ?
08
03
15
17
#390000000000000
07
#391000000000000
05
17
#392000000000000
07
#393000000000000
0;
0b
1d
0h
1`
b1001110 N
b11100101 U
13
18
b11110010 ?
0a
1c
0g
b11110010 H
1o
15
17
#394000000000000
07
#395000000000000
05
17
#396000000000000
07
#397000000000000
b1111 R
0j
1f
0d
1b
b1011001 N
b11001011 U
0i
1e
0c
b11100101 H
1a
b11100101 ?
08
15
17
#398000000000000
07
#399000000000000
05
17
#400000000000000
07
#401000000000000
04
1;
1d
0f
1h
0l
b1110111 N
b10010111 U
18
b11001011 ?
1c
0e
1g
b11001011 H
0k
15
17
#402000000000000
07
#403000000000000
05
17
#404000000000000
07
#405000000000000
0n
1j
0h
1f
b111 R
b101011 N
b101111 U
0m
1i
0g
b10010111 H
1e
b10010111 ?
08
15
17
#406000000000000
07
#407000000000000
05
17
#408000000000000
07
#409000000000000
0;
b1101 R
1h
0j
1l
0`
b10010011 N
b1011110 U
03
18
b101111 ?
1g
0i
1k
b101111 H
0o
15
17
#410000000000000
07
#411000000000000
05
17
#412000000000000
07
#413000000000000
1n
0l
1j
0b
b11100010 N
b10111100 U
1m
0k
1i
b1011110 H
0a
b1011110 ?
08
15
17
