Demux/Demux1x2/muxy.vcd
$date
	Wed Jun  3 00:26:50 2020
$end
$version
	Icarus Verilog
$end
$timescale
	1ps
$end
$scope module BUF $end
$var wire 1 ! A $end
$var wire 1 " Y $end
$upscope $end
$scope module DFFSR $end
$var wire 1 # C $end
$var wire 1 $ D $end
$var wire 1 % R $end
$var wire 1 & S $end
$var reg 1 ' Q $end
$upscope $end
$scope module NAND $end
$var wire 1 ( A $end
$var wire 1 ) B $end
$var wire 1 * Y $end
$upscope $end
$scope module NOR $end
$var wire 1 + A $end
$var wire 1 , B $end
$var wire 1 - Y $end
$upscope $end
$scope module NOT $end
$var wire 1 . A $end
$var wire 1 / Y $end
$upscope $end
$scope module bancoPruebas $end
$var wire 2 0 validouts [1:0] $end
$var wire 2 1 validoutc [1:0] $end
$var wire 1 2 valid $end
$var wire 1 3 reset $end
$var wire 8 4 out1s [7:0] $end
$var wire 8 5 out1c [7:0] $end
$var wire 8 6 out0s [7:0] $end
$var wire 8 7 out0c [7:0] $end
$var wire 8 8 in [7:0] $end
$var wire 1 9 clk4f $end
$var wire 1 : clk2f $end
$var wire 1 ; clk1f $end
$scope module Tb $end
$var wire 2 < validouts [1:0] $end
$var wire 2 = validoutc [1:0] $end
$var wire 8 > out1s [7:0] $end
$var wire 8 ? out1c [7:0] $end
$var wire 8 @ out0s [7:0] $end
$var wire 8 A out0c [7:0] $end
$var reg 1 B clk $end
$var reg 1 C clk16f $end
$var reg 1 ; clk1f $end
$var reg 1 : clk2f $end
$var reg 1 D clk32f $end
$var reg 1 9 clk4f $end
$var reg 1 E clk8f $end
$var reg 8 F in [7:0] $end
$var reg 1 3 reset $end
$var reg 1 G test $end
$var reg 1 2 valid $end
$upscope $end
$scope module demux_behav $end
$var wire 1 9 clk $end
$var wire 8 H in [7:0] $end
$var wire 1 3 reset $end
$var wire 1 2 valid $end
$var reg 8 I node0 [7:0] $end
$var reg 8 J node1 [7:0] $end
$var reg 8 K out0 [7:0] $end
$var reg 8 L out1 [7:0] $end
$var reg 1 M selector $end
$var reg 2 N validout [1:0] $end
$upscope $end
$scope module demux_struct $end
$var wire 1 O _04_ $end
$var wire 1 9 clk $end
$var wire 8 P in [7:0] $end
$var wire 1 3 reset $end
$var wire 1 2 valid $end
$var wire 2 Q validout [1:0] $end
$var wire 1 R selector $end
$var wire 8 S out1 [7:0] $end
$var wire 8 T out0 [7:0] $end
$var wire 8 U node1 [7:0] $end
$var wire 8 V node0 [7:0] $end
$var wire 8 W _10_ [7:0] $end
$var wire 8 X _09_ [7:0] $end
$var wire 8 Y _08_ [7:0] $end
$var wire 8 Z _07_ [7:0] $end
$var wire 1 [ _06_ $end
$var wire 1 \ _05_ $end
$var wire 2 ] _03_ [1:0] $end
$var wire 1 ^ _02_ $end
$var wire 8 _ _01_ [7:0] $end
$var wire 8 ` _00_ [7:0] $end
$scope module _65_ $end
$var wire 1 9 C $end
$var wire 1 a D $end
$var reg 1 b Q $end
$upscope $end
$scope module _66_ $end
$var wire 1 9 C $end
$var wire 1 c D $end
$var reg 1 d Q $end
$upscope $end
$scope module _67_ $end
$var wire 1 9 C $end
$var wire 1 e D $end
$var reg 1 f Q $end
$upscope $end
$scope module _68_ $end
$var wire 1 9 C $end
$var wire 1 g D $end
$var reg 1 h Q $end
$upscope $end
$scope module _69_ $end
$var wire 1 9 C $end
$var wire 1 i D $end
$var reg 1 j Q $end
$upscope $end
$scope module _70_ $end
$var wire 1 9 C $end
$var wire 1 k D $end
$var reg 1 l Q $end
$upscope $end
$scope module _71_ $end
$var wire 1 9 C $end
$var wire 1 m D $end
$var reg 1 n Q $end
$upscope $end
$scope module _72_ $end
$var wire 1 9 C $end
$var wire 1 o D $end
$var reg 1 p Q $end
$upscope $end
$scope module _73_ $end
$var wire 1 9 C $end
$var wire 1 q D $end
$var reg 1 r Q $end
$upscope $end
$scope module _74_ $end
$var wire 1 9 C $end
$var wire 1 s D $end
$var reg 1 t Q $end
$upscope $end
$scope module _75_ $end
$var wire 1 9 C $end
$var wire 1 u D $end
$var reg 1 v Q $end
$upscope $end
$scope module _76_ $end
$var wire 1 9 C $end
$var wire 1 w D $end
$var reg 1 x Q $end
$upscope $end
$scope module _77_ $end
$var wire 1 9 C $end
$var wire 1 y D $end
$var reg 1 z Q $end
$upscope $end
$scope module _78_ $end
$var wire 1 9 C $end
$var wire 1 { D $end
$var reg 1 | Q $end
$upscope $end
$scope module _79_ $end
$var wire 1 9 C $end
$var wire 1 } D $end
$var reg 1 ~ Q $end
$upscope $end
$scope module _80_ $end
$var wire 1 9 C $end
$var wire 1 !" D $end
$var reg 1 "" Q $end
$upscope $end
$scope module _81_ $end
$var wire 1 9 C $end
$var wire 1 #" D $end
$var reg 1 $" Q $end
$upscope $end
$scope module _82_ $end
$var wire 1 9 C $end
$var wire 1 %" D $end
$var reg 1 &" Q $end
$upscope $end
$scope module _83_ $end
$var wire 1 9 C $end
$var wire 1 '" D $end
$var reg 1 (" Q $end
$upscope $end
$scope module _84_ $end
$var wire 1 9 C $end
$var wire 1 )" D $end
$var reg 1 *" Q $end
$upscope $end
$scope module _85_ $end
$var wire 1 9 C $end
$var wire 1 +" D $end
$var reg 1 ," Q $end
$upscope $end
$scope module _86_ $end
$var wire 1 9 C $end
$var wire 1 -" D $end
$var reg 1 ." Q $end
$upscope $end
$scope module _87_ $end
$var wire 1 9 C $end
$var wire 1 /" D $end
$var reg 1 0" Q $end
$upscope $end
$scope module _88_ $end
$var wire 1 9 C $end
$var wire 1 1" D $end
$var reg 1 2" Q $end
$upscope $end
$scope module _89_ $end
$var wire 1 9 C $end
$var wire 1 3" D $end
$var reg 1 4" Q $end
$upscope $end
$scope module _90_ $end
$var wire 1 9 C $end
$var wire 1 5" D $end
$var reg 1 6" Q $end
$upscope $end
$scope module _91_ $end
$var wire 1 9 C $end
$var wire 1 7" D $end
$var reg 1 8" Q $end
$upscope $end
$scope module _92_ $end
$var wire 1 9 C $end
$var wire 1 9" D $end
$var reg 1 :" Q $end
$upscope $end
$scope module _93_ $end
$var wire 1 9 C $end
$var wire 1 ;" D $end
$var reg 1 <" Q $end
$upscope $end
$scope module _94_ $end
$var wire 1 9 C $end
$var wire 1 =" D $end
$var reg 1 >" Q $end
$upscope $end
$scope module _95_ $end
$var wire 1 9 C $end
$var wire 1 ?" D $end
$var reg 1 @" Q $end
$upscope $end
$scope module _96_ $end
$var wire 1 9 C $end
$var wire 1 A" D $end
$var reg 1 B" Q $end
$upscope $end
$scope module _97_ $end
$var wire 1 9 C $end
$var wire 1 C" D $end
$var reg 1 D" Q $end
$upscope $end
$scope module _98_ $end
$var wire 1 9 C $end
$var wire 1 E" D $end
$var reg 1 F" Q $end
$upscope $end
$scope module _99_ $end
$var wire 1 9 C $end
$var wire 1 ^ D $end
$var reg 1 R Q $end
$upscope $end
$upscope $end
$upscope $end
$enddefinitions $end
#0
$dumpvars
xF"
0E"
xD"
0C"
xB"
0A"
x@"
0?"
x>"
0="
x<"
0;"
x:"
09"
x8"
07"
x6"
05"
x4"
03"
x2"
01"
x0"
0/"
x."
0-"
x,"
0+"
x*"
0)"
x("
0'"
x&"
x%"
x$"
x#"
x""
x!"
x~
x}
x|
x{
xz
xy
xx
xw
xv
xu
xt
xs
xr
xq
xp
xo
xn
xm
xl
xk
xj
xi
xh
xg
xf
xe
xd
xc
xb
xa
b0 `
b0 _
0^
bx ]
x\
x[
b0 Z
bx Y
b0 X
bx W
bx V
bx U
bx T
bx S
xR
bx Q
b0 P
xO
bx N
xM
bx L
bx K
bx J
bx I
b0 H
xG
b0 F
0E
0D
0C
0B
bx A
bx @
bx ?
bx >
bx =
bx <
0;
0:
09
b0 8
bx 7
bx 6
bx 5
bx 4
03
12
bx 1
bx 0
z/
z.
x-
z,
z+
x*
z)
z(
x'
z&
z%
z$
z#
z"
z!
$end
#5000
1;
b0 Y
0a
0c
0e
0g
0i
0k
0m
0o
0q
0s
0u
0w
0y
0{
0}
0!"
1\
b0 W
1O
0M
b0 J
b0 I
0("
0*"
0,"
0."
00"
02"
04"
b0 V
06"
08"
0:"
0<"
0>"
0@"
0B"
0D"
b0 U
0F"
0R
1:
19
1E
1C
1G
1D
1B
#10000
0B
#15000
0D
1B
#20000
0B
#25000
0C
1D
1B
#30000
0B
#35000
0D
1B
#40000
0B
#45000
0E
1C
1D
1B
#50000
0B
#55000
0D
1B
#60000
0B
#65000
0C
1D
1B
#70000
0B
#75000
0D
1B
#80000
0B
#85000
09
1E
1C
1D
1B
#90000
0B
#95000
0D
1B
#100000
0B
#105000
0C
1D
1B
#110000
0B
#115000
0D
1B
#120000
0B
#125000
0E
1C
1D
1B
#130000
0B
#135000
0D
1B
#140000
0B
#145000
0C
1D
1B
#150000
0B
#155000
0D
1B
#160000
0B
#165000
0:
0""
0~
0|
0z
0x
0v
0t
b0 4
b0 >
b0 S
0r
0p
0n
0l
0j
0h
0f
0d
b0 6
b0 @
b0 T
0b
b0 5
b0 ?
b0 L
b0 7
b0 A
b0 K
19
1E
1C
1D
1B
#170000
0B
#175000
0D
1B
#180000
0B
#185000
0C
1D
1B
#190000
0B
#195000
0D
1B
#200000
0B
#205000
0E
1C
1D
1B
#210000
0B
#215000
0D
1B
#220000
0B
#225000
0C
1D
1B
#230000
0B
#235000
0D
1B
#240000
0B
#245000
09
1E
1C
1D
1B
#250000
0B
#255000
0D
1B
#260000
0B
#265000
0C
1D
1B
#270000
0B
#275000
0D
1B
#280000
0B
#285000
0E
1C
1D
1B
#290000
0B
#295000
0D
1B
#300000
0B
#305000
0C
1D
1B
#310000
0B
#315000
0D
1B
#320000
0B
#325000
0;
1:
19
1E
1C
1D
1B
#330000
0B
#335000
0D
1B
#340000
0B
#345000
0C
1D
1B
#350000
0B
#355000
0D
1B
#360000
0B
#365000
0E
1C
1D
1B
#370000
0B
#375000
0D
1B
#380000
0B
#385000
0C
1D
1B
#390000
0B
#395000
0D
1B
#400000
0B
#405000
09
1E
1C
1D
1B
#410000
0B
#415000
0D
1B
#420000
0B
#425000
0C
1D
1B
#430000
0B
#435000
0D
1B
#440000
0B
#445000
0E
1C
1D
1B
#450000
0B
#455000
0D
1B
#460000
0B
#465000
0C
1D
1B
#470000
0B
#475000
0D
1B
#480000
0B
#485000
0:
19
1E
1C
1D
1B
#490000
0B
#495000
0D
1B
#500000
0B
#505000
0C
1D
1B
#510000
0B
#515000
0D
1B
#520000
0B
#525000
0E
1C
1D
1B
#530000
0B
#535000
0D
1B
#540000
0B
#545000
0C
1D
1B
#550000
0B
#555000
0D
1B
#560000
0B
#565000
09
1E
1C
1D
1B
#570000
0B
#575000
0D
1B
#580000
0B
#585000
0C
1D
1B
#590000
0B
#595000
0D
1B
#600000
0B
#605000
0E
1C
1D
1B
#610000
0B
#615000
0D
1B
#620000
0B
#625000
0C
1D
1B
#630000
0B
#635000
0D
1B
#640000
0B
#645000
1;
1:
19
1E
1C
1D
1B
#650000
0B
#655000
0D
1B
#660000
0B
#665000
0C
1D
1B
#670000
0B
#675000
0D
1B
#680000
0B
#685000
0E
1C
1D
1B
#690000
0B
#695000
0D
1B
#700000
0B
#705000
0C
1D
1B
#710000
0B
#715000
0D
1B
#720000
0B
#725000
09
1E
1C
1D
1B
#730000
0B
#735000
0D
1B
#740000
0B
#745000
0C
1D
1B
#750000
0B
#755000
0D
1B
#760000
0B
#765000
0E
1C
1D
1B
#770000
0B
#775000
0D
1B
#780000
0B
#785000
0C
1D
1B
#790000
0B
#795000
0D
1B
#800000
0B
#805000
0:
19
1E
1C
1D
1B
#810000
0B
#815000
0D
1B
#820000
0B
#825000
0C
1D
1B
#830000
0B
#835000
0D
1B
#840000
0B
#845000
0E
1C
1D
1B
#850000
0B
#855000
0D
1B
#860000
0B
#865000
0C
1D
1B
#870000
0B
#875000
0D
1B
#880000
0B
#885000
09
1E
1C
1D
1B
#890000
0B
#895000
0D
1B
#900000
0B
#905000
0C
1D
1B
#910000
0B
#915000
0D
1B
#920000
0B
#925000
0E
1C
1D
1B
#930000
0B
#935000
0D
1B
#940000
0B
#945000
0C
1D
1B
#950000
0B
#955000
0D
1B
#960000
0B
#965000
0;
1:
19
1E
1C
1D
1B
#970000
0B
#975000
0D
1B
#980000
0B
#985000
0C
1D
1B
#990000
0B
#995000
0D
1B
#1000000
0B
#1005000
0E
1C
1D
1B
#1010000
0B
#1015000
0D
1B
#1020000
0B
#1025000
0C
1D
1B
#1030000
0B
#1035000
0D
1B
#1040000
0B
#1045000
09
1E
1C
1D
1B
#1050000
0B
#1055000
0D
1B
#1060000
0B
#1065000
0C
1D
1B
#1070000
0B
#1075000
0D
1B
#1080000
0B
#1085000
0E
1C
1D
1B
#1090000
0B
#1095000
0D
1B
#1100000
0B
#1105000
0C
1D
1B
#1110000
0B
#1115000
0D
1B
#1120000
0B
#1125000
0:
19
1E
1C
1D
1B
#1130000
0B
#1135000
0D
1B
#1140000
0B
#1145000
0C
1D
1B
#1150000
0B
#1155000
0D
1B
#1160000
0B
#1165000
0E
1C
1D
1B
#1170000
0B
#1175000
0D
1B
#1180000
0B
#1185000
0C
1D
1B
#1190000
0B
#1195000
0D
1B
#1200000
0B
#1205000
09
1E
1C
1D
1B
#1210000
0B
#1215000
0D
1B
#1220000
0B
#1225000
0C
1D
1B
#1230000
0B
#1235000
0D
1B
#1240000
0B
#1245000
0E
1C
1D
1B
#1250000
0B
#1255000
0D
1B
#1260000
0B
#1265000
0C
1D
1B
#1270000
0B
#1275000
0D
1B
#1280000
0B
#1285000
1;
1:
19
1E
1C
1D
1B
#1290000
0B
#1295000
0D
1B
#1300000
0B
#1305000
0C
1D
1B
#1310000
0B
#1315000
0D
1B
#1320000
0B
#1325000
0E
1C
1D
1B
#1330000
0B
#1335000
0D
1B
#1340000
0B
#1345000
0C
1D
1B
#1350000
0B
#1355000
0D
1B
#1360000
0B
#1365000
09
1E
1C
1D
1B
#1370000
0B
#1375000
0D
1B
#1380000
0B
#1385000
0C
1D
1B
#1390000
0B
#1395000
0D
1B
#1400000
0B
#1405000
0E
1C
1D
1B
#1410000
0B
#1415000
0D
1B
#1420000
0B
#1425000
0C
1D
1B
#1430000
0B
#1435000
0D
1B
#1440000
0B
#1445000
0:
19
1E
1C
1D
1B
#1450000
0B
#1455000
0D
1B
#1460000
0B
#1465000
0C
1D
1B
#1470000
0B
#1475000
0D
1B
#1480000
0B
#1485000
0E
1C
1D
1B
#1490000
0B
#1495000
0D
1B
#1500000
0B
#1505000
0C
1D
1B
#1510000
0B
#1515000
0D
1B
#1520000
0B
#1525000
09
1E
1C
1D
1B
#1530000
0B
#1535000
0D
1B
#1540000
0B
#1545000
0C
1D
1B
#1550000
0B
#1555000
0D
1B
#1560000
0B
#1565000
0E
1C
1D
1B
#1570000
0B
#1575000
0D
1B
#1580000
0B
#1585000
0C
1D
1B
#1590000
0B
#1595000
0D
1B
#1600000
0B
#1605000
0;
1:
19
1E
1C
1D
1B
#1610000
0B
#1615000
0D
1B
#1620000
0B
#1625000
0C
1D
1B
#1630000
0B
#1635000
0D
1B
#1640000
0B
#1645000
0E
1C
1D
1B
#1650000
0B
#1655000
0D
1B
#1660000
0B
#1665000
0C
1D
1B
#1670000
0B
#1675000
0D
1B
#1680000
0B
#1685000
09
1E
1C
1D
1B
#1690000
0B
#1695000
0D
1B
#1700000
0B
#1705000
0C
1D
1B
#1710000
0B
#1715000
0D
1B
#1720000
0B
#1725000
0E
1C
1D
1B
#1730000
0B
#1735000
0D
1B
#1740000
0B
#1745000
0C
1D
1B
#1750000
0B
#1755000
0D
1B
#1760000
0B
#1765000
0:
19
1E
1C
1D
1B
#1770000
0B
#1775000
0D
1B
#1780000
0B
#1785000
0C
1D
1B
#1790000
0B
#1795000
0D
1B
#1800000
0B
#1805000
0E
1C
1D
1B
#1810000
0B
#1815000
0D
1B
#1820000
0B
#1825000
0C
1D
1B
#1830000
0B
#1835000
0D
1B
#1840000
0B
#1845000
09
1E
1C
1D
1B
#1850000
0B
#1855000
0D
1B
#1860000
0B
#1865000
0C
1D
1B
#1870000
0B
#1875000
0D
1B
#1880000
0B
#1885000
0E
1C
1D
1B
#1890000
0B
#1895000
0D
1B
#1900000
0B
#1905000
0C
1D
1B
#1910000
0B
#1915000
0D
1B
#1920000
0B
#1925000
1;
1:
19
1E
1C
1D
1B
#1930000
0B
#1935000
0D
1B
#1940000
0B
#1945000
0C
1D
1B
#1950000
0B
#1955000
0D
1B
#1960000
0B
#1965000
0E
1C
1D
1B
#1970000
0B
#1975000
0D
1B
#1980000
0B
#1985000
0C
1D
1B
#1990000
0B
#1995000
0D
1B
#2000000
0B
#2005000
09
1E
1C
1D
1B
#2010000
0B
#2015000
0D
1B
#2020000
0B
#2025000
0C
1D
1B
#2030000
0B
#2035000
0D
1B
#2040000
0B
#2045000
0E
1C
1D
1B
#2050000
0B
#2055000
0D
1B
#2060000
0B
#2065000
0C
1D
1B
#2070000
0B
#2075000
0D
1B
#2080000
0B
#2085000
0:
19
1E
1C
1D
1B
#2090000
0B
#2095000
0D
1B
#2100000
0B
#2105000
0C
1D
1B
#2110000
0B
#2115000
0D
1B
#2120000
0B
#2125000
0E
1C
1D
1B
#2130000
0B
#2135000
0D
1B
#2140000
0B
#2145000
0C
1D
1B
#2150000
0B
#2155000
0D
1B
#2160000
0B
#2165000
09
1E
1C
1D
1B
#2170000
0B
#2175000
0D
1B
#2180000
0B
#2185000
0C
1D
1B
#2190000
0B
#2195000
0D
1B
#2200000
0B
#2205000
0E
1C
1D
1B
#2210000
0B
#2215000
0D
1B
#2220000
0B
#2225000
0C
1D
1B
#2230000
0B
#2235000
0D
1B
#2240000
0B
#2245000
0;
1:
19
1E
1C
1D
1B
#2250000
0B
#2255000
0D
1B
#2260000
0B
#2265000
0C
1D
1B
#2270000
0B
#2275000
0D
1B
#2280000
0B
#2285000
0E
1C
1D
1B
#2290000
0B
#2295000
0D
1B
#2300000
0B
#2305000
0C
1D
1B
#2310000
0B
#2315000
0D
1B
#2320000
0B
#2325000
09
1E
1C
1D
1B
#2330000
0B
#2335000
0D
1B
#2340000
0B
#2345000
0C
1D
1B
#2350000
0B
#2355000
0D
1B
#2360000
0B
#2365000
0E
1C
1D
1B
#2370000
0B
#2375000
0D
1B
#2380000
0B
#2385000
0C
1D
1B
#2390000
0B
#2395000
0D
1B
#2400000
0B
#2405000
0:
19
1E
1C
1D
1B
#2410000
0B
#2415000
0D
1B
#2420000
0B
#2425000
0C
1D
1B
#2430000
0B
#2435000
0D
1B
#2440000
0B
#2445000
0E
1C
1D
1B
#2450000
0B
#2455000
0D
1B
#2460000
0B
#2465000
0C
1D
1B
#2470000
0B
#2475000
0D
1B
#2480000
0B
#2485000
09
1E
1C
1D
1B
#2490000
0B
#2495000
0D
1B
#2500000
0B
#2505000
0C
1D
1B
#2510000
0B
#2515000
0D
1B
#2520000
0B
#2525000
0E
1C
1D
1B
#2530000
0B
#2535000
0D
1B
#2540000
0B
#2545000
0C
1D
1B
#2550000
0B
#2555000
0D
1B
#2560000
0B
#2565000
1;
1:
19
1E
1C
1D
1B
#2570000
0B
#2575000
0D
1B
#2580000
0B
#2585000
0C
1D
1B
#2590000
0B
#2595000
0D
1B
#2600000
0B
#2605000
0E
1C
1D
1B
#2610000
0B
#2615000
0D
1B
#2620000
0B
#2625000
0C
1D
1B
#2630000
0B
#2635000
0D
1B
#2640000
0B
#2645000
09
1E
1C
1D
1B
#2650000
0B
#2655000
0D
1B
#2660000
0B
#2665000
0C
1D
1B
#2670000
0B
#2675000
0D
1B
#2680000
0B
#2685000
0E
1C
1D
1B
#2690000
0B
#2695000
0D
1B
#2700000
0B
#2705000
0C
1D
1B
#2710000
0B
#2715000
0D
1B
#2720000
0B
#2725000
0:
19
1E
1C
1D
1B
#2730000
0B
#2735000
0D
1B
#2740000
0B
#2745000
0C
1D
1B
#2750000
0B
#2755000
0D
1B
#2760000
0B
#2765000
0E
1C
1D
1B
#2770000
0B
#2775000
0D
1B
#2780000
0B
#2785000
0C
1D
1B
#2790000
0B
#2795000
0D
1B
#2800000
0B
#2805000
09
1E
1C
1D
1B
#2810000
0B
#2815000
0D
1B
#2820000
0B
#2825000
0C
1D
1B
#2830000
0B
#2835000
0D
1B
#2840000
0B
#2845000
0E
1C
1D
1B
#2850000
0B
#2855000
0D
1B
#2860000
0B
#2865000
0C
1D
1B
#2870000
0B
#2875000
0D
1B
#2880000
0B
#2885000
0;
1:
19
1E
1C
1D
1B
#2890000
0B
#2895000
0D
1B
#2900000
0B
#2905000
0C
1D
1B
#2910000
0B
#2915000
0D
1B
#2920000
0B
#2925000
0E
1C
1D
1B
#2930000
0B
#2935000
0D
1B
#2940000
0B
#2945000
0C
1D
1B
#2950000
0B
#2955000
0D
1B
#2960000
0B
#2965000
09
1E
1C
1D
1B
#2970000
0B
#2975000
0D
1B
#2980000
0B
#2985000
0C
1D
1B
#2990000
0B
#2995000
0D
1B
#3000000
0B
#3005000
0E
1C
1D
1B
#3010000
0B
#3015000
0D
1B
#3020000
0B
#3025000
0C
1D
1B
#3030000
0B
#3035000
0D
1B
#3040000
0B
#3045000
0:
19
1E
1C
1D
1B
#3050000
0B
#3055000
0D
1B
#3060000
0B
#3065000
0C
1D
1B
#3070000
0B
#3075000
0D
1B
#3080000
0B
#3085000
0E
1C
1D
1B
#3090000
0B
#3095000
0D
1B
#3100000
0B
#3105000
0C
1D
1B
#3110000
0B
#3115000
0D
1B
#3120000
0B
#3125000
09
1E
1C
1D
1B
#3130000
0B
#3135000
0D
1B
#3140000
0B
#3145000
0C
1D
1B
#3150000
0B
#3155000
0D
1B
#3160000
0B
#3165000
0E
1C
1D
1B
#3170000
0B
#3175000
0D
1B
#3180000
0B
#3185000
0C
1D
1B
#3190000
0B
#3195000
0D
1B
#3200000
0B
#3205000
1;
1:
19
1E
1C
1D
1B
#3210000
0B
#3215000
0D
1B
#3220000
0B
#3225000
0C
1D
1B
#3230000
0B
#3235000
0D
1B
#3240000
0B
#3245000
0E
1C
1D
1B
#3250000
0B
#3255000
0D
1B
#3260000
0B
#3265000
0C
1D
1B
#3270000
0B
#3275000
0D
1B
#3280000
0B
#3285000
09
1E
1C
1D
1B
#3290000
0B
#3295000
0D
1B
#3300000
0B
#3305000
0C
1D
1B
#3310000
0B
#3315000
0D
1B
#3320000
0B
#3325000
0E
1C
1D
1B
#3330000
0B
#3335000
0D
1B
#3340000
0B
#3345000
0C
1D
1B
#3350000
0B
#3355000
0D
1B
#3360000
0B
#3365000
0:
19
1E
1C
1D
1B
#3370000
0B
#3375000
0D
1B
#3380000
0B
#3385000
0C
1D
1B
#3390000
0B
#3395000
0D
1B
#3400000
0B
#3405000
0E
1C
1D
1B
#3410000
0B
#3415000
0D
1B
#3420000
0B
#3425000
0C
1D
1B
#3430000
0B
#3435000
0D
1B
#3440000
0B
#3445000
09
1E
1C
1D
1B
#3450000
0B
#3455000
0D
1B
#3460000
0B
#3465000
0C
1D
1B
#3470000
0B
#3475000
0D
1B
#3480000
0B
#3485000
0E
1C
1D
1B
#3490000
0B
#3495000
0D
1B
#3500000
0B
#3505000
0C
1D
1B
#3510000
0B
#3515000
0D
1B
#3520000
0B
#3525000
0;
1:
19
1E
1C
1D
1B
#3530000
0B
#3535000
0D
1B
#3540000
0B
#3545000
0C
1D
1B
#3550000
0B
#3555000
0D
1B
#3560000
0B
#3565000
0E
1C
1D
1B
#3570000
0B
#3575000
0D
1B
#3580000
0B
#3585000
0C
1D
1B
#3590000
0B
#3595000
0D
1B
#3600000
0B
#3605000
09
1E
1C
1D
1B
#3610000
0B
#3615000
0D
1B
#3620000
0B
#3625000
0C
1D
1B
#3630000
0B
#3635000
0D
1B
#3640000
0B
#3645000
0E
1C
1D
1B
#3650000
0B
#3655000
0D
1B
#3660000
0B
#3665000
0C
1D
1B
#3670000
0B
#3675000
0D
1B
#3680000
0B
#3685000
0:
19
1E
1C
1D
1B
#3690000
0B
#3695000
0D
1B
#3700000
0B
#3705000
0C
1D
1B
#3710000
0B
#3715000
0D
1B
#3720000
0B
#3725000
0E
1C
1D
1B
#3730000
0B
#3735000
0D
1B
#3740000
0B
#3745000
0C
1D
1B
#3750000
0B
#3755000
0D
1B
#3760000
0B
#3765000
09
1E
1C
1D
1B
#3770000
0B
#3775000
0D
1B
#3780000
0B
#3785000
0C
1D
1B
#3790000
0B
#3795000
0D
1B
#3800000
0B
#3805000
0E
1C
1D
1B
#3810000
0B
#3815000
0D
1B
#3820000
0B
#3825000
0C
1D
1B
#3830000
0B
#3835000
0D
1B
#3840000
0B
#3845000
1;
1:
19
1E
1C
1D
1B
#3849000
1%"
1^
b1x ]
13
#3850000
0B
#3855000
0D
1B
#3860000
0B
#3865000
0C
1D
1B
#3870000
0B
#3875000
0D
1B
#3880000
0B
#3885000
0E
1C
1D
1B
#3890000
0B
#3895000
0D
1B
#3900000
0B
#3905000
0C
1D
1B
#3910000
0B
#3915000
0D
1B
#3920000
0B
#3925000
09
1E
1C
1D
1B
#3930000
0B
#3935000
0D
1B
#3940000
0B
#3945000
0C
1D
1B
#3950000
0B
#3955000
0D
1B
#3960000
0B
#3965000
0E
1C
1D
1B
#3970000
0B
#3975000
0D
1B
#3980000
0B
#3985000
0C
1D
1B
#3990000
0B
#3995000
0D
1B
#4000000
0B
#4005000
1#"
b11 ]
0^
1[
0O
0:
1R
b1x 0
b1x <
b1x Q
1&"
b1x 1
b1x =
b1x N
1M
19
1E
1C
1D
1B
#4010000
0B
#4015000
0D
1B
#4020000
0B
#4025000
0C
1D
1B
#4030000
0B
#4035000
0D
1B
#4040000
0B
#4045000
0E
1C
1D
1B
#4050000
0B
#4055000
0D
1B
#4060000
0B
#4065000
0C
1D
1B
#4070000
0B
#4075000
0D
1B
#4080000
0B
#4085000
09
1E
1C
1D
1B
#4090000
0B
#4095000
0D
1B
#4100000
0B
#4105000
0C
1D
1B
#4110000
0B
#4115000
0D
1B
#4120000
0B
#4125000
0E
1C
1D
1B
#4130000
0B
#4135000
0D
1B
#4140000
0B
#4145000
0C
1D
1B
#4150000
0B
#4155000
0D
1B
#4160000
0B
#4165000
0;
1#"
b11 ]
1^
1[
1O
0M
b11 1
b11 =
b11 N
b11 0
b11 <
b11 Q
1$"
0R
1:
19
1E
1C
1D
1B
#4170000
0B
#4175000
0D
1B
#4180000
0B
#4185000
0C
1D
1B
#4190000
0B
#4195000
0D
1B
#4200000
0B
#4205000
0E
1C
1D
1B
#4210000
0B
#4215000
0D
1B
#4220000
0B
#4225000
0C
1D
1B
#4230000
0B
#4235000
0D
1B
#4240000
0B
#4245000
09
1E
1C
1D
1B
#4250000
0B
#4255000
0D
1B
#4260000
0B
#4265000
0C
1D
1B
#4270000
0B
#4275000
0D
1B
#4280000
0B
#4285000
0E
1C
1D
1B
#4290000
0B
#4295000
0D
1B
#4300000
0B
#4305000
0C
1D
1B
#4310000
0B
#4315000
0D
1B
#4320000
0B
#4325000
0^
0O
0:
1R
1M
19
1E
1C
1D
1B
#4330000
0B
#4335000
0D
1B
#4340000
0B
#4345000
0C
1D
1B
#4350000
0B
#4355000
0D
1B
#4360000
0B
#4365000
0E
1C
1D
1B
#4370000
0B
#4375000
0D
1B
#4380000
0B
#4385000
0C
1D
1B
#4390000
0B
#4395000
0D
1B
#4400000
0B
#4405000
09
1E
1C
1D
1B
#4410000
0B
#4415000
0D
1B
#4420000
0B
#4425000
0C
1D
1B
#4430000
0B
#4435000
0D
1B
#4440000
0B
#4445000
0E
1C
1D
1B
#4450000
0B
#4455000
0D
1B
#4460000
0B
#4465000
0C
1D
1B
#4470000
0B
#4475000
0D
1B
#4480000
0B
#4485000
1;
1^
1O
0M
0R
1:
19
1E
1C
1D
1B
#4490000
0B
#4495000
0D
1B
#4500000
0B
#4505000
0C
1D
1B
#4510000
0B
#4515000
0D
1B
#4520000
0B
#4525000
0E
1C
1D
1B
#4530000
0B
#4535000
0D
1B
#4540000
0B
#4545000
0C
1D
1B
#4550000
0B
#4555000
0D
1B
#4560000
0B
#4565000
09
1E
1C
1D
1B
#4570000
0B
#4575000
0D
1B
#4580000
0B
#4585000
0C
1D
1B
#4590000
0B
#4595000
0D
1B
#4600000
0B
#4605000
0E
1C
1D
1B
#4610000
0B
#4615000
0D
1B
#4620000
0B
#4625000
0C
1D
1B
#4630000
0B
#4635000
0D
1B
#4640000
0B
#4645000
0^
0O
0:
1R
1M
19
1E
1C
1D
1B
#4650000
0B
#4655000
0D
1B
#4660000
0B
#4665000
0C
1D
1B
#4670000
0B
#4675000
0D
1B
#4680000
0B
#4685000
0E
1C
1D
1B
#4690000
0B
#4695000
0D
1B
#4700000
0B
#4705000
0C
1D
1B
#4710000
0B
#4715000
0D
1B
#4720000
0B
#4725000
09
1E
1C
1D
1B
#4730000
0B
#4735000
0D
1B
#4740000
0B
#4745000
0C
1D
1B
#4750000
0B
#4755000
0D
1B
#4760000
0B
#4765000
0E
1C
1D
1B
#4770000
0B
#4775000
0D
1B
#4780000
0B
#4785000
0C
1D
1B
#4790000
0B
#4795000
0D
1B
#4800000
0B
#4805000
0;
1^
1O
0M
0R
1:
19
1E
1C
1D
1B
#4810000
0B
#4815000
0D
1B
#4820000
0B
#4825000
0C
1D
1B
#4830000
0B
#4835000
0D
1B
#4840000
0B
#4845000
0E
1C
1D
1B
#4850000
0B
#4855000
0D
1B
#4860000
0B
#4865000
0C
1D
1B
#4870000
0B
#4875000
0D
1B
#4880000
0B
#4885000
09
1E
1C
1D
1B
#4890000
0B
#4895000
0D
1B
#4900000
0B
#4905000
0C
1D
1B
#4910000
0B
#4915000
0D
1B
#4920000
0B
#4925000
0E
1C
1D
1B
#4930000
0B
#4935000
0D
1B
#4940000
0B
#4945000
0C
1D
1B
#4950000
0B
