Mux/MUX4a2/muxy.vcd
$date
	Fri Jun  5 17:14:30 2020
$end
$version
	Icarus Verilog
$end
$timescale
	1ps
$end
$scope module BUF $end
$var wire 1 ! A $end
$var wire 1 " Y $end
$upscope $end
$scope module DFFSR $end
$var wire 1 # C $end
$var wire 1 $ D $end
$var wire 1 % R $end
$var wire 1 & S $end
$var reg 1 ' Q $end
$upscope $end
$scope module NAND $end
$var wire 1 ( A $end
$var wire 1 ) B $end
$var wire 1 * Y $end
$upscope $end
$scope module NOR $end
$var wire 1 + A $end
$var wire 1 , B $end
$var wire 1 - Y $end
$upscope $end
$scope module NOT $end
$var wire 1 . A $end
$var wire 1 / Y $end
$upscope $end
$scope module bancoPruebas $end
$var wire 2 0 validout [1:0] $end
$var wire 4 1 valid [3:0] $end
$var wire 1 2 reset $end
$var wire 8 3 out1s [7:0] $end
$var wire 8 4 out1c [7:0] $end
$var wire 8 5 out0s [7:0] $end
$var wire 8 6 out0c [7:0] $end
$var wire 8 7 in3 [7:0] $end
$var wire 8 8 in2 [7:0] $end
$var wire 8 9 in1 [7:0] $end
$var wire 8 : in0 [7:0] $end
$var wire 1 ; clk $end
$scope module Tb $end
$var wire 2 < validout [1:0] $end
$var wire 8 = out1s [7:0] $end
$var wire 8 > out1c [7:0] $end
$var wire 8 ? out0s [7:0] $end
$var wire 8 @ out0c [7:0] $end
$var reg 1 ; clk $end
$var reg 4 A countc0 [3:0] $end
$var reg 4 B countc1 [3:0] $end
$var reg 4 C counts0 [3:0] $end
$var reg 4 D counts1 [3:0] $end
$var reg 8 E in0 [7:0] $end
$var reg 8 F in1 [7:0] $end
$var reg 8 G in2 [7:0] $end
$var reg 8 H in3 [7:0] $end
$var reg 1 2 reset $end
$var reg 1 I test $end
$var reg 4 J valid [3:0] $end
$upscope $end
$scope module mux_behav $end
$var wire 1 ; clk $end
$var wire 8 K in0 [7:0] $end
$var wire 8 L in1 [7:0] $end
$var wire 8 M in2 [7:0] $end
$var wire 8 N in3 [7:0] $end
$var wire 1 2 reset $end
$var wire 4 O valid [3:0] $end
$var wire 8 P wout1 [7:0] $end
$var wire 8 Q wout0 [7:0] $end
$var wire 1 R validoutB $end
$var wire 1 S validoutA $end
$var reg 8 T out0 [7:0] $end
$var reg 8 U out1 [7:0] $end
$var reg 2 V validout [1:0] $end
$scope module mux_A $end
$var wire 1 ; clk $end
$var wire 8 W in0 [7:0] $end
$var wire 8 X in1 [7:0] $end
$var wire 1 2 reset $end
$var wire 2 Y valid [1:0] $end
$var reg 8 Z out [7:0] $end
$var reg 1 [ selector $end
$var reg 1 S validout $end
$upscope $end
$scope module mux_B $end
$var wire 1 ; clk $end
$var wire 8 \ in0 [7:0] $end
$var wire 8 ] in1 [7:0] $end
$var wire 1 2 reset $end
$var wire 2 ^ valid [1:0] $end
$var reg 8 _ out [7:0] $end
$var reg 1 ` selector $end
$var reg 1 R validout $end
$upscope $end
$upscope $end
$scope module mux_struct $end
$var wire 1 ; clk $end
$var wire 8 a in0 [7:0] $end
$var wire 8 b in1 [7:0] $end
$var wire 8 c in2 [7:0] $end
$var wire 8 d in3 [7:0] $end
$var wire 8 e out0 [7:0] $end
$var wire 8 f out1 [7:0] $end
$var wire 1 2 reset $end
$var wire 4 g valid [3:0] $end
$var wire 2 h validout [1:0] $end
$var wire 8 i wout1 [7:0] $end
$var wire 8 j wout0 [7:0] $end
$var wire 1 k validoutB $end
$var wire 1 l validoutA $end
$scope module mux_A $end
$var wire 1 m _07_ $end
$var wire 1 ; clk $end
$var wire 8 n in0 [7:0] $end
$var wire 8 o in1 [7:0] $end
$var wire 1 2 reset $end
$var wire 2 p valid [1:0] $end
$var wire 1 l validout $end
$var wire 1 q selector $end
$var wire 8 r out [7:0] $end
$var wire 8 s _06_ [7:0] $end
$var wire 8 t _05_ [7:0] $end
$var wire 1 u _04_ $end
$var wire 8 v _03_ [7:0] $end
$var wire 1 w _02_ $end
$var wire 1 x _01_ $end
$var wire 8 y _00_ [7:0] $end
$scope module _44_ $end
$var wire 1 ; C $end
$var wire 1 w D $end
$var reg 1 l Q $end
$upscope $end
$scope module _45_ $end
$var wire 1 ; C $end
$var wire 1 z D $end
$var reg 1 { Q $end
$upscope $end
$scope module _46_ $end
$var wire 1 ; C $end
$var wire 1 | D $end
$var reg 1 } Q $end
$upscope $end
$scope module _47_ $end
$var wire 1 ; C $end
$var wire 1 ~ D $end
$var reg 1 !" Q $end
$upscope $end
$scope module _48_ $end
$var wire 1 ; C $end
$var wire 1 "" D $end
$var reg 1 #" Q $end
$upscope $end
$scope module _49_ $end
$var wire 1 ; C $end
$var wire 1 $" D $end
$var reg 1 %" Q $end
$upscope $end
$scope module _50_ $end
$var wire 1 ; C $end
$var wire 1 &" D $end
$var reg 1 '" Q $end
$upscope $end
$scope module _51_ $end
$var wire 1 ; C $end
$var wire 1 (" D $end
$var reg 1 )" Q $end
$upscope $end
$scope module _52_ $end
$var wire 1 ; C $end
$var wire 1 *" D $end
$var reg 1 +" Q $end
$upscope $end
$scope module _53_ $end
$var wire 1 ; C $end
$var wire 1 x D $end
$var reg 1 q Q $end
$upscope $end
$upscope $end
$scope module mux_B $end
$var wire 1 ," _07_ $end
$var wire 1 ; clk $end
$var wire 8 -" in0 [7:0] $end
$var wire 8 ." in1 [7:0] $end
$var wire 1 2 reset $end
$var wire 2 /" valid [1:0] $end
$var wire 1 k validout $end
$var wire 1 0" selector $end
$var wire 8 1" out [7:0] $end
$var wire 8 2" _06_ [7:0] $end
$var wire 8 3" _05_ [7:0] $end
$var wire 1 4" _04_ $end
$var wire 8 5" _03_ [7:0] $end
$var wire 1 6" _02_ $end
$var wire 1 7" _01_ $end
$var wire 8 8" _00_ [7:0] $end
$scope module _44_ $end
$var wire 1 ; C $end
$var wire 1 6" D $end
$var reg 1 k Q $end
$upscope $end
$scope module _45_ $end
$var wire 1 ; C $end
$var wire 1 9" D $end
$var reg 1 :" Q $end
$upscope $end
$scope module _46_ $end
$var wire 1 ; C $end
$var wire 1 ;" D $end
$var reg 1 <" Q $end
$upscope $end
$scope module _47_ $end
$var wire 1 ; C $end
$var wire 1 =" D $end
$var reg 1 >" Q $end
$upscope $end
$scope module _48_ $end
$var wire 1 ; C $end
$var wire 1 ?" D $end
$var reg 1 @" Q $end
$upscope $end
$scope module _49_ $end
$var wire 1 ; C $end
$var wire 1 A" D $end
$var reg 1 B" Q $end
$upscope $end
$scope module _50_ $end
$var wire 1 ; C $end
$var wire 1 C" D $end
$var reg 1 D" Q $end
$upscope $end
$scope module _51_ $end
$var wire 1 ; C $end
$var wire 1 E" D $end
$var reg 1 F" Q $end
$upscope $end
$scope module _52_ $end
$var wire 1 ; C $end
$var wire 1 G" D $end
$var reg 1 H" Q $end
$upscope $end
$scope module _53_ $end
$var wire 1 ; C $end
$var wire 1 7" D $end
$var reg 1 0" Q $end
$upscope $end
$upscope $end
$upscope $end
$upscope $end
$enddefinitions $end
#0
$dumpvars
xH"
0G"
xF"
0E"
xD"
0C"
xB"
0A"
x@"
0?"
x>"
0="
x<"
0;"
x:"
09"
b0 8"
x7"
x6"
b0 5"
14"
b0 3"
b0 2"
bx 1"
x0"
b11 /"
b0 ."
b0 -"
x,"
x+"
0*"
x)"
0("
x'"
0&"
x%"
0$"
x#"
0""
x!"
0~
x}
0|
x{
0z
b0 y
xx
xw
b0 v
1u
b0 t
b0 s
bx r
xq
b11 p
b0 o
b0 n
xm
xl
xk
bx j
bx i
bx h
b1111 g
bx f
bx e
b0 d
b0 c
b0 b
b0 a
x`
bx _
b11 ^
b0 ]
b0 \
x[
bx Z
b11 Y
b0 X
b0 W
bx V
bx U
bx T
xS
xR
bx Q
bx P
b1111 O
b0 N
b0 M
b0 L
b0 K
b1111 J
xI
b0 H
b0 G
b0 F
b0 E
b0 D
b0 C
b0 B
b0 A
bx @
bx ?
bx >
bx =
bx <
0;
b0 :
b0 9
b0 8
b0 7
bx 6
bx 5
bx 4
bx 3
x2
b1111 1
bx 0
z/
z.
x-
z,
z+
x*
z)
z(
x'
z&
z%
z$
z#
z"
z!
$end
#2000
0x
0w
07"
06"
02
#5000
1m
1,"
0[
0`
0l
0{
0}
0!"
0#"
0%"
0'"
0)"
b0 5
b0 ?
b0 e
b0 j
b0 r
0+"
0q
b0 0
b0 <
b0 h
0k
0:"
0<"
0>"
0@"
0B"
0D"
0F"
b0 3
b0 =
b0 f
b0 i
b0 1"
0H"
00"
1I
b0 V
b0 4
b0 >
b0 U
b0 6
b0 @
b0 T
0S
b0 Q
b0 Z
0R
b0 P
b0 _
1;
#10000
0;
#15000
1;
#20000
0;
#25000
1;
#30000
0;
#35000
1;
#40000
0;
#45000
1;
#50000
0;
#55000
1;
#60000
0;
#65000
1;
#69000
1x
1w
17"
16"
12
#70000
0;
#75000
07"
0x
0,"
0m
10"
1k
1q
1l
1`
1[
b11 0
b11 <
b11 h
b11 V
1R
1S
1;
#80000
0;
#85000
1x
17"
1m
1,"
0[
0`
0q
00"
1;
#90000
0;
#95000
07"
0x
0,"
0m
10"
1q
1`
1[
1;
#100000
0;
#105000
1x
17"
1m
1,"
0[
0`
0q
00"
1;
#110000
0;
#115000
07"
0x
0,"
0m
10"
1q
1`
1[
1;
#120000
0;
#125000
1;"
1("
1*"
1z
1|
1~
1""
1$"
1&"
b10 8"
b11111111 y
b10 5"
b11111111 v
1x
17"
b11111110 3"
b10 2"
b11111111 s
b1 t
1m
1,"
0[
0`
0q
00"
b11111110 7
b11111110 H
b11111110 N
b11111110 ]
b11111110 d
b11111110 ."
b10 8
b10 G
b10 M
b10 \
b10 c
b10 -"
b11111111 :
b11111111 E
b11111111 K
b11111111 W
b11111111 a
b11111111 n
b1 9
b1 F
b1 L
b1 X
b1 b
b1 o
1;
#130000
0;
#135000
b1 C
0;"
0z
1G"
1E"
1C"
1A"
1?"
1="
0*"
0("
0&"
0$"
0""
0~
1|
b11111100 8"
b10 y
b11111100 3"
b100 2"
b11111110 s
b10 t
07"
0x
b11111100 5"
0,"
b10 v
0m
b1 A
b11111100 7
b11111100 H
b11111100 N
b11111100 ]
b11111100 d
b11111100 ."
b100 8
b100 G
b100 M
b100 \
b100 c
b100 -"
b11111110 :
b11111110 E
b11111110 K
b11111110 W
b11111110 a
b11111110 n
b10 9
b10 F
b10 L
b10 X
b10 b
b10 o
10"
b10 3
b10 =
b10 f
b10 i
b10 1"
1<"
1q
1+"
1)"
1'"
1%"
1#"
1!"
1}
b11111111 5
b11111111 ?
b11111111 e
b11111111 j
b11111111 r
1{
1`
1[
b10 4
b10 >
b10 U
b11111111 6
b11111111 @
b11111111 T
b10 P
b10 _
b11111111 Q
b11111111 Z
1;
#140000
0;
#145000
1;"
1z
0|
1*"
1("
1&"
1$"
1""
1~
0G"
0E"
0C"
0A"
0?"
b11111101 y
b110 8"
1x
17"
b11111010 3"
b110 2"
b11111101 s
b11 t
b11111101 v
1m
b110 5"
1,"
0[
0`
0{
0!"
0#"
0%"
0'"
0)"
b10 5
b10 ?
b10 e
b10 j
b10 r
0+"
0q
0<"
1>"
1@"
1B"
1D"
1F"
b11111100 3
b11111100 =
b11111100 f
b11111100 i
b11111100 1"
1H"
00"
b11111010 7
b11111010 H
b11111010 N
b11111010 ]
b11111010 d
b11111010 ."
b110 8
b110 G
b110 M
b110 \
b110 c
b110 -"
b11111101 :
b11111101 E
b11111101 K
b11111101 W
b11111101 a
b11111101 n
b11 9
b11 F
b11 L
b11 X
b11 b
b11 o
b11111100 4
b11111100 >
b11111100 U
b10 6
b10 @
b10 T
b10 Q
b10 Z
b11111100 P
b11111100 _
1;
#150000
0;
#155000
b10 C
0;"
0z
1G"
1E"
1C"
1A"
1?"
0="
0*"
0("
0&"
0$"
0""
1~
0|
b11111000 8"
b100 y
b11111000 3"
b1000 2"
b11111100 s
b100 t
07"
0x
b11111000 5"
0,"
b100 v
0m
b10 A
b11111000 7
b11111000 H
b11111000 N
b11111000 ]
b11111000 d
b11111000 ."
b1000 8
b1000 G
b1000 M
b1000 \
b1000 c
b1000 -"
b11111100 :
b11111100 E
b11111100 K
b11111100 W
b11111100 a
b11111100 n
b100 9
b100 F
b100 L
b100 X
b100 b
b100 o
10"
0H"
0F"
0D"
0B"
0@"
b110 3
b110 =
b110 f
b110 i
b110 1"
1<"
1q
1+"
1)"
1'"
1%"
1#"
1!"
0}
b11111101 5
b11111101 ?
b11111101 e
b11111101 j
b11111101 r
1{
1`
1[
b110 4
b110 >
b110 U
b11111101 6
b11111101 @
b11111101 T
b110 P
b110 _
b11111101 Q
b11111101 Z
1;
#160000
0;
#165000
1;"
1z
1|
0~
1*"
1("
1&"
1$"
1""
0G"
0E"
0C"
0A"
b11111011 y
b1010 8"
1x
17"
b11110110 3"
b1010 2"
b11111011 s
b101 t
b11111011 v
1m
b1010 5"
1,"
0[
0`
0{
0#"
0%"
0'"
0)"
b100 5
b100 ?
b100 e
b100 j
b100 r
0+"
0q
0<"
0>"
1@"
1B"
1D"
1F"
b11111000 3
b11111000 =
b11111000 f
b11111000 i
b11111000 1"
1H"
00"
b11110110 7
b11110110 H
b11110110 N
b11110110 ]
b11110110 d
b11110110 ."
b1010 8
b1010 G
b1010 M
b1010 \
b1010 c
b1010 -"
b11111011 :
b11111011 E
b11111011 K
b11111011 W
b11111011 a
b11111011 n
b101 9
b101 F
b101 L
b101 X
b101 b
b101 o
b11111000 4
b11111000 >
b11111000 U
b100 6
b100 @
b100 T
b100 Q
b100 Z
b11111000 P
b11111000 _
1;
#170000
0;
#175000
b11 C
0;"
0z
1G"
1E"
1C"
1A"
0?"
1="
0*"
0("
0&"
0$"
0""
1~
1|
b11110100 8"
b110 y
b11110100 3"
b1100 2"
b11111010 s
b110 t
07"
0x
b11110100 5"
0,"
b110 v
0m
b11 A
b11110100 7
b11110100 H
b11110100 N
b11110100 ]
b11110100 d
b11110100 ."
b1100 8
b1100 G
b1100 M
b1100 \
b1100 c
b1100 -"
b11111010 :
b11111010 E
b11111010 K
b11111010 W
b11111010 a
b11111010 n
b110 9
b110 F
b110 L
b110 X
b110 b
b110 o
10"
0H"
0F"
0D"
0B"
b1010 3
b1010 =
b1010 f
b1010 i
b1010 1"
1<"
1q
1+"
1)"
1'"
1%"
1#"
0!"
1}
b11111011 5
b11111011 ?
b11111011 e
b11111011 j
b11111011 r
1{
1`
1[
b1010 4
b1010 >
b1010 U
b11111011 6
b11111011 @
b11111011 T
b1010 P
b1010 _
b11111011 Q
b11111011 Z
1;
#180000
0;
#185000
1;"
1z
0|
1*"
1("
1&"
1$"
1""
0~
0G"
0E"
0C"
0A"
1?"
b11111001 y
b1110 8"
1x
17"
b11110010 3"
b1110 2"
b11111001 s
b111 t
b11111001 v
1m
b1110 5"
1,"
0[
0`
0{
1!"
0#"
0%"
0'"
0)"
b110 5
b110 ?
b110 e
b110 j
b110 r
0+"
0q
0<"
1>"
0@"
1B"
1D"
1F"
b11110100 3
b11110100 =
b11110100 f
b11110100 i
b11110100 1"
1H"
00"
b11110010 7
b11110010 H
b11110010 N
b11110010 ]
b11110010 d
b11110010 ."
b1110 8
b1110 G
b1110 M
b1110 \
b1110 c
b1110 -"
b11111001 :
b11111001 E
b11111001 K
b11111001 W
b11111001 a
b11111001 n
b111 9
b111 F
b111 L
b111 X
b111 b
b111 o
b11110100 4
b11110100 >
b11110100 U
b110 6
b110 @
b110 T
b110 Q
b110 Z
b11110100 P
b11110100 _
1;
#190000
0;
#195000
b100 C
0;"
0z
1G"
1E"
1C"
1A"
0?"
0="
0*"
0("
0&"
0$"
1""
0~
0|
b11110000 8"
b1000 y
b11110000 3"
b10000 2"
b11111000 s
b1000 t
07"
0x
b11110000 5"
0,"
b1000 v
0m
b100 A
b11110000 7
b11110000 H
b11110000 N
b11110000 ]
b11110000 d
b11110000 ."
b10000 8
b10000 G
b10000 M
b10000 \
b10000 c
b10000 -"
b11111000 :
b11111000 E
b11111000 K
b11111000 W
b11111000 a
b11111000 n
b1000 9
b1000 F
b1000 L
b1000 X
b1000 b
b1000 o
10"
0H"
0F"
0D"
0B"
1@"
b1110 3
b1110 =
b1110 f
b1110 i
b1110 1"
1<"
1q
1+"
1)"
1'"
1%"
1#"
0!"
0}
b11111001 5
b11111001 ?
b11111001 e
b11111001 j
b11111001 r
1{
1`
1[
b1110 4
b1110 >
b1110 U
b11111001 6
b11111001 @
b11111001 T
b1110 P
b1110 _
b11111001 Q
b11111001 Z
1;
#200000
0;
#205000
1;"
1z
1|
1~
0""
1*"
1("
1&"
1$"
0G"
0E"
0C"
b11110111 y
b10010 8"
1x
17"
b11101110 3"
b10010 2"
b11110111 s
b1001 t
b11110111 v
1m
b10010 5"
1,"
0[
0`
0{
0%"
0'"
0)"
b1000 5
b1000 ?
b1000 e
b1000 j
b1000 r
0+"
0q
0<"
0>"
0@"
1B"
1D"
1F"
b11110000 3
b11110000 =
b11110000 f
b11110000 i
b11110000 1"
1H"
00"
b11101110 7
b11101110 H
b11101110 N
b11101110 ]
b11101110 d
b11101110 ."
b10010 8
b10010 G
b10010 M
b10010 \
b10010 c
b10010 -"
b11110111 :
b11110111 E
b11110111 K
b11110111 W
b11110111 a
b11110111 n
b1001 9
b1001 F
b1001 L
b1001 X
b1001 b
b1001 o
b11110000 4
b11110000 >
b11110000 U
b1000 6
b1000 @
b1000 T
b1000 Q
b1000 Z
b11110000 P
b11110000 _
1;
#210000
0;
#215000
b101 C
0;"
0z
1G"
1E"
1C"
0A"
1?"
1="
0*"
0("
0&"
0$"
1""
0~
1|
b11101100 8"
b1010 y
b11101100 3"
b10100 2"
b11110110 s
b1010 t
07"
0x
b11101100 5"
0,"
b1010 v
0m
b101 A
b11101100 7
b11101100 H
b11101100 N
b11101100 ]
b11101100 d
b11101100 ."
b10100 8
b10100 G
b10100 M
b10100 \
b10100 c
b10100 -"
b11110110 :
b11110110 E
b11110110 K
b11110110 W
b11110110 a
b11110110 n
b1010 9
b1010 F
b1010 L
b1010 X
b1010 b
b1010 o
10"
0H"
0F"
0D"
b10010 3
b10010 =
b10010 f
b10010 i
b10010 1"
1<"
1q
1+"
1)"
1'"
1%"
0#"
1!"
1}
b11110111 5
b11110111 ?
b11110111 e
b11110111 j
b11110111 r
1{
1`
1[
b10010 4
b10010 >
b10010 U
b11110111 6
b11110111 @
b11110111 T
b10010 P
b10010 _
b11110111 Q
b11110111 Z
1;
#220000
0;
#225000
1;"
1z
0|
1*"
1("
1&"
1$"
0""
1~
0G"
0E"
0C"
1A"
0?"
b11110101 y
b10110 8"
1x
17"
b11101010 3"
b10110 2"
b11110101 s
b1011 t
b11110101 v
1m
b10110 5"
1,"
0[
0`
0{
0!"
1#"
0%"
0'"
0)"
b1010 5
b1010 ?
b1010 e
b1010 j
b1010 r
0+"
0q
0<"
1>"
1@"
0B"
1D"
1F"
b11101100 3
b11101100 =
b11101100 f
b11101100 i
b11101100 1"
1H"
00"
b11101010 7
b11101010 H
b11101010 N
b11101010 ]
b11101010 d
b11101010 ."
b10110 8
b10110 G
b10110 M
b10110 \
b10110 c
b10110 -"
b11110101 :
b11110101 E
b11110101 K
b11110101 W
b11110101 a
b11110101 n
b1011 9
b1011 F
b1011 L
b1011 X
b1011 b
b1011 o
b11101100 4
b11101100 >
b11101100 U
b1010 6
b1010 @
b1010 T
b1010 Q
b1010 Z
b11101100 P
b11101100 _
1;
#230000
0;
#235000
b110 C
0;"
0z
1G"
1E"
1C"
0A"
1?"
0="
0*"
0("
0&"
0$"
1""
1~
0|
b11101000 8"
b1100 y
b11101000 3"
b11000 2"
b11110100 s
b1100 t
07"
0x
b11101000 5"
0,"
b1100 v
0m
b110 A
b11101000 7
b11101000 H
b11101000 N
b11101000 ]
b11101000 d
b11101000 ."
b11000 8
b11000 G
b11000 M
b11000 \
b11000 c
b11000 -"
b11110100 :
b11110100 E
b11110100 K
b11110100 W
b11110100 a
b11110100 n
b1100 9
b1100 F
b1100 L
b1100 X
b1100 b
b1100 o
10"
0H"
0F"
0D"
1B"
0@"
b10110 3
b10110 =
b10110 f
b10110 i
b10110 1"
1<"
1q
1+"
1)"
1'"
1%"
0#"
1!"
0}
b11110101 5
b11110101 ?
b11110101 e
b11110101 j
b11110101 r
1{
1`
1[
b10110 4
b10110 >
b10110 U
b11110101 6
b11110101 @
b11110101 T
b10110 P
b10110 _
b11110101 Q
b11110101 Z
1;
#240000
0;
#245000
1;"
1z
1|
0~
1*"
1("
1&"
1$"
0""
0G"
0E"
0C"
1A"
b11110011 y
b11010 8"
1x
17"
b11100110 3"
b11010 2"
b11110011 s
b1101 t
b11110011 v
1m
b11010 5"
1,"
0[
0`
0{
1#"
0%"
0'"
0)"
b1100 5
b1100 ?
b1100 e
b1100 j
b1100 r
0+"
0q
0<"
0>"
1@"
0B"
1D"
1F"
b11101000 3
b11101000 =
b11101000 f
b11101000 i
b11101000 1"
1H"
00"
b11100110 7
b11100110 H
b11100110 N
b11100110 ]
b11100110 d
b11100110 ."
b11010 8
b11010 G
b11010 M
b11010 \
b11010 c
b11010 -"
b11110011 :
b11110011 E
b11110011 K
b11110011 W
b11110011 a
b11110011 n
b1101 9
b1101 F
b1101 L
b1101 X
b1101 b
b1101 o
b11101000 4
b11101000 >
b11101000 U
b1100 6
b1100 @
b1100 T
b1100 Q
b1100 Z
b11101000 P
b11101000 _
1;
#250000
0;
#255000
b111 C
0;"
0z
1G"
1E"
1C"
0A"
0?"
1="
0*"
0("
0&"
0$"
1""
1~
1|
b11100100 8"
b1110 y
b11100100 3"
b11100 2"
b11110010 s
b1110 t
07"
0x
b11100100 5"
0,"
b1110 v
0m
b111 A
b11100100 7
b11100100 H
b11100100 N
b11100100 ]
b11100100 d
b11100100 ."
b11100 8
b11100 G
b11100 M
b11100 \
b11100 c
b11100 -"
b11110010 :
b11110010 E
b11110010 K
b11110010 W
b11110010 a
b11110010 n
b1110 9
b1110 F
b1110 L
b1110 X
b1110 b
b1110 o
10"
0H"
0F"
0D"
1B"
b11010 3
b11010 =
b11010 f
b11010 i
b11010 1"
1<"
1q
1+"
1)"
1'"
1%"
0#"
0!"
1}
b11110011 5
b11110011 ?
b11110011 e
b11110011 j
b11110011 r
1{
1`
1[
b11010 4
b11010 >
b11010 U
b11110011 6
b11110011 @
b11110011 T
b11010 P
b11010 _
b11110011 Q
b11110011 Z
1;
#260000
0;
#265000
1;"
1z
0|
1*"
1("
1&"
1$"
0""
0~
0G"
0E"
0C"
1A"
1?"
b11110001 y
b11110 8"
1x
17"
b11100010 3"
b11110 2"
b11110001 s
b1111 t
b11110001 v
1m
b11110 5"
1,"
0[
0`
0{
1!"
1#"
0%"
0'"
0)"
b1110 5
b1110 ?
b1110 e
b1110 j
b1110 r
0+"
0q
0<"
1>"
0@"
0B"
1D"
1F"
b11100100 3
b11100100 =
b11100100 f
b11100100 i
b11100100 1"
1H"
00"
b11100010 7
b11100010 H
b11100010 N
b11100010 ]
b11100010 d
b11100010 ."
b11110 8
b11110 G
b11110 M
b11110 \
b11110 c
b11110 -"
b11110001 :
b11110001 E
b11110001 K
b11110001 W
b11110001 a
b11110001 n
b1111 9
b1111 F
b1111 L
b1111 X
b1111 b
b1111 o
b11100100 4
b11100100 >
b11100100 U
b1110 6
b1110 @
b1110 T
b1110 Q
b1110 Z
b11100100 P
b11100100 _
1;
#270000
0;
#275000
b1000 C
0;"
0z
1G"
1E"
1C"
0A"
0?"
0="
0*"
0("
0&"
1$"
0""
0~
0|
b11100000 8"
b10000 y
b11100000 3"
b100000 2"
b11110000 s
b10000 t
07"
0x
b11100000 5"
0,"
b10000 v
0m
b1000 A
b11100000 7
b11100000 H
b11100000 N
b11100000 ]
b11100000 d
b11100000 ."
b100000 8
b100000 G
b100000 M
b100000 \
b100000 c
b100000 -"
b11110000 :
b11110000 E
b11110000 K
b11110000 W
b11110000 a
b11110000 n
b10000 9
b10000 F
b10000 L
b10000 X
b10000 b
b10000 o
10"
0H"
0F"
0D"
1B"
1@"
b11110 3
b11110 =
b11110 f
b11110 i
b11110 1"
1<"
1q
1+"
1)"
1'"
1%"
0#"
0!"
0}
b11110001 5
b11110001 ?
b11110001 e
b11110001 j
b11110001 r
1{
1`
1[
b11110 4
b11110 >
b11110 U
b11110001 6
b11110001 @
b11110001 T
b11110 P
b11110 _
b11110001 Q
b11110001 Z
1;
#280000
0;
#285000
1;"
1z
1|
1~
1""
0$"
1*"
1("
1&"
0G"
0E"
b11101111 y
b100010 8"
1x
17"
b11011110 3"
b100010 2"
b11101111 s
b10001 t
b11101111 v
1m
b100010 5"
1,"
0[
0`
0{
0'"
0)"
b10000 5
b10000 ?
b10000 e
b10000 j
b10000 r
0+"
0q
0<"
0>"
0@"
0B"
1D"
1F"
b11100000 3
b11100000 =
b11100000 f
b11100000 i
b11100000 1"
1H"
00"
b11011110 7
b11011110 H
b11011110 N
b11011110 ]
b11011110 d
b11011110 ."
b100010 8
b100010 G
b100010 M
b100010 \
b100010 c
b100010 -"
b11101111 :
b11101111 E
b11101111 K
b11101111 W
b11101111 a
b11101111 n
b10001 9
b10001 F
b10001 L
b10001 X
b10001 b
b10001 o
b11100000 4
b11100000 >
b11100000 U
b10000 6
b10000 @
b10000 T
b10000 Q
b10000 Z
b11100000 P
b11100000 _
1;
#290000
0;
#295000
b1001 C
0;"
0z
1G"
1E"
0C"
1A"
1?"
1="
0*"
0("
0&"
1$"
0""
0~
1|
b11011100 8"
b10010 y
b11011100 3"
b100100 2"
b11101110 s
b10010 t
07"
0x
b11011100 5"
0,"
b10010 v
0m
b1001 A
b11011100 7
b11011100 H
b11011100 N
b11011100 ]
b11011100 d
b11011100 ."
b100100 8
b100100 G
b100100 M
b100100 \
b100100 c
b100100 -"
b11101110 :
b11101110 E
b11101110 K
b11101110 W
b11101110 a
b11101110 n
b10010 9
b10010 F
b10010 L
b10010 X
b10010 b
b10010 o
10"
0H"
0F"
b100010 3
b100010 =
b100010 f
b100010 i
b100010 1"
1<"
1q
1+"
1)"
1'"
0%"
1#"
1!"
1}
b11101111 5
b11101111 ?
b11101111 e
b11101111 j
b11101111 r
1{
1`
1[
b100010 4
b100010 >
b100010 U
b11101111 6
b11101111 @
b11101111 T
b100010 P
b100010 _
b11101111 Q
b11101111 Z
1;
#300000
0;
#305000
1;"
1z
0|
1*"
1("
1&"
0$"
1""
1~
0G"
0E"
1C"
0A"
0?"
b11101101 y
b100110 8"
1x
17"
b11011010 3"
b100110 2"
b11101101 s
b10011 t
b11101101 v
1m
b100110 5"
1,"
0[
0`
0{
0!"
0#"
1%"
0'"
0)"
b10010 5
b10010 ?
b10010 e
b10010 j
b10010 r
0+"
0q
0<"
1>"
1@"
1B"
0D"
1F"
b11011100 3
b11011100 =
b11011100 f
b11011100 i
b11011100 1"
1H"
00"
b11011010 7
b11011010 H
b11011010 N
b11011010 ]
b11011010 d
b11011010 ."
b100110 8
b100110 G
b100110 M
b100110 \
b100110 c
b100110 -"
b11101101 :
b11101101 E
b11101101 K
b11101101 W
b11101101 a
b11101101 n
b10011 9
b10011 F
b10011 L
b10011 X
b10011 b
b10011 o
b11011100 4
b11011100 >
b11011100 U
b10010 6
b10010 @
b10010 T
b10010 Q
b10010 Z
b11011100 P
b11011100 _
1;
#310000
0;
#315000
b1010 C
0;"
0z
1G"
1E"
0C"
1A"
1?"
0="
0*"
0("
0&"
1$"
0""
1~
0|
b11011000 8"
b10100 y
b11011000 3"
b101000 2"
b11101100 s
b10100 t
07"
0x
b11011000 5"
0,"
b10100 v
0m
b1010 A
b11011000 7
b11011000 H
b11011000 N
b11011000 ]
b11011000 d
b11011000 ."
b101000 8
b101000 G
b101000 M
b101000 \
b101000 c
b101000 -"
b11101100 :
b11101100 E
b11101100 K
b11101100 W
b11101100 a
b11101100 n
b10100 9
b10100 F
b10100 L
b10100 X
b10100 b
b10100 o
10"
0H"
0F"
1D"
0B"
0@"
b100110 3
b100110 =
b100110 f
b100110 i
b100110 1"
1<"
1q
1+"
1)"
1'"
0%"
1#"
1!"
0}
b11101101 5
b11101101 ?
b11101101 e
b11101101 j
b11101101 r
1{
1`
1[
b100110 4
b100110 >
b100110 U
b11101101 6
b11101101 @
b11101101 T
b100110 P
b100110 _
b11101101 Q
b11101101 Z
1;
#320000
0;
#325000
1;"
1z
1|
0~
1*"
1("
1&"
0$"
1""
0G"
0E"
1C"
0A"
b11101011 y
b101010 8"
1x
17"
b11010110 3"
b101010 2"
b11101011 s
b10101 t
b11101011 v
1m
b101010 5"
1,"
0[
0`
0{
0#"
1%"
0'"
0)"
b10100 5
b10100 ?
b10100 e
b10100 j
b10100 r
0+"
0q
0<"
0>"
1@"
1B"
0D"
1F"
b11011000 3
b11011000 =
b11011000 f
b11011000 i
b11011000 1"
1H"
00"
b11010110 7
b11010110 H
b11010110 N
b11010110 ]
b11010110 d
b11010110 ."
b101010 8
b101010 G
b101010 M
b101010 \
b101010 c
b101010 -"
b11101011 :
b11101011 E
b11101011 K
b11101011 W
b11101011 a
b11101011 n
b10101 9
b10101 F
b10101 L
b10101 X
b10101 b
b10101 o
b11011000 4
b11011000 >
b11011000 U
b10100 6
b10100 @
b10100 T
b10100 Q
b10100 Z
b11011000 P
b11011000 _
1;
#330000
0;
