MUX4a1/Conductual/muxy.vcd
$date
	Wed May 27 01:23:29 2020
$end
$version
	Icarus Verilog
$end
$timescale
	1ps
$end
$scope module bancoPruebas $end
$var wire 4 ! valid [3:0] $end
$var wire 1 " reset $end
$var wire 8 # out [7:0] $end
$var wire 8 $ in3 [7:0] $end
$var wire 8 % in2 [7:0] $end
$var wire 8 & in1 [7:0] $end
$var wire 8 ' in0 [7:0] $end
$var wire 1 ( clk4f $end
$var wire 1 ) clk2f $end
$var wire 1 * clk1f $end
$var wire 1 + clk $end
$scope module Tb $end
$var wire 8 , outc [7:0] $end
$var reg 1 + clk $end
$var reg 1 - clk16f $end
$var reg 1 * clk1f $end
$var reg 1 ) clk2f $end
$var reg 1 . clk32f $end
$var reg 1 ( clk4f $end
$var reg 1 / clk8f $end
$var reg 1 0 clkf $end
$var reg 4 1 countc [3:0] $end
$var reg 8 2 in0 [7:0] $end
$var reg 8 3 in1 [7:0] $end
$var reg 8 4 in2 [7:0] $end
$var reg 8 5 in3 [7:0] $end
$var reg 1 " reset $end
$var reg 4 6 valid [3:0] $end
$upscope $end
$scope module mux_behav $end
$var wire 1 * clk1f $end
$var wire 1 ) clk2f $end
$var wire 1 ( clk4f $end
$var wire 8 7 in0 [7:0] $end
$var wire 8 8 in1 [7:0] $end
$var wire 8 9 in2 [7:0] $end
$var wire 8 : in3 [7:0] $end
$var wire 1 " reset $end
$var wire 4 ; valid [3:0] $end
$var wire 2 < vcc [1:0] $end
$var wire 8 = wout [7:0] $end
$var wire 8 > w [7:0] $end
$var wire 8 ? n7 [7:0] $end
$var wire 8 @ n6 [7:0] $end
$var wire 8 A n5 [7:0] $end
$var wire 8 B n4 [7:0] $end
$var wire 8 C n3 [7:0] $end
$var wire 8 D n2 [7:0] $end
$var wire 8 E n1 [7:0] $end
$var wire 8 F n0 [7:0] $end
$var reg 8 G out [7:0] $end
$scope module ff2 $end
$var wire 1 ) clk $end
$var wire 1 " reset $end
$var wire 8 H in1 [7:0] $end
$var wire 8 I in0 [7:0] $end
$var reg 8 J out0 [7:0] $end
$var reg 8 K out1 [7:0] $end
$upscope $end
$scope module ff4 $end
$var wire 1 * clk $end
$var wire 8 L in0 [7:0] $end
$var wire 8 M in1 [7:0] $end
$var wire 8 N in2 [7:0] $end
$var wire 8 O in3 [7:0] $end
$var wire 1 " reset $end
$var reg 8 P out0 [7:0] $end
$var reg 8 Q out1 [7:0] $end
$var reg 8 R out2 [7:0] $end
$var reg 8 S out3 [7:0] $end
$upscope $end
$scope module ffs $end
$var wire 1 ( clk $end
$var wire 1 " reset $end
$var wire 8 T in [7:0] $end
$var reg 8 U out [7:0] $end
$upscope $end
$scope module mux_A $end
$var wire 1 ) clk $end
$var wire 8 V in0 [7:0] $end
$var wire 8 W in1 [7:0] $end
$var wire 8 X in2 [7:0] $end
$var wire 8 Y in3 [7:0] $end
$var wire 1 " reset $end
$var wire 4 Z valid [3:0] $end
$var wire 8 [ wout1 [7:0] $end
$var wire 8 \ wout0 [7:0] $end
$var reg 8 ] out0 [7:0] $end
$var reg 8 ^ out1 [7:0] $end
$var reg 1 _ validout $end
$scope module mux_A $end
$var wire 1 ) clk $end
$var wire 8 ` in0 [7:0] $end
$var wire 8 a in1 [7:0] $end
$var wire 1 " reset $end
$var wire 2 b valid [1:0] $end
$var reg 8 c out [7:0] $end
$var reg 1 d selector $end
$upscope $end
$scope module mux_B $end
$var wire 1 ) clk $end
$var wire 8 e in0 [7:0] $end
$var wire 8 f in1 [7:0] $end
$var wire 1 " reset $end
$var wire 2 g valid [1:0] $end
$var reg 8 h out [7:0] $end
$var reg 1 i selector $end
$upscope $end
$upscope $end
$scope module mux_B $end
$var wire 1 ( clk $end
$var wire 8 j in0 [7:0] $end
$var wire 8 k in1 [7:0] $end
$var wire 1 " reset $end
$var wire 2 l valid [1:0] $end
$var reg 8 m out [7:0] $end
$var reg 1 n selector $end
$upscope $end
$upscope $end
$upscope $end
$enddefinitions $end
#0
$dumpvars
xn
b0 m
b11 l
bx k
bx j
xi
b0 h
b11 g
bx f
bx e
xd
b0 c
b11 b
bx a
bx `
x_
b0 ^
b0 ]
b0 \
b0 [
b1111 Z
bx Y
bx X
bx W
bx V
bx U
b0 T
bx S
bx R
bx Q
bx P
b0 O
b0 N
b0 M
b0 L
bx K
bx J
b0 I
b0 H
bx G
bx F
bx E
bx D
bx C
b0 B
b0 A
bx @
bx ?
b0 >
bx =
b11 <
b1111 ;
b0 :
b0 9
b0 8
b0 7
b1111 6
b0 5
b0 4
b0 3
b0 2
b0 1
00
0/
0.
0-
bx ,
0+
0*
0)
0(
b0 '
b0 &
b0 %
b0 $
bx #
0"
b1111 !
$end
#1000
b0 C
b0 S
b0 Y
b0 f
b0 D
b0 R
b0 X
b0 e
b0 E
b0 Q
b0 W
b0 a
b0 F
b0 P
b0 V
b0 `
10
0d
0i
b0 ?
b0 K
b0 k
b0 @
b0 J
b0 j
b0 #
b0 ,
b0 G
1*
0n
b0 =
b0 U
1)
1(
1/
1-
1.
1+
#2000
0+
#3000
0.
1+
#4000
0+
#5000
0-
1.
1+
#6000
0+
#7000
0.
1+
#8000
0+
#9000
0/
1-
1.
1+
#10000
0+
#11000
0.
1+
#12000
0+
#13000
0-
1.
1+
#14000
0+
#15000
0.
1+
#16000
0+
#17000
0(
1/
1-
1.
1+
#18000
0+
#19000
0.
1+
#20000
0+
#21000
0-
1.
1+
#22000
0+
#23000
0.
1+
#24000
0+
#25000
0/
1-
1.
1+
#26000
0+
#27000
0.
1+
#28000
0+
#29000
0-
1.
1+
#30000
0+
#31000
0.
1+
#32000
0+
#33000
0)
1(
1/
1-
1.
1+
#34000
0+
#35000
0.
1+
#36000
0+
#37000
0-
1.
1+
#38000
0+
#39000
0.
1+
#40000
0+
#41000
0/
1-
1.
1+
#42000
0+
#43000
0.
1+
#44000
0+
#45000
0-
1.
1+
#46000
0+
#47000
0.
1+
#48000
0+
#49000
0(
1/
1-
1.
1+
#50000
0+
#51000
0.
1+
#52000
0+
#53000
0-
1.
1+
#54000
0+
#55000
0.
1+
#56000
0+
#57000
0/
1-
1.
1+
#58000
0+
#59000
0.
1+
#60000
0+
#61000
0-
1.
1+
#62000
0+
#63000
0.
1+
#64000
0+
#65000
0*
1)
1(
1/
1-
1.
1+
#66000
0+
#67000
0.
1+
#68000
0+
#69000
0-
1.
1+
#70000
0+
#71000
0.
1+
#72000
0+
#73000
0/
1-
1.
1+
#74000
0+
#75000
0.
1+
#76000
0+
#77000
0-
1.
1+
#78000
0+
#79000
0.
1+
#80000
0+
#81000
0(
1/
1-
1.
1+
#82000
0+
#83000
0.
1+
#84000
0+
#85000
0-
1.
1+
#86000
0+
#87000
0.
1+
#88000
0+
#89000
0/
1-
1.
1+
#90000
0+
#91000
0.
1+
#92000
0+
#93000
0-
1.
1+
#94000
0+
#95000
0.
1+
#96000
0+
#97000
0)
1(
1/
1-
1.
1+
#98000
0+
#99000
0.
1+
#100000
0+
#101000
0-
1.
1+
#102000
0+
#103000
0.
1+
#104000
0+
#105000
0/
1-
1.
1+
#106000
0+
#107000
0.
1+
#108000
0+
#109000
0-
1.
1+
#110000
0+
#111000
0.
1+
#112000
0+
#113000
0(
1/
1-
1.
1+
#114000
0+
#115000
0.
1+
#116000
0+
#117000
0-
1.
1+
#118000
0+
#119000
0.
1+
#120000
0+
#121000
0/
1-
1.
1+
#122000
0+
#123000
0.
1+
#124000
0+
#125000
0-
1.
1+
#126000
0+
#127000
0.
1+
#128000
0+
#129000
00
1*
1)
1(
1/
1-
1.
1+
#130000
0+
#131000
0.
1+
#132000
0+
#133000
0-
1.
1+
#134000
0+
#135000
0.
1+
#136000
0+
#137000
0/
1-
1.
1+
#138000
0+
#139000
0.
1+
#140000
0+
#141000
0-
1.
1+
#142000
0+
#143000
0.
1+
#144000
0+
#145000
0(
1/
1-
1.
1+
#146000
0+
#147000
0.
1+
#148000
0+
#149000
0-
1.
1+
#150000
0+
#151000
0.
1+
#152000
0+
#153000
0/
1-
1.
1+
#154000
0+
#155000
0.
1+
#156000
0+
#157000
0-
1.
1+
#158000
0+
#159000
0.
1+
#160000
0+
#161000
0)
1(
1/
1-
1.
1+
#162000
0+
#163000
0.
1+
#164000
0+
#165000
0-
1.
1+
#166000
0+
#167000
0.
1+
#168000
0+
#169000
0/
1-
1.
1+
#170000
0+
#171000
0.
1+
#172000
0+
#173000
0-
1.
1+
#174000
0+
#175000
0.
1+
#176000
0+
#177000
0(
1/
1-
1.
1+
#178000
0+
#179000
0.
1+
#180000
0+
#181000
0-
1.
1+
#182000
0+
#183000
0.
1+
#184000
0+
#185000
0/
1-
1.
1+
#186000
0+
#187000
0.
1+
#188000
0+
#189000
0-
1.
1+
#190000
0+
#191000
0.
1+
#192000
0+
#193000
0*
1)
1(
1/
1-
1.
1+
#194000
0+
#195000
0.
1+
#196000
0+
#197000
0-
1.
1+
#198000
0+
#199000
0.
1+
#200000
0+
#201000
0/
1-
1.
1+
#202000
0+
#203000
0.
1+
#204000
0+
#205000
0-
1.
1+
#206000
0+
#207000
0.
1+
#208000
0+
#209000
0(
1/
1-
1.
1+
#210000
0+
#211000
0.
1+
#212000
0+
#213000
0-
1.
1+
#214000
0+
#215000
0.
1+
#216000
0+
#217000
0/
1-
1.
1+
#218000
0+
#219000
0.
1+
#220000
0+
#221000
0-
1.
1+
#222000
0+
#223000
0.
1+
#224000
0+
#225000
0)
1(
1/
1-
1.
1+
#226000
0+
#227000
0.
1+
#228000
0+
#229000
0-
1.
1+
#230000
0+
#231000
0.
1+
#232000
0+
#233000
0/
1-
1.
1+
#234000
0+
#235000
0.
1+
#236000
0+
#237000
0-
1.
1+
#238000
0+
#239000
0.
1+
#240000
0+
#241000
0(
1/
1-
1.
1+
#242000
0+
#243000
0.
1+
#244000
0+
#245000
0-
1.
1+
#246000
0+
#247000
0.
1+
#248000
0+
#249000
0/
1-
1.
1+
#250000
0+
#251000
0.
1+
#252000
0+
#253000
0-
1.
1+
#254000
0+
#255000
0.
1+
#256000
0+
#257000
10
1*
1)
1(
1/
1-
1.
1+
#258000
0+
#259000
0.
1+
#260000
0+
#261000
0-
1.
1+
#262000
0+
#263000
0.
1+
#264000
0+
#265000
0/
1-
1.
1+
#266000
0+
#267000
0.
1+
#268000
0+
#269000
0-
1.
1+
#270000
0+
#271000
0.
1+
#272000
0+
#273000
0(
1/
1-
1.
1+
#274000
0+
#275000
0.
1+
#276000
0+
#277000
0-
1.
1+
#278000
0+
#279000
0.
1+
#280000
0+
#281000
0/
1-
1.
1+
#282000
0+
#283000
0.
1+
#284000
0+
#285000
0-
1.
1+
#286000
0+
#287000
0.
1+
#288000
0+
#289000
0)
1(
1/
1-
1.
1+
#290000
0+
#291000
0.
1+
#292000
0+
#293000
0-
1.
1+
#294000
0+
#295000
0.
1+
#296000
0+
#297000
0/
1-
1.
1+
#298000
0+
#299000
0.
1+
#300000
0+
#301000
0-
1.
1+
#302000
0+
#303000
0.
1+
#304000
0+
#305000
0(
1/
1-
1.
1+
#306000
0+
#307000
0.
1+
#308000
0+
#309000
0-
1.
1+
#310000
0+
#311000
0.
1+
#312000
0+
#313000
0/
1-
1.
1+
#314000
0+
#315000
0.
1+
#316000
0+
#317000
0-
1.
1+
#318000
0+
#319000
0.
1+
#320000
0+
#321000
0*
1)
1(
1/
1-
1.
1+
#322000
0+
#323000
0.
1+
#324000
0+
#325000
0-
1.
1+
#326000
0+
#327000
0.
1+
#328000
0+
#329000
0/
1-
1.
1+
#330000
0+
#331000
0.
1+
#332000
0+
#333000
0-
1.
1+
#334000
0+
#335000
0.
1+
#336000
0+
#337000
0(
1/
1-
1.
1+
#338000
0+
#339000
0.
1+
#340000
0+
#341000
0-
1.
1+
#342000
0+
#343000
0.
1+
#344000
0+
#345000
0/
1-
1.
1+
#346000
0+
#347000
0.
1+
#348000
0+
#349000
0-
1.
1+
#350000
0+
#351000
0.
1+
#352000
0+
#353000
0)
1(
1/
1-
1.
1+
#354000
0+
#355000
0.
1+
#356000
0+
#357000
0-
1.
1+
#358000
0+
#359000
0.
1+
#360000
0+
#361000
0/
1-
1.
1+
#362000
0+
#363000
0.
1+
#364000
0+
#365000
0-
1.
1+
#366000
0+
#367000
0.
1+
#368000
0+
#369000
0(
1/
1-
1.
1+
#370000
0+
#371000
0.
1+
#372000
0+
#373000
0-
1.
1+
#374000
0+
#375000
0.
1+
#376000
0+
#377000
0/
1-
1.
1+
#378000
0+
#379000
0.
1+
#380000
0+
#381000
0-
1.
1+
#382000
0+
#383000
0.
1+
#384000
0+
#385000
00
1"
1*
1)
1(
1/
1-
1.
1+
#386000
0+
#387000
0.
1+
#388000
0+
#389000
0-
1.
1+
#390000
0+
#391000
0.
1+
#392000
0+
#393000
0/
1-
1.
1+
#394000
0+
#395000
0.
1+
#396000
0+
#397000
0-
1.
1+
#398000
0+
#399000
0.
1+
#400000
0+
#401000
0(
1/
1-
1.
1+
#402000
0+
#403000
0.
1+
#404000
0+
#405000
0-
1.
1+
#406000
0+
#407000
0.
1+
#408000
0+
#409000
0/
1-
1.
1+
#410000
0+
#411000
0.
1+
#412000
0+
#413000
0-
1.
1+
#414000
0+
#415000
0.
1+
#416000
0+
#417000
0)
1n
1(
1/
1-
1.
1+
#418000
0+
#419000
0.
1+
#420000
0+
#421000
0-
1.
1+
#422000
0+
#423000
0.
1+
#424000
0+
#425000
0/
1-
1.
1+
#426000
0+
#427000
0.
1+
#428000
0+
#429000
0-
1.
1+
#430000
0+
#431000
0.
1+
#432000
0+
#433000
0(
1/
1-
1.
1+
#434000
0+
#435000
0.
1+
#436000
0+
#437000
0-
1.
1+
#438000
0+
#439000
0.
1+
#440000
0+
#441000
0/
1-
1.
1+
#442000
0+
#443000
0.
1+
#444000
0+
#445000
0-
1.
1+
#446000
0+
#447000
0.
1+
#448000
0+
#449000
0*
1i
1d
0n
1)
1(
1/
1-
1.
1+
#450000
0+
#451000
0.
1+
#452000
0+
#453000
0-
1.
1+
#454000
0+
#455000
0.
1+
#456000
0+
#457000
0/
1-
1.
1+
#458000
0+
#459000
0.
1+
#460000
0+
#461000
0-
1.
1+
#462000
0+
#463000
0.
1+
#464000
0+
#465000
0(
1/
1-
1.
1+
#466000
0+
#467000
0.
1+
#468000
0+
#469000
0-
1.
1+
#470000
0+
#471000
0.
1+
#472000
0+
#473000
0/
1-
1.
1+
#474000
0+
#475000
0.
1+
#476000
0+
#477000
0-
1.
1+
#478000
0+
#479000
0.
1+
#480000
0+
#481000
0)
1n
1(
1/
1-
1.
1+
#482000
0+
#483000
0.
1+
#484000
0+
#485000
0-
1.
1+
#486000
0+
#487000
0.
1+
#488000
0+
#489000
0/
1-
1.
1+
#490000
0+
#491000
0.
1+
#492000
0+
#493000
0-
1.
1+
#494000
0+
#495000
0.
1+
#496000
0+
#497000
0(
1/
1-
1.
1+
#498000
0+
#499000
0.
1+
#500000
0+
#501000
0-
1.
1+
#502000
0+
#503000
0.
1+
#504000
0+
#505000
0/
1-
1.
1+
#506000
0+
#507000
0.
1+
#508000
0+
#509000
0-
1.
1+
#510000
0+
#511000
0.
1+
#512000
0+
#513000
10
0d
0i
1*
0n
1)
1(
1/
1-
1.
1+
#514000
0+
#515000
0.
1+
#516000
0+
#517000
0-
1.
1+
#518000
0+
#519000
0.
1+
#520000
0+
#521000
0/
1-
1.
1+
#522000
0+
#523000
0.
1+
#524000
0+
#525000
0-
1.
1+
#526000
0+
#527000
0.
1+
#528000
0+
#529000
0(
1/
1-
1.
1+
#530000
0+
#531000
0.
1+
#532000
0+
#533000
0-
1.
1+
#534000
0+
#535000
0.
1+
#536000
0+
#537000
0/
1-
1.
1+
#538000
0+
#539000
0.
1+
#540000
0+
#541000
0-
1.
1+
#542000
0+
#543000
0.
1+
#544000
0+
#545000
0)
1n
1(
1/
1-
1.
1+
#546000
0+
#547000
0.
1+
#548000
0+
#549000
0-
1.
1+
#550000
0+
#551000
0.
1+
#552000
0+
#553000
0/
1-
1.
1+
#554000
0+
#555000
0.
1+
#556000
0+
#557000
0-
1.
1+
#558000
0+
#559000
0.
1+
#560000
0+
#561000
0(
1/
1-
1.
1+
#562000
0+
#563000
0.
1+
#564000
0+
#565000
0-
1.
1+
#566000
0+
#567000
0.
1+
#568000
0+
#569000
0/
1-
1.
1+
#570000
0+
#571000
0.
1+
#572000
0+
#573000
0-
1.
1+
#574000
0+
#575000
0.
1+
#576000
0+
#577000
0*
1i
1d
0n
1)
1(
1/
1-
1.
1+
#578000
0+
#579000
0.
1+
#580000
0+
#581000
0-
1.
1+
#582000
0+
#583000
0.
1+
#584000
0+
#585000
0/
1-
1.
1+
#586000
0+
#587000
0.
1+
#588000
0+
#589000
0-
1.
1+
#590000
0+
#591000
0.
1+
#592000
0+
#593000
0(
1/
1-
1.
1+
#594000
0+
#595000
0.
1+
#596000
0+
#597000
0-
1.
1+
#598000
0+
#599000
0.
1+
#600000
0+
#601000
0/
1-
1.
1+
#602000
0+
#603000
0.
1+
#604000
0+
#605000
0-
1.
1+
#606000
0+
#607000
0.
1+
#608000
0+
#609000
0)
1n
1(
1/
1-
1.
1+
#610000
0+
#611000
0.
1+
#612000
0+
#613000
0-
1.
1+
#614000
0+
#615000
0.
1+
#616000
0+
#617000
0/
1-
1.
1+
#618000
0+
#619000
0.
1+
#620000
0+
#621000
0-
1.
1+
#622000
0+
#623000
0.
1+
#624000
0+
#625000
0(
1/
1-
1.
1+
#626000
0+
#627000
0.
1+
#628000
0+
#629000
0-
1.
1+
#630000
0+
#631000
0.
1+
#632000
0+
#633000
0/
1-
1.
1+
#634000
0+
#635000
0.
1+
#636000
0+
#637000
0-
1.
1+
#638000
0+
#639000
0.
1+
#640000
0+
#641000
00
0d
0i
1*
0n
1)
1(
1/
1-
1.
1+
#642000
0+
#643000
0.
1+
#644000
0+
#645000
0-
1.
1+
#646000
0+
#647000
0.
1+
#648000
0+
#649000
0/
1-
1.
1+
#650000
0+
#651000
0.
1+
#652000
0+
#653000
0-
1.
1+
#654000
0+
#655000
0.
1+
#656000
0+
#657000
0(
1/
1-
1.
1+
#658000
0+
#659000
0.
1+
#660000
0+
#661000
0-
1.
1+
#662000
0+
#663000
0.
1+
#664000
0+
#665000
0/
1-
1.
1+
#666000
0+
#667000
0.
1+
#668000
0+
#669000
0-
1.
1+
#670000
0+
#671000
0.
1+
#672000
0+
#673000
0)
1n
1(
1/
1-
1.
1+
#674000
0+
#675000
0.
1+
#676000
0+
#677000
0-
1.
1+
#678000
0+
#679000
0.
1+
#680000
0+
#681000
0/
1-
1.
1+
#682000
0+
#683000
0.
1+
#684000
0+
#685000
0-
1.
1+
#686000
0+
#687000
0.
1+
#688000
0+
#689000
0(
1/
1-
1.
1+
#690000
0+
#691000
0.
1+
#692000
0+
#693000
0-
1.
1+
#694000
0+
#695000
0.
1+
#696000
0+
#697000
0/
1-
1.
1+
#698000
0+
#699000
0.
1+
#700000
0+
#701000
0-
1.
1+
#702000
0+
#703000
0.
1+
#704000
0+
#705000
0*
1i
1d
0n
1)
1(
1/
1-
1.
1+
#706000
0+
#707000
0.
1+
#708000
0+
#709000
0-
1.
1+
#710000
0+
#711000
0.
1+
#712000
0+
#713000
0/
1-
1.
1+
#714000
0+
#715000
0.
1+
#716000
0+
#717000
0-
1.
1+
#718000
0+
#719000
0.
1+
#720000
0+
#721000
0(
1/
1-
1.
1+
#722000
0+
#723000
0.
1+
#724000
0+
#725000
0-
1.
1+
#726000
0+
#727000
0.
1+
#728000
0+
#729000
0/
1-
1.
1+
#730000
0+
#731000
0.
1+
#732000
0+
#733000
0-
1.
1+
#734000
0+
#735000
0.
1+
#736000
0+
#737000
0)
1n
1(
1/
1-
1.
1+
#738000
0+
#739000
0.
1+
#740000
0+
#741000
0-
1.
1+
#742000
0+
#743000
0.
1+
#744000
0+
#745000
0/
1-
1.
1+
#746000
0+
#747000
0.
1+
#748000
0+
#749000
0-
1.
1+
#750000
0+
#751000
0.
1+
#752000
0+
#753000
0(
1/
1-
1.
1+
#754000
0+
#755000
0.
1+
#756000
0+
#757000
0-
1.
1+
#758000
0+
#759000
0.
1+
#760000
0+
#761000
0/
1-
1.
1+
#762000
0+
#763000
0.
1+
#764000
0+
#765000
0-
1.
1+
#766000
0+
#767000
0.
1+
#768000
0+
#769000
10
0d
0i
1*
0n
1)
1(
1/
1-
1.
1+
#770000
0+
#771000
0.
1+
#772000
0+
#773000
0-
1.
1+
#774000
0+
#775000
0.
1+
#776000
0+
#777000
0/
1-
1.
1+
#778000
0+
#779000
0.
1+
#780000
0+
#781000
0-
1.
1+
#782000
0+
#783000
0.
1+
#784000
0+
#785000
0(
1/
1-
1.
1+
#786000
0+
#787000
0.
1+
#788000
0+
#789000
0-
1.
1+
#790000
0+
#791000
0.
1+
#792000
0+
#793000
0/
1-
1.
1+
#794000
0+
#795000
0.
1+
#796000
0+
#797000
0-
1.
1+
#798000
0+
#799000
0.
1+
#800000
0+
#801000
0)
1n
1(
1/
1-
1.
1+
#802000
0+
#803000
0.
1+
#804000
0+
#805000
0-
1.
1+
#806000
0+
#807000
0.
1+
#808000
0+
#809000
0/
1-
1.
1+
#810000
0+
#811000
0.
1+
#812000
0+
#813000
0-
1.
1+
#814000
0+
#815000
0.
1+
#816000
0+
#817000
0(
1/
1-
1.
1+
#818000
0+
#819000
0.
1+
#820000
0+
#821000
0-
1.
1+
#822000
0+
#823000
0.
1+
#824000
0+
#825000
0/
1-
1.
1+
#826000
0+
#827000
0.
1+
#828000
0+
#829000
0-
1.
1+
#830000
0+
#831000
0.
1+
#832000
0+
#833000
0*
1i
1d
0n
1)
1(
1/
1-
1.
1+
#834000
0+
#835000
0.
1+
#836000
0+
#837000
0-
1.
1+
#838000
0+
#839000
0.
1+
#840000
0+
#841000
0/
1-
1.
1+
#842000
0+
#843000
0.
1+
#844000
0+
#845000
0-
1.
1+
#846000
0+
#847000
0.
1+
#848000
0+
#849000
0(
1/
1-
1.
1+
#850000
0+
#851000
0.
1+
#852000
0+
#853000
0-
1.
1+
#854000
0+
#855000
0.
1+
#856000
0+
#857000
0/
1-
1.
1+
#858000
0+
#859000
0.
1+
#860000
0+
#861000
0-
1.
1+
#862000
0+
#863000
0.
1+
#864000
0+
#865000
0)
1n
1(
1/
1-
1.
1+
#866000
0+
#867000
0.
1+
#868000
0+
#869000
0-
1.
1+
#870000
0+
#871000
0.
1+
#872000
0+
#873000
0/
1-
1.
1+
#874000
0+
#875000
0.
1+
#876000
0+
#877000
0-
1.
1+
#878000
0+
#879000
0.
1+
#880000
0+
#881000
0(
1/
1-
1.
1+
#882000
0+
#883000
0.
1+
#884000
0+
#885000
0-
1.
1+
#886000
0+
#887000
0.
1+
#888000
0+
#889000
0/
1-
1.
1+
#890000
0+
#891000
0.
1+
#892000
0+
#893000
0-
1.
1+
#894000
0+
#895000
0.
1+
#896000
0+
#897000
b11001100 $
b11001100 5
b11001100 :
b11001100 O
b11011101 %
b11011101 4
b11011101 9
b11011101 N
b11101110 &
b11101110 3
b11101110 8
b11101110 M
b11111111 '
b11111111 2
b11111111 7
b11111111 L
00
0d
0i
1*
0n
1)
1(
1/
1-
1.
1+
#898000
0+
#899000
0.
1+
#900000
0+
#901000
0-
1.
1+
#902000
0+
#903000
0.
1+
#904000
0+
#905000
0/
1-
1.
1+
#906000
0+
#907000
0.
1+
#908000
0+
#909000
0-
1.
1+
#910000
0+
#911000
0.
1+
#912000
0+
#913000
0(
1/
1-
1.
1+
#914000
0+
#915000
0.
1+
#916000
0+
#917000
0-
1.
1+
#918000
0+
#919000
0.
1+
#920000
0+
#921000
0/
1-
1.
1+
#922000
0+
#923000
0.
1+
#924000
0+
#925000
0-
1.
1+
#926000
0+
#927000
0.
1+
#928000
0+
#929000
0)
1n
1(
1/
1-
1.
1+
#930000
0+
#931000
0.
1+
#932000
0+
#933000
0-
1.
1+
#934000
0+
#935000
0.
1+
#936000
0+
#937000
0/
1-
1.
1+
#938000
0+
#939000
0.
1+
#940000
0+
#941000
0-
1.
1+
#942000
0+
#943000
0.
1+
#944000
0+
#945000
0(
1/
1-
1.
1+
#946000
0+
#947000
0.
1+
#948000
0+
#949000
0-
1.
1+
#950000
0+
#951000
0.
1+
#952000
0+
#953000
0/
1-
1.
1+
#954000
0+
#955000
0.
1+
#956000
0+
#957000
0-
1.
1+
#958000
0+
#959000
0.
1+
#960000
0+
#961000
0*
1i
1d
0n
1)
1(
1/
1-
1.
1+
#962000
0+
#963000
0.
1+
#964000
0+
#965000
0-
1.
1+
#966000
0+
#967000
0.
1+
#968000
0+
#969000
0/
1-
1.
1+
#970000
0+
#971000
0.
1+
#972000
0+
#973000
0-
1.
1+
#974000
0+
#975000
0.
1+
#976000
0+
#977000
0(
1/
1-
1.
1+
#978000
0+
#979000
0.
1+
#980000
0+
#981000
0-
1.
1+
#982000
0+
#983000
0.
1+
#984000
0+
#985000
0/
1-
1.
1+
#986000
0+
#987000
0.
1+
#988000
0+
#989000
0-
1.
1+
#990000
0+
#991000
0.
1+
#992000
0+
#993000
0)
1n
1(
1/
1-
1.
1+
#994000
0+
#995000
0.
1+
#996000
0+
#997000
0-
1.
1+
#998000
0+
#999000
0.
1+
#1000000
0+
#1001000
0/
1-
1.
1+
#1002000
0+
#1003000
0.
1+
#1004000
0+
#1005000
0-
1.
1+
#1006000
0+
#1007000
0.
1+
#1008000
0+
#1009000
0(
1/
1-
1.
1+
#1010000
0+
#1011000
0.
1+
#1012000
0+
#1013000
0-
1.
1+
#1014000
0+
#1015000
0.
1+
#1016000
0+
#1017000
0/
1-
1.
1+
#1018000
0+
#1019000
0.
1+
#1020000
0+
#1021000
0-
1.
1+
#1022000
0+
#1023000
0.
1+
#1024000
0+
#1025000
b11011101 A
b11011101 H
b11011101 ^
b11111111 B
b11111111 I
b11111111 ]
b11011101 [
b11011101 h
b11111111 \
b11111111 c
b11001100 C
b11001100 S
b11001100 Y
b11001100 f
b11011101 D
b11011101 R
b11011101 X
b11011101 e
b11101110 E
b11101110 Q
b11101110 W
b11101110 a
b11111111 F
b11111111 P
b11111111 V
b11111111 `
b10001000 $
b10001000 5
b10001000 :
b10001000 O
b10011001 %
b10011001 4
b10011001 9
b10011001 N
b10101010 &
b10101010 3
b10101010 8
b10101010 M
b10111011 '
b10111011 2
b10111011 7
b10111011 L
10
0d
0i
1*
0n
1)
1(
1/
1-
1.
1+
#1026000
0+
#1027000
0.
1+
#1028000
0+
#1029000
0-
1.
1+
#1030000
0+
#1031000
0.
1+
#1032000
0+
#1033000
0/
1-
1.
1+
#1034000
0+
#1035000
0.
1+
#1036000
0+
#1037000
0-
1.
1+
#1038000
0+
#1039000
0.
1+
#1040000
0+
#1041000
0(
1/
1-
1.
1+
#1042000
0+
#1043000
0.
1+
#1044000
0+
#1045000
0-
1.
1+
#1046000
0+
#1047000
0.
1+
#1048000
0+
#1049000
0/
1-
1.
1+
#1050000
0+
#1051000
0.
1+
#1052000
0+
#1053000
0-
1.
1+
#1054000
0+
#1055000
0.
1+
#1056000
0+
#1057000
0)
1n
1(
1/
1-
1.
1+
#1058000
0+
#1059000
0.
1+
#1060000
0+
#1061000
0-
1.
1+
#1062000
0+
#1063000
0.
1+
#1064000
0+
#1065000
0/
1-
1.
1+
#1066000
0+
#1067000
0.
1+
#1068000
0+
#1069000
0-
1.
1+
#1070000
0+
#1071000
0.
1+
#1072000
0+
#1073000
0(
1/
1-
1.
1+
#1074000
0+
#1075000
0.
1+
#1076000
0+
#1077000
0-
1.
1+
#1078000
0+
#1079000
0.
1+
#1080000
0+
#1081000
0/
1-
1.
1+
#1082000
0+
#1083000
0.
1+
#1084000
0+
#1085000
0-
1.
1+
#1086000
0+
#1087000
0.
1+
#1088000
0+
#1089000
b11001100 A
b11001100 H
b11001100 ^
b11101110 B
b11101110 I
b11101110 ]
b11111111 >
b11111111 T
b11111111 m
b11001100 [
b11001100 h
b11101110 \
b11101110 c
0*
b11011101 ?
b11011101 K
b11011101 k
b11111111 @
b11111111 J
b11111111 j
1i
1d
0n
1)
1(
1/
1-
1.
1+
#1090000
0+
#1091000
0.
1+
#1092000
0+
#1093000
0-
1.
1+
#1094000
0+
#1095000
0.
1+
#1096000
0+
#1097000
0/
1-
1.
1+
#1098000
0+
#1099000
0.
1+
#1100000
0+
#1101000
0-
1.
1+
#1102000
0+
#1103000
0.
1+
#1104000
0+
#1105000
0(
1/
1-
1.
1+
#1106000
0+
#1107000
0.
1+
#1108000
0+
#1109000
0-
1.
1+
#1110000
0+
#1111000
0.
1+
#1112000
0+
#1113000
0/
1-
1.
1+
#1114000
0+
#1115000
0.
1+
#1116000
0+
#1117000
0-
1.
1+
#1118000
0+
#1119000
0.
1+
#1120000
0+
#1121000
b11011101 >
b11011101 T
b11011101 m
0)
b11111111 =
b11111111 U
1n
1(
1/
1-
1.
1+
#1122000
0+
#1123000
0.
1+
#1124000
0+
#1125000
0-
1.
1+
#1126000
0+
#1127000
0.
1+
#1128000
0+
#1129000
0/
1-
1.
1+
#1130000
0+
#1131000
0.
1+
#1132000
0+
#1133000
0-
1.
1+
#1134000
0+
#1135000
0.
1+
#1136000
0+
#1137000
0(
1/
1-
1.
1+
#1138000
0+
#1139000
0.
1+
#1140000
0+
#1141000
0-
1.
1+
#1142000
0+
#1143000
0.
1+
#1144000
0+
#1145000
0/
1-
1.
1+
#1146000
0+
#1147000
0.
1+
#1148000
0+
#1149000
0-
1.
1+
#1150000
0+
#1151000
0.
1+
#1152000
0+
