MUX4a2/Comparacion de modelos/muxy.vcd
$date
	Tue May 26 20:00:26 2020
$end
$version
	Icarus Verilog
$end
$timescale
	1ps
$end
$scope module BUF $end
$var wire 1 ! A $end
$var wire 1 " Y $end
$upscope $end
$scope module DFFSR $end
$var wire 1 # C $end
$var wire 1 $ D $end
$var wire 1 % R $end
$var wire 1 & S $end
$var reg 1 ' Q $end
$upscope $end
$scope module NAND $end
$var wire 1 ( A $end
$var wire 1 ) B $end
$var wire 1 * Y $end
$upscope $end
$scope module NOR $end
$var wire 1 + A $end
$var wire 1 , B $end
$var wire 1 - Y $end
$upscope $end
$scope module NOT $end
$var wire 1 . A $end
$var wire 1 / Y $end
$upscope $end
$scope module bancoPruebas $end
$var wire 4 0 valid [3:0] $end
$var wire 1 1 reset $end
$var wire 8 2 outs1 [7:0] $end
$var wire 8 3 outs0 [7:0] $end
$var wire 8 4 outc1 [7:0] $end
$var wire 8 5 outc0 [7:0] $end
$var wire 8 6 in3 [7:0] $end
$var wire 8 7 in2 [7:0] $end
$var wire 8 8 in1 [7:0] $end
$var wire 8 9 in0 [7:0] $end
$var wire 1 : clk $end
$scope module Tb $end
$var wire 8 ; outs1 [7:0] $end
$var wire 8 < outs0 [7:0] $end
$var wire 8 = outc1 [7:0] $end
$var wire 8 > outc0 [7:0] $end
$var reg 1 ? checker $end
$var reg 1 : clk $end
$var reg 4 @ countc0 [3:0] $end
$var reg 4 A countc1 [3:0] $end
$var reg 4 B counts0 [3:0] $end
$var reg 4 C counts1 [3:0] $end
$var reg 8 D in0 [7:0] $end
$var reg 8 E in1 [7:0] $end
$var reg 8 F in2 [7:0] $end
$var reg 8 G in3 [7:0] $end
$var reg 1 1 reset $end
$var reg 4 H valid [3:0] $end
$upscope $end
$scope module mux_behav $end
$var wire 1 : clk $end
$var wire 8 I in0 [7:0] $end
$var wire 8 J in1 [7:0] $end
$var wire 8 K in2 [7:0] $end
$var wire 8 L in3 [7:0] $end
$var wire 1 1 reset $end
$var wire 4 M valid [3:0] $end
$var wire 8 N wout1 [7:0] $end
$var wire 8 O wout0 [7:0] $end
$var reg 8 P out0 [7:0] $end
$var reg 8 Q out1 [7:0] $end
$scope module mux_A $end
$var wire 1 : clk $end
$var wire 8 R in0 [7:0] $end
$var wire 8 S in1 [7:0] $end
$var wire 1 1 reset $end
$var wire 2 T valid [1:0] $end
$var reg 8 U out [7:0] $end
$var reg 1 V selector $end
$upscope $end
$scope module mux_B $end
$var wire 1 : clk $end
$var wire 8 W in0 [7:0] $end
$var wire 8 X in1 [7:0] $end
$var wire 1 1 reset $end
$var wire 2 Y valid [1:0] $end
$var reg 8 Z out [7:0] $end
$var reg 1 [ selector $end
$upscope $end
$upscope $end
$scope module mux_struct $end
$var wire 1 : clk $end
$var wire 8 \ in0 [7:0] $end
$var wire 8 ] in1 [7:0] $end
$var wire 8 ^ in2 [7:0] $end
$var wire 8 _ in3 [7:0] $end
$var wire 8 ` out0 [7:0] $end
$var wire 8 a out1 [7:0] $end
$var wire 1 1 reset $end
$var wire 4 b valid [3:0] $end
$var wire 8 c wout1 [7:0] $end
$var wire 8 d wout0 [7:0] $end
$scope module mux_A $end
$var wire 1 e _02_ $end
$var wire 1 : clk $end
$var wire 8 f in0 [7:0] $end
$var wire 8 g in1 [7:0] $end
$var wire 1 1 reset $end
$var wire 2 h valid [1:0] $end
$var wire 1 i selector $end
$var wire 8 j out [7:0] $end
$var wire 8 k _05_ [7:0] $end
$var wire 8 l _04_ [7:0] $end
$var wire 8 m _03_ [7:0] $end
$var wire 1 n _01_ $end
$var wire 8 o _00_ [7:0] $end
$scope module _40_ $end
$var wire 1 : C $end
$var wire 1 p D $end
$var reg 1 q Q $end
$upscope $end
$scope module _41_ $end
$var wire 1 : C $end
$var wire 1 r D $end
$var reg 1 s Q $end
$upscope $end
$scope module _42_ $end
$var wire 1 : C $end
$var wire 1 t D $end
$var reg 1 u Q $end
$upscope $end
$scope module _43_ $end
$var wire 1 : C $end
$var wire 1 v D $end
$var reg 1 w Q $end
$upscope $end
$scope module _44_ $end
$var wire 1 : C $end
$var wire 1 x D $end
$var reg 1 y Q $end
$upscope $end
$scope module _45_ $end
$var wire 1 : C $end
$var wire 1 z D $end
$var reg 1 { Q $end
$upscope $end
$scope module _46_ $end
$var wire 1 : C $end
$var wire 1 | D $end
$var reg 1 } Q $end
$upscope $end
$scope module _47_ $end
$var wire 1 : C $end
$var wire 1 ~ D $end
$var reg 1 !" Q $end
$upscope $end
$scope module _48_ $end
$var wire 1 : C $end
$var wire 1 n D $end
$var reg 1 i Q $end
$upscope $end
$upscope $end
$scope module mux_B $end
$var wire 1 "" _02_ $end
$var wire 1 : clk $end
$var wire 8 #" in0 [7:0] $end
$var wire 8 $" in1 [7:0] $end
$var wire 1 1 reset $end
$var wire 2 %" valid [1:0] $end
$var wire 1 &" selector $end
$var wire 8 '" out [7:0] $end
$var wire 8 (" _05_ [7:0] $end
$var wire 8 )" _04_ [7:0] $end
$var wire 8 *" _03_ [7:0] $end
$var wire 1 +" _01_ $end
$var wire 8 ," _00_ [7:0] $end
$scope module _40_ $end
$var wire 1 : C $end
$var wire 1 -" D $end
$var reg 1 ." Q $end
$upscope $end
$scope module _41_ $end
$var wire 1 : C $end
$var wire 1 /" D $end
$var reg 1 0" Q $end
$upscope $end
$scope module _42_ $end
$var wire 1 : C $end
$var wire 1 1" D $end
$var reg 1 2" Q $end
$upscope $end
$scope module _43_ $end
$var wire 1 : C $end
$var wire 1 3" D $end
$var reg 1 4" Q $end
$upscope $end
$scope module _44_ $end
$var wire 1 : C $end
$var wire 1 5" D $end
$var reg 1 6" Q $end
$upscope $end
$scope module _45_ $end
$var wire 1 : C $end
$var wire 1 7" D $end
$var reg 1 8" Q $end
$upscope $end
$scope module _46_ $end
$var wire 1 : C $end
$var wire 1 9" D $end
$var reg 1 :" Q $end
$upscope $end
$scope module _47_ $end
$var wire 1 : C $end
$var wire 1 ;" D $end
$var reg 1 <" Q $end
$upscope $end
$scope module _48_ $end
$var wire 1 : C $end
$var wire 1 +" D $end
$var reg 1 &" Q $end
$upscope $end
$upscope $end
$upscope $end
$upscope $end
$enddefinitions $end
#0
$dumpvars
x<"
0;"
x:"
09"
x8"
07"
x6"
05"
x4"
03"
x2"
01"
x0"
0/"
x."
0-"
b0 ,"
x+"
b0 *"
b0 )"
b0 ("
bx '"
x&"
b11 %"
b0 $"
b0 #"
x""
x!"
0~
x}
0|
x{
0z
xy
0x
xw
0v
xu
0t
xs
0r
xq
0p
b0 o
xn
b0 m
b0 l
b0 k
bx j
xi
b11 h
b0 g
b0 f
xe
bx d
bx c
b1111 b
bx a
bx `
b0 _
b0 ^
b0 ]
b0 \
x[
bx Z
b11 Y
b0 X
b0 W
xV
bx U
b11 T
b0 S
b0 R
bx Q
bx P
bx O
bx N
b1111 M
b0 L
b0 K
b0 J
b0 I
b1111 H
b0 G
b0 F
b0 E
b0 D
b0 C
b0 B
b0 A
b0 @
x?
bx >
bx =
bx <
bx ;
0:
b0 9
b0 8
b0 7
b0 6
bx 5
bx 4
bx 3
bx 2
x1
b1111 0
z/
z.
x-
z,
z+
x*
z)
z(
x'
z&
z%
z$
z#
z"
z!
$end
#10000
b0 4
b0 =
b0 Q
b0 5
b0 >
b0 P
1?
b0 O
b0 U
b0 N
b0 Z
0q
0s
0u
0w
0y
0{
0}
b0 3
b0 <
b0 `
b0 d
b0 j
0!"
0."
00"
02"
04"
06"
08"
0:"
b0 2
b0 ;
b0 a
b0 c
b0 '"
0<"
1:
#15000
0n
0+"
01
#20000
0:
#30000
b11111110 )"
b11111111 l
b10 *"
b11111110 ("
b11111111 k
b1 m
1""
1e
b10 6
b10 G
b10 L
b10 X
b10 _
b10 $"
b11111110 7
b11111110 F
b11111110 K
b11111110 W
b11111110 ^
b11111110 #"
b11111111 9
b11111111 D
b11111111 I
b11111111 R
b11111111 \
b11111111 f
b1 8
b1 E
b1 J
b1 S
b1 ]
b1 g
0&"
0i
0[
0V
1:
#40000
0:
#50000
1:
#60000
0:
#70000
b11111100 )"
b11111110 l
b100 *"
b11111100 ("
b11111110 k
b10 m
b100 6
b100 G
b100 L
b100 X
b100 _
b100 $"
b11111100 7
b11111100 F
b11111100 K
b11111100 W
b11111100 ^
b11111100 #"
b11111110 9
b11111110 D
b11111110 I
b11111110 R
b11111110 \
b11111110 f
b10 8
b10 E
b10 J
b10 S
b10 ]
b10 g
0p
1r
1t
1v
1x
1z
1|
1~
0/"
11"
13"
15"
17"
19"
1;"
1n
b11111110 o
1+"
b11111100 ,"
11
1:
#80000
0:
#90000
b11111100 4
b11111100 =
b11111100 Q
b11111110 5
b11111110 >
b11111110 P
1?
0~
0|
0z
0x
0v
0t
0;"
09"
07"
05"
03"
b10 o
b100 ,"
0n
0+"
b10 l
0e
b100 )"
0""
b11111110 O
b11111110 U
1V
b11111100 N
b11111100 Z
1[
1s
1u
1w
1y
1{
1}
b11111110 3
b11111110 <
b11111110 `
b11111110 d
b11111110 j
1!"
1i
12"
14"
16"
18"
1:"
b11111100 2
b11111100 ;
b11111100 a
b11111100 c
b11111100 '"
1<"
1&"
1:
#100000
0:
#110000
1?
b100 4
b100 =
b100 Q
b10 5
b10 >
b10 P
1;"
19"
17"
15"
13"
1~
1|
1z
1x
1v
1t
b11111100 ,"
b11111110 o
1+"
1n
b11111100 )"
1""
b11111110 l
1e
0&"
0<"
0:"
08"
06"
b100 2
b100 ;
b100 a
b100 c
b100 '"
04"
0i
0!"
0}
0{
0y
0w
b10 3
b10 <
b10 `
b10 d
b10 j
0u
b100 N
b100 Z
0[
b10 O
b10 U
0V
1:
#120000
0:
#130000
b11111100 4
b11111100 =
b11111100 Q
b11111110 5
b11111110 >
b11111110 P
1?
0~
0|
0z
0x
0v
0t
0;"
09"
07"
05"
03"
b10 o
b100 ,"
0n
0+"
b10 l
0e
b100 )"
0""
b11111110 O
b11111110 U
1V
b11111100 N
b11111100 Z
1[
1u
1w
1y
1{
1}
b11111110 3
b11111110 <
b11111110 `
b11111110 d
b11111110 j
1!"
1i
14"
16"
18"
1:"
b11111100 2
b11111100 ;
b11111100 a
b11111100 c
b11111100 '"
1<"
1&"
1:
#140000
0:
#150000
1?
b100 4
b100 =
b100 Q
b10 5
b10 >
b10 P
1;"
19"
17"
15"
13"
1~
1|
1z
1x
1v
1t
b11111100 ,"
b11111110 o
1+"
1n
b11111100 )"
1""
b11111110 l
1e
0&"
0<"
0:"
08"
06"
b100 2
b100 ;
b100 a
b100 c
b100 '"
04"
0i
0!"
0}
0{
0y
0w
b10 3
b10 <
b10 `
b10 d
b10 j
0u
b100 N
b100 Z
0[
b10 O
b10 U
0V
1:
#160000
0:
#170000
b11111100 4
b11111100 =
b11111100 Q
b11111110 5
b11111110 >
b11111110 P
1?
0~
0|
0z
0x
0v
0t
0;"
09"
07"
05"
03"
b10 o
b100 ,"
0n
0+"
b10 l
0e
b100 )"
0""
b11111110 O
b11111110 U
1V
b11111100 N
b11111100 Z
1[
1u
1w
1y
1{
1}
b11111110 3
b11111110 <
b11111110 `
b11111110 d
b11111110 j
1!"
1i
14"
16"
18"
1:"
b11111100 2
b11111100 ;
b11111100 a
b11111100 c
b11111100 '"
1<"
1&"
1:
#180000
0:
#190000
1?
b100 4
b100 =
b100 Q
b10 5
b10 >
b10 P
1;"
19"
17"
15"
13"
1~
1|
1z
1x
1v
1t
b11111100 ,"
b11111110 o
1+"
1n
b11111100 )"
1""
b11111110 l
1e
0&"
0<"
0:"
08"
06"
b100 2
b100 ;
b100 a
b100 c
b100 '"
04"
0i
0!"
0}
0{
0y
0w
b10 3
b10 <
b10 `
b10 d
b10 j
0u
b100 N
b100 Z
0[
b10 O
b10 U
0V
1:
#200000
0:
#210000
b11111100 4
b11111100 =
b11111100 Q
b11111110 5
b11111110 >
b11111110 P
1?
0~
0|
0z
0x
0v
0t
0;"
09"
07"
05"
03"
b10 o
b100 ,"
0n
0+"
b10 l
0e
b100 )"
0""
b11111110 O
b11111110 U
1V
b11111100 N
b11111100 Z
1[
1u
1w
1y
1{
1}
b11111110 3
b11111110 <
b11111110 `
b11111110 d
b11111110 j
1!"
1i
14"
16"
18"
1:"
b11111100 2
b11111100 ;
b11111100 a
b11111100 c
b11111100 '"
1<"
1&"
1:
#220000
0:
#230000
1?
b100 4
b100 =
b100 Q
b10 5
b10 >
b10 P
1;"
19"
17"
15"
13"
1~
1|
1z
1x
1v
1t
b11111100 ,"
b11111110 o
1+"
1n
b11111100 )"
1""
b11111110 l
1e
0&"
0<"
0:"
08"
06"
b100 2
b100 ;
b100 a
b100 c
b100 '"
04"
0i
0!"
0}
0{
0y
0w
b10 3
b10 <
b10 `
b10 d
b10 j
0u
b100 N
b100 Z
0[
b10 O
b10 U
0V
1:
#240000
0:
#250000
b11111100 4
b11111100 =
b11111100 Q
b11111110 5
b11111110 >
b11111110 P
1?
0~
0|
0z
0x
0v
0t
0;"
09"
07"
05"
03"
b10 o
b100 ,"
0n
0+"
b10 l
0e
b100 )"
0""
b11111110 O
b11111110 U
1V
b11111100 N
b11111100 Z
1[
1u
1w
1y
1{
1}
b11111110 3
b11111110 <
b11111110 `
b11111110 d
b11111110 j
1!"
1i
14"
16"
18"
1:"
b11111100 2
b11111100 ;
b11111100 a
b11111100 c
b11111100 '"
1<"
1&"
1:
#260000
0:
#270000
1?
b100 4
b100 =
b100 Q
b10 5
b10 >
b10 P
0p
1r
0;"
09"
07"
05"
03"
0~
0|
0z
0x
0v
0t
b100 ("
b100 ,"
b10 o
b10 k
b10 m
1+"
1n
b0 T
b0 Y
b0 h
b0 %"
b100 )"
1""
b10 l
1e
b110 6
b110 G
b110 L
b110 X
b110 _
b110 $"
b11111010 7
b11111010 F
b11111010 K
b11111010 W
b11111010 ^
b11111010 #"
b0 0
b0 H
b0 M
b0 b
b11111101 9
b11111101 D
b11111101 I
b11111101 R
b11111101 \
b11111101 f
b11 8
b11 E
b11 J
b11 S
b11 ]
b11 g
0&"
0<"
0:"
08"
06"
b100 2
b100 ;
b100 a
b100 c
b100 '"
04"
0i
0!"
0}
0{
0y
0w
b10 3
b10 <
b10 `
b10 d
b10 j
0u
b100 N
b100 Z
0[
b10 O
b10 U
0V
1:
#280000
0:
#290000
b11111100 k
0n
0+"
0e
0""
b1 T
b1 h
1V
1[
1i
1&"
b1000 6
b1000 G
b1000 L
b1000 X
b1000 _
b1000 $"
b11111000 7
b11111000 F
b11111000 K
b11111000 W
b11111000 ^
b11111000 #"
b1 0
b1 H
b1 M
b1 b
b11111100 9
b11111100 D
b11111100 I
b11111100 R
b11111100 \
b11111100 f
b100 8
b100 E
b100 J
b100 S
b100 ]
b100 g
1:
#300000
0:
#310000
0p
0~
0|
0z
0x
0v
0t
1r
b101 m
b10 o
b10 k
1+"
1n
b10 T
b10 h
1""
b10 l
1e
b1010 6
b1010 G
b1010 L
b1010 X
b1010 _
b1010 $"
b11110110 7
b11110110 F
b11110110 K
b11110110 W
b11110110 ^
b11110110 #"
b10 0
b10 H
b10 M
b10 b
b11111011 9
b11111011 D
b11111011 I
b11111011 R
b11111011 \
b11111011 f
b101 8
b101 E
b101 J
b101 S
b101 ]
b101 g
0&"
0i
0[
0V
1:
#320000
0:
#330000
1t
1r
0p
b110 o
b11111010 k
0n
0+"
b110 m
b110 l
0e
0""
b11 T
b11 h
1V
1[
1i
1&"
b1100 6
b1100 G
b1100 L
b1100 X
b1100 _
b1100 $"
b11110100 7
b11110100 F
b11110100 K
b11110100 W
b11110100 ^
b11110100 #"
b11 0
b11 H
b11 M
b11 b
b11111010 9
b11111010 D
b11111010 I
b11111010 R
b11111010 \
b11111010 f
b110 8
b110 E
b110 J
b110 S
b110 ]
b110 g
1:
#340000
0:
#350000
1?
b110 5
b110 >
b110 P
1/"
01"
15"
17"
19"
1;"
b11110010 ,"
0p
1r
b11110010 )"
0~
0|
0z
0x
0v
1t
b11110010 ("
b110 o
b110 k
b110 m
1+"
1n
b0 T
b1 Y
b0 h
b1 %"
1""
b110 l
1e
b1110 6
b1110 G
b1110 L
b1110 X
b1110 _
b1110 $"
b11110010 7
b11110010 F
b11110010 K
b11110010 W
b11110010 ^
b11110010 #"
b100 0
b100 H
b100 M
b100 b
b11111001 9
b11111001 D
b11111001 I
b11111001 R
b11111001 \
b11111001 f
b111 8
b111 E
b111 J
b111 S
b111 ]
b111 g
0&"
0i
b110 3
b110 <
b110 `
b110 d
b110 j
1u
0[
b110 O
b110 U
0V
1:
#360000
0:
#370000
b11110010 4
b11110010 =
b11110010 Q
1?
1;"
19"
17"
15"
01"
1/"
b11110010 ,"
b11111000 k
0n
b11110010 *"
0+"
b11110000 ("
0e
b11110010 )"
0""
b1 T
b1 h
1V
b11110010 N
b11110010 Z
1[
1i
10"
02"
16"
18"
1:"
b11110010 2
b11110010 ;
b11110010 a
b11110010 c
b11110010 '"
1<"
1&"
b10000 6
b10000 G
b10000 L
b10000 X
b10000 _
b10000 $"
b11110000 7
b11110000 F
b11110000 K
b11110000 W
b11110000 ^
b11110000 #"
b101 0
b101 H
b101 M
b101 b
b11111000 9
b11111000 D
b11111000 I
b11111000 R
b11111000 \
b11111000 f
b1000 8
b1000 E
b1000 J
b1000 S
b1000 ]
b1000 g
1:
#380000
0:
#390000
11"
13"
05"
0p
1/"
0~
0|
0z
0x
0v
1t
1r
b1001 m
b11101110 ,"
b110 o
b11101110 ("
b110 k
1+"
1n
b10 T
b10 h
b11101110 )"
1""
b110 l
1e
b10010 6
b10010 G
b10010 L
b10010 X
b10010 _
b10010 $"
b11101110 7
b11101110 F
b11101110 K
b11101110 W
b11101110 ^
b11101110 #"
b110 0
b110 H
b110 M
b110 b
b11110111 9
b11110111 D
b11110111 I
b11110111 R
b11110111 \
b11110111 f
b1001 8
b1001 E
b1001 J
b1001 S
b1001 ]
b1001 g
0&"
0i
0[
0V
1:
#400000
0:
#410000
b11101110 4
b11101110 =
b11101110 Q
1?
1v
0t
1r
0p
05"
13"
11"
b1010 o
b11101110 ,"
b11110110 k
0n
b11101110 *"
0+"
b11101100 ("
b1010 m
b1010 l
0e
b11101110 )"
0""
b11 T
b11 h
1V
b11101110 N
b11101110 Z
1[
1i
12"
14"
b11101110 2
b11101110 ;
b11101110 a
b11101110 c
b11101110 '"
06"
1&"
b10100 6
b10100 G
b10100 L
b10100 X
b10100 _
b10100 $"
b11101100 7
b11101100 F
b11101100 K
b11101100 W
b11101100 ^
b11101100 #"
b111 0
b111 H
b111 M
b111 b
b11110110 9
b11110110 D
b11110110 I
b11110110 R
b11110110 \
b11110110 f
b1010 8
b1010 E
b1010 J
b1010 S
b1010 ]
b1010 g
1:
#420000
0:
#430000
1?
b1010 5
b1010 >
b1010 P
0p
1r
1/"
0~
0|
0z
0x
1v
0t
b10110 *"
b11101110 ,"
b1010 o
b11101110 ("
b1010 k
b1010 m
1+"
1n
b0 T
b10 Y
b0 h
b10 %"
b11101110 )"
1""
b1010 l
1e
b10110 6
b10110 G
b10110 L
b10110 X
b10110 _
b10110 $"
b11101010 7
b11101010 F
b11101010 K
b11101010 W
b11101010 ^
b11101010 #"
b1000 0
b1000 H
b1000 M
b1000 b
b11110101 9
b11110101 D
b11110101 I
b11110101 R
b11110101 \
b11110101 f
b1011 8
b1011 E
b1011 J
b1011 S
b1011 ]
b1011 g
0&"
0i
1w
b1010 3
b1010 <
b1010 `
b1010 d
b1010 j
0u
0[
b1010 O
b1010 U
0V
1:
#440000
0:
#450000
0/"
01"
0;"
09"
07"
15"
13"
b11000 ,"
b11110100 k
0n
0+"
b11000 *"
0e
b11000 )"
0""
b1 T
b1 h
1V
1[
1i
1&"
b11000 6
b11000 G
b11000 L
b11000 X
b11000 _
b11000 $"
b11101000 7
b11101000 F
b11101000 K
b11101000 W
b11101000 ^
b11101000 #"
b1001 0
b1001 H
b1001 M
b1001 b
b11110100 9
b11110100 D
b11110100 I
b11110100 R
b11110100 \
b11110100 f
b1100 8
b1100 E
b1100 J
b1100 S
b1100 ]
b1100 g
1:
