Paraleloserie/Paraleloserie/ptos.vcd
$date
	Fri Jun  5 19:26:45 2020
$end
$version
	Icarus Verilog
$end
$timescale
	1ps
$end
$scope module BUF $end
$var wire 1 ! A $end
$var wire 1 " Y $end
$upscope $end
$scope module DFFSR $end
$var wire 1 # C $end
$var wire 1 $ D $end
$var wire 1 % R $end
$var wire 1 & S $end
$var reg 1 ' Q $end
$upscope $end
$scope module NAND $end
$var wire 1 ( A $end
$var wire 1 ) B $end
$var wire 1 * Y $end
$upscope $end
$scope module NOR $end
$var wire 1 + A $end
$var wire 1 , B $end
$var wire 1 - Y $end
$upscope $end
$scope module NOT $end
$var wire 1 . A $end
$var wire 1 / Y $end
$upscope $end
$scope module testbench_ptos $end
$var wire 1 0 reset $end
$var wire 1 1 outs $end
$var wire 1 2 outc $end
$var wire 1 3 in_valid $end
$var wire 8 4 in [7:0] $end
$var wire 1 5 clk4f $end
$var wire 1 6 clk32f $end
$var wire 1 7 clk $end
$scope module paralelo_a_serialtb_b $end
$var wire 1 0 reset $end
$var wire 1 3 in_valid $end
$var wire 8 8 in [7:0] $end
$var wire 1 6 clk32f $end
$var reg 1 9 in0 $end
$var reg 1 : in1 $end
$var reg 1 ; in2 $end
$var reg 1 < in3 $end
$var reg 1 = in4 $end
$var reg 1 > in5 $end
$var reg 1 ? in6 $end
$var reg 1 @ in7 $end
$var reg 1 2 out $end
$var reg 3 A selector [2:0] $end
$upscope $end
$scope module paralelo_a_serialtb_s $end
$var wire 1 B _03_ $end
$var wire 1 C _04_ $end
$var wire 1 D _05_ $end
$var wire 1 E _06_ $end
$var wire 1 F _11_ $end
$var wire 1 G _14_ $end
$var wire 1 H _15_ $end
$var wire 1 I _16_ $end
$var wire 1 J _17_ $end
$var wire 1 K _18_ $end
$var wire 1 L _19_ $end
$var wire 1 M _21_ $end
$var wire 1 N _23_ $end
$var wire 1 O _24_ $end
$var wire 1 P _25_ $end
$var wire 1 Q _26_ $end
$var wire 1 R _27_ $end
$var wire 1 S _28_ $end
$var wire 1 T _29_ $end
$var wire 1 U _31_ $end
$var wire 3 V selector [2:0] $end
$var wire 1 0 reset $end
$var wire 1 1 out $end
$var wire 1 3 in_valid $end
$var wire 1 W in7 $end
$var wire 1 X in6 $end
$var wire 1 Y in5 $end
$var wire 1 Z in4 $end
$var wire 1 [ in3 $end
$var wire 1 \ in2 $end
$var wire 1 ] in1 $end
$var wire 1 ^ in0 $end
$var wire 8 _ in [7:0] $end
$var wire 1 6 clk32f $end
$var wire 32 ` _30_ [31:0] $end
$var wire 1 a _22_ $end
$var wire 7 b _20_ [6:0] $end
$var wire 3 c _13_ [2:0] $end
$var wire 3 d _12_ [2:0] $end
$var wire 2 e _10_ [1:0] $end
$var wire 3 f _09_ [2:0] $end
$var wire 2 g _08_ [1:0] $end
$var wire 3 h _07_ [2:0] $end
$var wire 32 i _02_ [31:0] $end
$var wire 3 j _01_ [2:0] $end
$var wire 1 k _00_ $end
$scope module _75_ $end
$var wire 1 k D $end
$var wire 1 6 C $end
$var reg 1 1 Q $end
$upscope $end
$scope module _76_ $end
$var wire 1 l D $end
$var wire 1 6 C $end
$var reg 1 m Q $end
$upscope $end
$scope module _77_ $end
$var wire 1 n D $end
$var wire 1 6 C $end
$var reg 1 o Q $end
$upscope $end
$scope module _78_ $end
$var wire 1 p D $end
$var wire 1 6 C $end
$var reg 1 q Q $end
$upscope $end
$upscope $end
$scope module t_ptostb $end
$var wire 1 2 outc $end
$var wire 1 1 outs $end
$var reg 1 7 clk $end
$var reg 1 r clk16f $end
$var reg 1 6 clk32f $end
$var reg 1 5 clk4f $end
$var reg 1 s clk8f $end
$var reg 8 t in [7:0] $end
$var reg 1 3 in_valid $end
$var reg 1 0 reset $end
$upscope $end
$upscope $end
$enddefinitions $end
#0
$dumpvars
bx t
0s
0r
xq
0p
xo
0n
xm
0l
0k
b0 j
b0zxxx i
bx h
bx g
bx f
bx e
bx d
bx c
bx0xxxx0 b
xa
b0zxx `
bx _
1^
0]
1\
1[
1Z
1Y
0X
0W
bx V
xU
xT
xS
xR
xQ
xP
xO
xN
xM
xL
xK
xJ
xI
xH
xG
xF
xE
xD
xC
xB
bx A
0@
0?
1>
1=
1<
1;
0:
19
bx 8
07
06
05
bx 4
03
x2
x1
00
z/
z.
x-
z,
z+
x*
z)
z(
x'
z&
z%
z$
z#
z"
z!
$end
#5000
b11111111 4
b11111111 8
b11111111 _
b11111111 t
15
1s
1a
1M
b0 h
b10 g
1U
0S
0R
0Q
b0 f
1L
1K
1J
b10 e
b1000000 b
0O
0N
1C
1B
1E
1T
0P
1H
1G
0F
1I
b0z001 i
b0z00 `
0D
b11 c
b101 d
b0 A
02
01
0m
0o
b0 V
0q
1r
16
17
#10000
07
#15000
06
17
#20000
07
#25000
0r
16
17
#30000
07
#35000
06
17
#40000
07
#45000
0s
1r
16
17
#50000
07
#55000
06
17
#60000
07
#65000
0r
16
17
#70000
07
#75000
06
17
#80000
07
#85000
05
1s
1r
16
17
#90000
07
#95000
06
17
#100000
07
#105000
0r
16
17
#110000
07
#115000
06
17
#120000
07
#125000
0s
1r
16
17
#130000
07
#135000
06
17
#140000
07
#145000
0r
16
17
#150000
07
#155000
06
17
#160000
07
#165000
15
1s
1r
16
17
#170000
07
#175000
06
17
#180000
07
#185000
0r
16
17
#190000
07
#195000
06
17
#200000
07
#205000
0s
1r
16
17
#210000
07
#215000
06
17
#220000
07
#225000
0r
16
17
#230000
07
#235000
06
17
#240000
07
#245000
05
1s
1r
16
17
#250000
07
#255000
06
17
#260000
07
#265000
0r
16
17
#270000
07
#275000
06
17
#280000
07
#285000
0s
1r
16
17
#290000
07
#295000
06
17
#300000
07
#305000
0r
16
17
#310000
07
#315000
06
17
#320000
07
#325000
15
1s
1r
16
17
#330000
07
#335000
06
17
#340000
07
#345000
0r
16
17
#350000
07
#355000
06
17
#360000
07
#365000
0s
1r
16
17
#370000
07
#375000
06
17
#380000
07
#385000
0r
16
17
#390000
07
#395000
06
17
#400000
07
#405000
05
1s
1r
16
17
#410000
07
#415000
06
17
#420000
07
#425000
0r
16
17
#430000
07
#435000
06
17
#440000
07
#445000
0s
1r
16
17
#450000
07
#455000
06
17
#460000
07
#465000
0r
16
17
#470000
07
#475000
06
17
#480000
07
#485000
15
1s
1r
16
17
#490000
07
#495000
06
17
#500000
07
#505000
0r
16
17
#510000
07
#515000
06
17
#520000
07
#525000
0s
1r
16
17
#530000
07
#535000
06
17
#540000
07
#545000
0r
16
17
#550000
07
#555000
06
17
#560000
07
#565000
05
1s
1r
16
17
#570000
07
#575000
06
17
#580000
07
#585000
0r
16
17
#590000
07
#595000
06
17
#600000
07
#605000
0s
1r
16
17
#610000
07
#615000
06
17
#620000
07
#625000
0r
16
17
#630000
07
#635000
06
17
#640000
07
#645000
15
1s
1r
16
17
#650000
07
#655000
06
17
#660000
07
#665000
0r
16
17
#670000
07
#675000
06
17
#680000
07
#685000
0s
1r
16
17
#690000
07
#695000
06
17
#700000
07
#705000
0r
16
17
#710000
07
#715000
06
17
#720000
07
#725000
05
1s
1r
16
17
#730000
07
#735000
06
17
#740000
07
#745000
0r
16
17
#750000
07
#755000
06
17
#760000
07
#765000
0s
1r
16
17
#770000
07
#775000
06
17
#780000
07
#785000
0r
16
17
#790000
07
#795000
06
17
#800000
07
#805000
15
1s
1r
16
17
#810000
07
#815000
06
1l
b1 j
1k
17
10
#820000
07
#825000
0M
0k
0a
b100 f
b0 g
1U
1S
1n
0l
0L
b0 b
b10 e
b10 c
b10 j
0C
0T
b100 d
1F
b0z010 i
b0z01 `
1D
0r
b1 V
1m
11
12
b1 A
16
17
#830000
07
#835000
06
17
#840000
07
#845000
0s
1k
1a
1M
b10 g
b100 h
1U
b10000 b
b10 e
1R
1l
0K
b100 f
b11 j
0B
0S
1L
b0z011 i
b0z00 `
b1 c
1C
b111 d
02
b10 A
01
0m
b10 V
1o
1r
16
17
#850000
07
#855000
06
17
#860000
07
#865000
1M
1k
1a
b1 g
1U
1p
b10 h
b1 e
1Q
0n
0l
0J
b1000 b
b10 f
b0 c
b100 j
0E
0R
b110 d
1K
b0z100 i
b0z11 `
1B
0r
b11 V
1m
11
12
b11 A
16
17
#870000
07
#875000
06
17
#880000
07
#885000
05
1s
1M
1k
1a
b1 g
1U
b10 h
b1 e
1l
1p
0N
1E
1P
0O
b101 j
b100 b
b10 f
1G
0I
1H
0Q
1B
b0z00 `
0D
1C
b0z101 i
b111 c
1J
b1 d
b100 A
0m
0o
b100 V
1q
1r
16
17
#890000
07
#895000
06
17
#900000
07
#905000
1M
1k
1a
b1 g
1U
b1 h
b1 e
1O
1n
0l
0H
b10 b
b1 f
b110 c
b110 j
0C
0P
b0 d
1I
b0z110 i
b0z01 `
1D
0r
b101 V
1m
b101 A
16
17
#910000
07
#915000
06
17
#920000
07
#925000
0s
0M
0k
0a
b0 g
1U
b0 h
b1 e
1N
1l
0G
b0 b
b1 f
b111 j
0B
0O
1H
b0z111 i
b0z00 `
b101 c
1C
b11 d
b110 A
0m
b110 V
1o
1r
16
17
#930000
07
#935000
06
17
#940000
07
#945000
0U
0p
b0 e
0n
0l
b0 f
b100 c
b0 j
0E
0N
b10 d
1G
b0z000 i
b0z11 `
1B
0r
b111 V
1m
01
02
b111 A
16
17
#950000
07
#955000
06
17
#960000
07
#965000
15
1s
1k
1a
1M
b10 g
1U
b0 h
1l
b10 e
0p
0R
1E
1T
0S
b1 j
b1000000 b
b0 f
1K
0F
1L
0Q
1B
b0z00 `
0D
1C
b0z001 i
b11 c
1J
b101 d
b0 A
0m
0o
b0 V
0q
1r
16
17
#970000
07
#975000
06
17
#980000
07
#985000
0M
0k
0a
b100 f
b0 g
1U
1S
1n
0l
0L
b0 b
b10 e
b10 c
b10 j
0C
0T
b100 d
1F
b0z010 i
b0z01 `
1D
0r
b1 V
1m
11
12
b1 A
16
17
#990000
07
#995000
06
17
#1000000
07
#1005000
0s
1k
1a
1M
b10 g
b100 h
1U
b10000 b
b10 e
1R
1l
0K
b100 f
b11 j
0B
0S
1L
b0z011 i
b0z00 `
b1 c
1C
b111 d
02
b10 A
01
0m
b10 V
1o
1r
16
17
#1010000
07
#1015000
06
17
#1020000
07
#1025000
1M
1k
1a
b1 g
1U
1p
b10 h
b1 e
1Q
0n
0l
0J
b1000 b
b10 f
b0 c
b100 j
0E
0R
b110 d
1K
b0z100 i
b0z11 `
1B
0r
b11 V
1m
11
12
b11 A
16
17
#1030000
07
#1035000
06
17
#1040000
07
#1045000
05
1s
1M
1k
1a
b1 g
1U
b10 h
b1 e
1l
1p
0N
1E
1P
0O
b101 j
b100 b
b10 f
1G
0I
1H
0Q
1B
b0z00 `
0D
1C
b0z101 i
b111 c
1J
b1 d
b100 A
0m
0o
b100 V
1q
1r
16
17
#1050000
07
#1055000
06
17
#1060000
07
#1065000
1M
1k
1a
b1 g
1U
b1 h
b1 e
1O
1n
0l
0H
b10 b
b1 f
b110 c
b110 j
0C
0P
b0 d
1I
b0z110 i
b0z01 `
1D
0r
b101 V
1m
b101 A
16
17
#1070000
07
#1075000
06
17
#1080000
07
#1085000
0s
0M
0k
0a
b0 g
1U
b0 h
b1 e
1N
1l
0G
b0 b
b1 f
b111 j
0B
0O
1H
b0z111 i
b0z00 `
b101 c
1C
b11 d
b110 A
0m
b110 V
1o
1r
16
17
#1090000
07
#1095000
06
17
#1100000
07
#1105000
0U
0p
b0 e
0n
0l
b0 f
b100 c
b0 j
0E
0N
b10 d
1G
b0z000 i
b0z11 `
1B
0r
b111 V
1m
01
02
b111 A
16
17
#1110000
07
#1115000
06
17
#1120000
07
#1125000
15
1s
1k
1a
1M
b10 g
1U
b0 h
1l
b10 e
0p
0R
1E
1T
0S
b1 j
b1000000 b
b0 f
1K
0F
1L
0Q
1B
b0z00 `
0D
1C
b0z001 i
b11 c
1J
b101 d
b0 A
0m
0o
b0 V
0q
1r
16
17
#1130000
07
#1135000
06
17
#1140000
07
#1145000
0M
0k
0a
b100 f
b0 g
1U
1S
1n
0l
0L
b0 b
b10 e
b10 c
b10 j
0C
0T
b100 d
1F
b0z010 i
b0z01 `
1D
0r
b1 V
1m
11
12
b1 A
16
17
#1150000
07
#1155000
06
17
#1160000
07
#1165000
0s
1k
1a
1M
b10 g
b100 h
1U
b10000 b
b10 e
1R
1l
0K
b100 f
b11 j
0B
0S
1L
b0z011 i
b0z00 `
b1 c
1C
b111 d
02
b10 A
01
0m
b10 V
1o
1r
16
17
#1170000
07
#1175000
06
17
#1180000
07
#1185000
1M
1k
1a
b1 g
1U
1p
b10 h
b1 e
1Q
0n
0l
0J
b1000 b
b10 f
b0 c
b100 j
0E
0R
b110 d
1K
b0z100 i
b0z11 `
1B
0r
b11 V
1m
11
12
b11 A
16
17
#1190000
07
#1195000
06
17
#1200000
07
#1205000
05
1s
1M
1k
1a
b1 g
1U
b10 h
b1 e
1l
1p
0N
1E
1P
0O
b101 j
b100 b
b10 f
1G
0I
1H
0Q
1B
b0z00 `
0D
1C
b0z101 i
b111 c
1J
b1 d
b100 A
0m
0o
b100 V
1q
1r
16
17
#1210000
07
#1215000
06
17
#1220000
07
#1225000
1M
1k
1a
b1 g
1U
b1 h
b1 e
1O
1n
0l
0H
b10 b
b1 f
b110 c
b110 j
0C
0P
b0 d
1I
b0z110 i
b0z01 `
1D
0r
b101 V
1m
b101 A
16
17
#1230000
07
#1235000
06
17
#1240000
07
#1245000
0s
0M
0k
0a
b0 g
1U
b0 h
b1 e
1N
1l
0G
b0 b
b1 f
b111 j
0B
0O
1H
b0z111 i
b0z00 `
b101 c
1C
b11 d
b110 A
0m
b110 V
1o
1r
16
17
#1250000
07
#1255000
06
17
#1260000
07
#1265000
0U
0p
b0 e
0n
0l
b0 f
b100 c
b0 j
0E
0N
b10 d
1G
b0z000 i
b0z11 `
1B
0r
b111 V
1m
01
02
b111 A
16
17
#1270000
07
#1275000
06
17
#1280000
07
#1285000
15
1s
1k
1a
1M
b10 g
1U
b0 h
1l
b10 e
0p
0R
1E
1T
0S
b1 j
b1000000 b
b0 f
1K
0F
1L
0Q
1B
b0z00 `
0D
1C
b0z001 i
b11 c
1J
b101 d
b0 A
0m
0o
b0 V
0q
1r
16
17
#1290000
07
#1295000
06
17
#1300000
07
#1305000
0M
0k
0a
b100 f
b0 g
1U
1S
1n
0l
0L
b0 b
b10 e
b10 c
b10 j
0C
0T
b100 d
1F
b0z010 i
b0z01 `
1D
0r
b1 V
1m
11
12
b1 A
16
17
#1310000
07
#1315000
06
17
#1320000
07
#1325000
0s
1k
1a
1M
b10 g
b100 h
1U
b10000 b
b10 e
1R
1l
0K
b100 f
b11 j
0B
0S
1L
b0z011 i
b0z00 `
b1 c
1C
b111 d
02
b10 A
01
0m
b10 V
1o
1r
16
17
#1330000
07
#1335000
06
17
#1340000
07
#1345000
1M
1k
1a
b1 g
1U
1p
b10 h
b1 e
1Q
0n
0l
0J
b1000 b
b10 f
b0 c
b100 j
0E
0R
b110 d
1K
b0z100 i
b0z11 `
1B
0r
b11 V
1m
11
12
b11 A
16
17
#1350000
07
#1355000
06
17
#1360000
07
#1365000
05
1s
1M
1k
1a
b1 g
1U
b10 h
b1 e
1l
1p
0N
1E
1P
0O
b101 j
b100 b
b10 f
1G
0I
1H
0Q
1B
b0z00 `
0D
1C
b0z101 i
b111 c
1J
b1 d
b100 A
0m
0o
b100 V
1q
1r
16
17
#1370000
07
#1375000
06
17
#1380000
07
#1385000
1M
1k
1a
b1 g
1U
b1 h
b1 e
1O
1n
0l
0H
b10 b
b1 f
b110 c
b110 j
0C
0P
b0 d
1I
b0z110 i
b0z01 `
1D
0r
b101 V
1m
b101 A
16
17
#1390000
07
#1395000
06
17
#1400000
07
#1405000
0s
0M
0k
0a
b0 g
1U
b0 h
b1 e
1N
1l
0G
b0 b
b1 f
b111 j
0B
0O
1H
b0z111 i
b0z00 `
b101 c
1C
b11 d
b110 A
0m
b110 V
1o
1r
16
17
#1410000
07
#1415000
06
17
#1420000
07
#1425000
0U
0p
b0 e
0n
0l
b0 f
b100 c
b0 j
0E
0N
b10 d
1G
b0z000 i
b0z11 `
1B
0r
b111 V
1m
01
02
b111 A
16
17
#1430000
07
#1435000
06
17
#1440000
07
#1445000
15
1s
1k
1a
1M
b10 g
1U
b0 h
1l
b10 e
0p
0R
1E
1T
0S
b1 j
b1000000 b
b0 f
1K
0F
1L
0Q
1B
b0z00 `
0D
1C
b0z001 i
b11 c
1J
b101 d
b0 A
0m
0o
b0 V
0q
1r
16
17
#1450000
07
#1455000
06
17
#1460000
07
#1465000
0M
0k
0a
b100 f
b0 g
1U
1S
1n
0l
0L
b0 b
b10 e
b10 c
b10 j
0C
0T
b100 d
1F
b0z010 i
b0z01 `
1D
0r
b1 V
1m
11
12
b1 A
16
17
#1470000
07
#1475000
06
17
#1480000
07
#1485000
0s
1k
1a
1M
b10 g
b100 h
1U
b10000 b
b10 e
1R
1l
0K
b100 f
b11 j
0B
0S
1L
b0z011 i
b0z00 `
b1 c
1C
b111 d
02
b10 A
01
0m
b10 V
1o
1r
16
17
#1490000
07
#1495000
06
17
#1500000
07
#1505000
1M
1k
1a
b1 g
1U
1p
b10 h
b1 e
1Q
0n
0l
0J
b1000 b
b10 f
b0 c
b100 j
0E
0R
b110 d
1K
b0z100 i
b0z11 `
1B
0r
b11 V
1m
11
12
b11 A
16
17
#1510000
07
#1515000
06
17
#1520000
07
#1525000
05
1s
1M
1k
1a
b1 g
1U
b10 h
b1 e
1l
1p
0N
1E
1P
0O
b101 j
b100 b
b10 f
1G
0I
1H
0Q
1B
b0z00 `
0D
1C
b0z101 i
b111 c
1J
b1 d
b100 A
0m
0o
b100 V
1q
1r
16
17
#1530000
07
#1535000
06
17
#1540000
07
#1545000
1M
1k
1a
b1 g
1U
b1 h
b1 e
1O
1n
0l
0H
b10 b
b1 f
b110 c
b110 j
0C
0P
b0 d
1I
b0z110 i
b0z01 `
1D
0r
b101 V
1m
b101 A
16
17
#1550000
07
#1555000
06
17
#1560000
07
#1565000
0s
0M
0k
0a
b0 g
1U
b0 h
b1 e
1N
1l
0G
b0 b
b1 f
b111 j
0B
0O
1H
b0z111 i
b0z00 `
b101 c
1C
b11 d
b110 A
0m
b110 V
1o
1r
16
17
#1570000
07
#1575000
06
17
#1580000
07
#1585000
0U
0p
b0 e
0n
0l
b0 f
b100 c
b0 j
0E
0N
b10 d
1G
b0z000 i
b0z11 `
1B
0r
b111 V
1m
01
02
b111 A
16
17
#1590000
07
#1595000
06
17
#1600000
07
#1605000
0<
0>
1?
0[
1X
0Y
13
b10101010 4
b10101010 8
b10101010 _
b10101010 t
15
1s
1k
1a
1M
b10 g
1U
b0 h
1l
b10 e
0p
0R
1E
1T
0S
b1 j
b1000000 b
b0 f
1K
0F
1L
0Q
1B
b0z00 `
0D
1C
b0z001 i
b11 c
1J
b101 d
b0 A
0m
0o
b0 V
0q
1r
16
17
#1610000
07
#1615000
06
17
#1620000
07
#1625000
0M
0k
0a
b100 f
b0 g
1U
1S
1n
0l
0L
b0 b
b10 e
b10 c
b10 j
0C
0T
b100 d
1F
b0z010 i
b0z01 `
1D
0r
b1 V
1m
11
12
b1 A
16
17
#1630000
07
#1635000
06
17
#1640000
07
#1645000
0s
1k
1a
1M
b10 g
b100 h
1U
b10000 b
b10 e
1R
1l
0K
b100 f
b11 j
0B
0S
1L
b0z011 i
b0z00 `
b1 c
1C
b111 d
02
b10 A
01
0m
b10 V
1o
1r
16
17
#1650000
07
#1655000
06
17
#1660000
07
#1665000
0M
0k
0a
b0 g
1U
1p
b0 h
b1 e
1Q
0n
0l
0J
b0 b
b10 f
b0 c
b100 j
0E
0R
b110 d
1K
b0z100 i
b0z11 `
1B
0r
b11 V
1m
11
12
b11 A
16
17
#1670000
07
#1675000
06
17
#1680000
07
#1685000
05
1s
1k
1a
1M
b1 g
1U
b10 h
b1 e
1l
b100 b
1p
0N
1E
1P
0O
b101 j
b10 f
1G
0I
1H
0Q
1B
b0z00 `
0D
1C
b0z101 i
b111 c
1J
b1 d
02
b100 A
01
0m
0o
b100 V
1q
1r
16
17
#1690000
07
#1695000
06
17
#1700000
07
#1705000
0M
0k
0a
b0 g
1U
b0 h
b1 e
1O
1n
0l
0H
b0 b
b1 f
b110 c
b110 j
0C
0P
b0 d
1I
b0z110 i
b0z01 `
1D
0r
b101 V
1m
11
12
b101 A
16
17
#1710000
07
#1715000
06
17
#1720000
07
#1725000
0s
1k
1a
1M
b1 g
b1 h
1U
b1 b
b1 e
1N
1l
0G
b1 f
b111 j
0B
0O
1H
b0z111 i
b0z00 `
b101 c
1C
b11 d
02
b110 A
01
0m
b110 V
1o
1r
16
17
#1730000
07
#1735000
06
17
#1740000
07
#1745000
0M
0k
0a
b0 g
0U
0p
b0 h
b0 e
0n
0l
b0 b
b0 f
b100 c
b0 j
0E
0N
b10 d
1G
b0z000 i
b0z11 `
1B
0r
b111 V
1m
11
12
b111 A
16
17
#1750000
07
#1755000
06
17
#1760000
07
#1765000
1:
1>
1Y
1]
b11101110 4
b11101110 8
b11101110 _
b11101110 t
15
1s
1k
1a
1M
b0 h
b10 g
1U
1l
b1000000 b
b10 e
0p
0R
1E
1T
0S
b1 j
b0 f
1K
0F
1L
0Q
1B
b0z00 `
0D
1C
b0z001 i
b11 c
1J
b101 d
02
b0 A
01
0m
0o
b0 V
0q
1r
16
17
#1770000
07
#1775000
06
17
#1780000
07
#1785000
b100 h
1M
1k
1a
b100 f
b10 g
1U
1S
1n
0l
0L
b100000 b
b10 e
b10 c
b10 j
0C
0T
b100 d
1F
b0z010 i
b0z01 `
1D
0r
b1 V
1m
11
12
b1 A
16
17
#1790000
07
#1795000
06
17
#1800000
07
#1805000
0s
1M
1k
1a
b10 g
1U
b100 h
b10 e
1R
1l
0K
b10000 b
b100 f
b11 j
0B
0S
1L
b0z011 i
b0z00 `
b1 c
1C
b111 d
b10 A
0m
b10 V
1o
1r
16
17
#1810000
07
#1815000
06
17
#1820000
07
#1825000
0M
0k
0a
b0 g
1U
1p
b0 h
b1 e
1Q
0n
0l
0J
b0 b
b10 f
b0 c
b100 j
0E
0R
b110 d
1K
b0z100 i
b0z11 `
1B
0r
b11 V
1m
b11 A
16
17
#1830000
07
#1835000
06
17
#1840000
07
#1845000
05
1s
1k
1a
1M
b1 g
1U
b10 h
b1 e
1l
b100 b
1p
0N
1E
1P
0O
b101 j
b10 f
1G
0I
1H
0Q
1B
b0z00 `
0D
1C
b0z101 i
b111 c
1J
b1 d
02
b100 A
01
0m
0o
b100 V
1q
1r
16
17
#1850000
07
#1855000
06
17
#1860000
07
#1865000
1M
1k
1a
b1 g
1U
b1 h
b1 e
1O
1n
0l
0H
b10 b
b1 f
b110 c
b110 j
0C
0P
b0 d
1I
b0z110 i
b0z01 `
1D
0r
b101 V
1m
11
12
b101 A
16
17
#1870000
07
#1875000
06
17
#1880000
07
#1885000
0s
1M
1k
1a
b1 g
1U
b1 h
b1 e
1N
1l
0G
b1 b
b1 f
b111 j
0B
0O
1H
b0z111 i
b0z00 `
b101 c
1C
b11 d
b110 A
0m
b110 V
1o
1r
16
17
#1890000
07
#1895000
06
17
#1900000
07
#1905000
0M
0k
0a
b0 g
0U
0p
b0 h
b0 e
0n
0l
b0 b
b0 f
b100 c
b0 j
0E
0N
b10 d
1G
b0z000 i
b0z11 `
1B
0r
b111 V
1m
b111 A
16
17
#1910000
07
#1915000
06
17
#1920000
07
#1925000
15
1s
1k
1a
1M
b10 g
1U
b0 h
1l
b10 e
b1000000 b
0p
0R
1E
1T
0S
b1 j
b0 f
1K
0F
1L
0Q
1B
b0z00 `
0D
1C
b0z001 i
b11 c
1J
b101 d
02
b0 A
01
0m
0o
b0 V
0q
1r
16
17
#1930000
07
#1935000
06
17
#1940000
07
#1945000
b100 h
1M
1k
1a
b100 f
b10 g
1U
1S
1n
0l
0L
b100000 b
b10 e
b10 c
b10 j
0C
0T
b100 d
1F
b0z010 i
b0z01 `
1D
0r
b1 V
1m
11
12
b1 A
16
17
#1950000
07
#1955000
06
17
#1960000
07
#1965000
0s
1M
1k
1a
b10 g
1U
b100 h
b10 e
1R
1l
0K
b10000 b
b100 f
b11 j
0B
0S
1L
b0z011 i
b0z00 `
b1 c
1C
b111 d
b10 A
0m
b10 V
1o
1r
16
17
#1970000
07
#1975000
06
17
#1980000
07
#1985000
0M
0k
0a
b0 g
1U
1p
b0 h
b1 e
1Q
0n
0l
0J
b0 b
b10 f
b0 c
b100 j
0E
0R
b110 d
1K
b0z100 i
b0z11 `
1B
0r
b11 V
1m
b11 A
16
17
#1990000
07
#1995000
06
17
#2000000
07
#2005000
05
1s
1k
1a
1M
b1 g
1U
b10 h
b1 e
1l
b100 b
1p
0N
1E
1P
0O
b101 j
b10 f
1G
0I
1H
0Q
1B
b0z00 `
0D
1C
b0z101 i
b111 c
1J
b1 d
02
b100 A
01
0m
0o
b100 V
1q
1r
16
17
#2010000
07
#2015000
06
17
#2020000
07
#2025000
1M
1k
1a
b1 g
1U
b1 h
b1 e
1O
1n
0l
0H
b10 b
b1 f
b110 c
b110 j
0C
0P
b0 d
1I
b0z110 i
b0z01 `
1D
0r
b101 V
1m
11
12
b101 A
16
17
#2030000
07
#2035000
06
17
#2040000
07
#2045000
0s
1M
1k
1a
b1 g
1U
b1 h
b1 e
1N
1l
0G
b1 b
b1 f
b111 j
0B
0O
1H
b0z111 i
b0z00 `
b101 c
1C
b11 d
b110 A
0m
b110 V
1o
1r
16
17
#2050000
07
#2055000
06
17
#2060000
07
#2065000
0M
0k
0a
b0 g
0U
0p
b0 h
b0 e
0n
0l
b0 b
b0 f
b100 c
b0 j
0E
0N
b10 d
1G
b0z000 i
b0z11 `
1B
0r
b111 V
1m
b111 A
16
17
#2070000
07
#2075000
06
17
#2080000
07
#2085000
0:
1<
0?
1[
0X
0]
03
b11001100 4
b11001100 8
b11001100 _
b11001100 t
15
1s
1k
1a
1M
b10 g
1U
b0 h
1l
b10 e
b1000000 b
0p
0R
1E
1T
0S
b1 j
b0 f
1K
0F
1L
0Q
1B
b0z00 `
0D
1C
b0z001 i
b11 c
1J
b101 d
02
b0 A
01
0m
0o
b0 V
0q
1r
16
17
#2090000
07
#2095000
06
17
#2100000
07
#2105000
0M
0k
0a
b100 f
b0 g
1U
1S
1n
0l
0L
b0 b
b10 e
b10 c
b10 j
0C
0T
b100 d
1F
b0z010 i
b0z01 `
1D
0r
b1 V
1m
11
12
b1 A
16
17
#2110000
07
#2115000
06
17
#2120000
07
#2125000
0s
1k
1a
1M
b10 g
b100 h
1U
b10000 b
b10 e
1R
1l
0K
b100 f
b11 j
0B
0S
1L
b0z011 i
b0z00 `
b1 c
1C
b111 d
02
b10 A
01
0m
b10 V
1o
1r
16
17
#2130000
07
#2135000
06
17
#2140000
07
#2145000
1M
1k
1a
b1 g
1U
1p
b10 h
b1 e
1Q
0n
0l
0J
b1000 b
b10 f
b0 c
b100 j
0E
0R
b110 d
1K
b0z100 i
b0z11 `
1B
0r
b11 V
1m
11
12
b11 A
16
17
#2150000
07
#2155000
06
17
#2160000
07
#2165000
05
1s
1M
1k
1a
b1 g
1U
b10 h
b1 e
1l
1p
0N
1E
1P
0O
b101 j
b100 b
b10 f
1G
0I
1H
0Q
1B
b0z00 `
0D
1C
b0z101 i
b111 c
1J
b1 d
b100 A
0m
0o
b100 V
1q
1r
16
17
#2170000
07
#2175000
06
17
#2180000
07
#2185000
1M
1k
1a
b1 g
1U
b1 h
b1 e
1O
1n
0l
0H
b10 b
b1 f
b110 c
b110 j
0C
0P
b0 d
1I
b0z110 i
b0z01 `
1D
0r
b101 V
1m
b101 A
16
17
#2190000
07
#2195000
06
17
#2200000
07
#2205000
0s
0M
0k
0a
b0 g
1U
b0 h
b1 e
1N
1l
0G
b0 b
b1 f
b111 j
0B
0O
1H
b0z111 i
b0z00 `
b101 c
1C
b11 d
b110 A
0m
b110 V
1o
1r
16
17
#2210000
07
#2215000
06
17
#2220000
07
#2225000
0U
0p
b0 e
0n
0l
b0 f
b100 c
b0 j
0E
0N
b10 d
1G
b0z000 i
b0z11 `
1B
0r
b111 V
1m
01
02
b111 A
16
17
#2230000
07
#2235000
06
17
#2240000
07
#2245000
0>
1?
1@
1X
0Y
1W
13
b10111011 4
b10111011 8
b10111011 _
b10111011 t
15
1s
1k
1a
1M
b10 g
1U
b0 h
1l
b10 e
0p
0R
1E
1T
0S
b1 j
b1000000 b
b0 f
1K
0F
1L
0Q
1B
b0z00 `
0D
1C
b0z001 i
b11 c
1J
b101 d
b0 A
0m
0o
b0 V
0q
1r
16
17
