MUX4a1/muxy.vcd
$date
	Wed Jun  3 03:46:08 2020
$end
$version
	Icarus Verilog
$end
$timescale
	1ps
$end
$scope module BUF $end
$var wire 1 ! A $end
$var wire 1 " Y $end
$upscope $end
$scope module DFFSR $end
$var wire 1 # C $end
$var wire 1 $ D $end
$var wire 1 % R $end
$var wire 1 & S $end
$var reg 1 ' Q $end
$upscope $end
$scope module NAND $end
$var wire 1 ( A $end
$var wire 1 ) B $end
$var wire 1 * Y $end
$upscope $end
$scope module NOR $end
$var wire 1 + A $end
$var wire 1 , B $end
$var wire 1 - Y $end
$upscope $end
$scope module NOT $end
$var wire 1 . A $end
$var wire 1 / Y $end
$upscope $end
$scope module bancoPruebas $end
$var wire 4 0 valid [3:0] $end
$var wire 1 1 reset $end
$var wire 8 2 outs [7:0] $end
$var wire 8 3 outc [7:0] $end
$var wire 8 4 in3 [7:0] $end
$var wire 8 5 in2 [7:0] $end
$var wire 8 6 in1 [7:0] $end
$var wire 8 7 in0 [7:0] $end
$var wire 1 8 clk4f $end
$var wire 1 9 clk2f $end
$var wire 1 : clk1f $end
$scope module Tb $end
$var wire 1 ; validout $end
$var wire 8 < outs [7:0] $end
$var wire 8 = outc [7:0] $end
$var reg 1 > clk $end
$var reg 1 ? clk16f $end
$var reg 1 : clk1f $end
$var reg 1 9 clk2f $end
$var reg 1 @ clk32f $end
$var reg 1 8 clk4f $end
$var reg 1 A clk8f $end
$var reg 4 B countc [3:0] $end
$var reg 4 C counts [3:0] $end
$var reg 8 D in0 [7:0] $end
$var reg 8 E in1 [7:0] $end
$var reg 8 F in2 [7:0] $end
$var reg 8 G in3 [7:0] $end
$var reg 1 1 reset $end
$var reg 1 H tester $end
$var reg 4 I valid [3:0] $end
$upscope $end
$scope module mux_behav $end
$var wire 1 : clk1f $end
$var wire 1 9 clk2f $end
$var wire 1 8 clk4f $end
$var wire 8 J in0 [7:0] $end
$var wire 8 K in1 [7:0] $end
$var wire 8 L in2 [7:0] $end
$var wire 8 M in3 [7:0] $end
$var wire 1 1 reset $end
$var wire 4 N valid [3:0] $end
$var wire 2 O valid_out [1:0] $end
$var wire 2 P valid_21 [1:0] $end
$var wire 1 Q v_out $end
$var wire 8 R n4 [7:0] $end
$var wire 8 S n3 [7:0] $end
$var wire 8 T n2 [7:0] $end
$var wire 8 U n1 [7:0] $end
$var wire 8 V n0 [7:0] $end
$var reg 8 W out [7:0] $end
$var reg 1 X validout $end
$scope module ff42 $end
$var wire 1 8 clkf $end
$var wire 1 1 reset $end
$var wire 8 Y in1 [7:0] $end
$var wire 8 Z in0 [7:0] $end
$var reg 8 [ out0 [7:0] $end
$var reg 8 \ out1 [7:0] $end
$upscope $end
$scope module ffvalid21 $end
$var wire 1 9 clkf $end
$var wire 1 ] in0 $end
$var wire 1 ^ in1 $end
$var wire 1 _ in2 $end
$var wire 1 ` in3 $end
$var wire 1 1 reset $end
$var reg 1 a out0 $end
$var reg 1 b out1 $end
$var reg 1 c out2 $end
$var reg 1 d out3 $end
$upscope $end
$scope module mux_A $end
$var wire 1 9 clk $end
$var wire 8 e in0 [7:0] $end
$var wire 8 f in1 [7:0] $end
$var wire 8 g in2 [7:0] $end
$var wire 8 h in3 [7:0] $end
$var wire 1 1 reset $end
$var wire 4 i valid [3:0] $end
$var wire 8 j wout1 [7:0] $end
$var wire 8 k wout0 [7:0] $end
$var wire 1 l validoutB $end
$var wire 1 m validoutA $end
$var reg 8 n out0 [7:0] $end
$var reg 8 o out1 [7:0] $end
$var reg 2 p validout [1:0] $end
$scope module mux_A $end
$var wire 1 9 clk $end
$var wire 8 q in0 [7:0] $end
$var wire 8 r in1 [7:0] $end
$var wire 1 1 reset $end
$var wire 2 s valid [1:0] $end
$var reg 8 t out [7:0] $end
$var reg 1 u selector $end
$var reg 1 m validout $end
$upscope $end
$scope module mux_B $end
$var wire 1 9 clk $end
$var wire 8 v in0 [7:0] $end
$var wire 8 w in1 [7:0] $end
$var wire 1 1 reset $end
$var wire 2 x valid [1:0] $end
$var reg 8 y out [7:0] $end
$var reg 1 z selector $end
$var reg 1 l validout $end
$upscope $end
$upscope $end
$scope module mux_B $end
$var wire 1 8 clk $end
$var wire 8 { in0 [7:0] $end
$var wire 8 | in1 [7:0] $end
$var wire 1 1 reset $end
$var wire 2 } valid [1:0] $end
$var reg 8 ~ out [7:0] $end
$var reg 1 !" selector $end
$var reg 1 Q validout $end
$upscope $end
$upscope $end
$scope module mux_struct $end
$var wire 1 : clk1f $end
$var wire 1 9 clk2f $end
$var wire 1 8 clk4f $end
$var wire 8 "" in0 [7:0] $end
$var wire 8 #" in1 [7:0] $end
$var wire 8 $" in2 [7:0] $end
$var wire 8 %" in3 [7:0] $end
$var wire 1 1 reset $end
$var wire 4 &" valid [3:0] $end
$var wire 1 '" validout $end
$var wire 2 (" valid_out [1:0] $end
$var wire 2 )" valid_21 [1:0] $end
$var wire 1 *" v_out $end
$var wire 8 +" out [7:0] $end
$var wire 8 ," n4 [7:0] $end
$var wire 8 -" n3 [7:0] $end
$var wire 8 ." n2 [7:0] $end
$var wire 8 /" n1 [7:0] $end
$var wire 8 0" n0 [7:0] $end
$var wire 1 1" _01_ $end
$var wire 8 2" _00_ [7:0] $end
$scope module _11_ $end
$var wire 1 8 C $end
$var wire 1 1" D $end
$var reg 1 '" Q $end
$upscope $end
$scope module _12_ $end
$var wire 1 8 C $end
$var wire 1 3" D $end
$var reg 1 4" Q $end
$upscope $end
$scope module _13_ $end
$var wire 1 8 C $end
$var wire 1 5" D $end
$var reg 1 6" Q $end
$upscope $end
$scope module _14_ $end
$var wire 1 8 C $end
$var wire 1 7" D $end
$var reg 1 8" Q $end
$upscope $end
$scope module _15_ $end
$var wire 1 8 C $end
$var wire 1 9" D $end
$var reg 1 :" Q $end
$upscope $end
$scope module _16_ $end
$var wire 1 8 C $end
$var wire 1 ;" D $end
$var reg 1 <" Q $end
$upscope $end
$scope module _17_ $end
$var wire 1 8 C $end
$var wire 1 =" D $end
$var reg 1 >" Q $end
$upscope $end
$scope module _18_ $end
$var wire 1 8 C $end
$var wire 1 ?" D $end
$var reg 1 @" Q $end
$upscope $end
$scope module _19_ $end
$var wire 1 8 C $end
$var wire 1 A" D $end
$var reg 1 B" Q $end
$upscope $end
$scope module ff42 $end
$var wire 1 8 clkf $end
$var wire 1 1 reset $end
$var wire 8 C" out1 [7:0] $end
$var wire 8 D" out0 [7:0] $end
$var wire 8 E" in1 [7:0] $end
$var wire 8 F" in0 [7:0] $end
$var wire 8 G" _01_ [7:0] $end
$var wire 8 H" _00_ [7:0] $end
$scope module _18_ $end
$var wire 1 8 C $end
$var wire 1 I" D $end
$var reg 1 J" Q $end
$upscope $end
$scope module _19_ $end
$var wire 1 8 C $end
$var wire 1 K" D $end
$var reg 1 L" Q $end
$upscope $end
$scope module _20_ $end
$var wire 1 8 C $end
$var wire 1 M" D $end
$var reg 1 N" Q $end
$upscope $end
$scope module _21_ $end
$var wire 1 8 C $end
$var wire 1 O" D $end
$var reg 1 P" Q $end
$upscope $end
$scope module _22_ $end
$var wire 1 8 C $end
$var wire 1 Q" D $end
$var reg 1 R" Q $end
$upscope $end
$scope module _23_ $end
$var wire 1 8 C $end
$var wire 1 S" D $end
$var reg 1 T" Q $end
$upscope $end
$scope module _24_ $end
$var wire 1 8 C $end
$var wire 1 U" D $end
$var reg 1 V" Q $end
$upscope $end
$scope module _25_ $end
$var wire 1 8 C $end
$var wire 1 W" D $end
$var reg 1 X" Q $end
$upscope $end
$scope module _26_ $end
$var wire 1 8 C $end
$var wire 1 Y" D $end
$var reg 1 Z" Q $end
$upscope $end
$scope module _27_ $end
$var wire 1 8 C $end
$var wire 1 [" D $end
$var reg 1 \" Q $end
$upscope $end
$scope module _28_ $end
$var wire 1 8 C $end
$var wire 1 ]" D $end
$var reg 1 ^" Q $end
$upscope $end
$scope module _29_ $end
$var wire 1 8 C $end
$var wire 1 _" D $end
$var reg 1 `" Q $end
$upscope $end
$scope module _30_ $end
$var wire 1 8 C $end
$var wire 1 a" D $end
$var reg 1 b" Q $end
$upscope $end
$scope module _31_ $end
$var wire 1 8 C $end
$var wire 1 c" D $end
$var reg 1 d" Q $end
$upscope $end
$scope module _32_ $end
$var wire 1 8 C $end
$var wire 1 e" D $end
$var reg 1 f" Q $end
$upscope $end
$scope module _33_ $end
$var wire 1 8 C $end
$var wire 1 g" D $end
$var reg 1 h" Q $end
$upscope $end
$upscope $end
$scope module ffvalid21 $end
$var wire 1 9 clkf $end
$var wire 1 i" in0 $end
$var wire 1 j" in1 $end
$var wire 1 k" in2 $end
$var wire 1 l" in3 $end
$var wire 1 1 reset $end
$var wire 1 m" out3 $end
$var wire 1 n" out2 $end
$var wire 1 o" out1 $end
$var wire 1 p" out0 $end
$var wire 1 q" _03_ $end
$var wire 1 r" _02_ $end
$var wire 1 s" _01_ $end
$var wire 1 t" _00_ $end
$scope module _08_ $end
$var wire 1 9 C $end
$var wire 1 t" D $end
$var reg 1 p" Q $end
$upscope $end
$scope module _09_ $end
$var wire 1 9 C $end
$var wire 1 s" D $end
$var reg 1 o" Q $end
$upscope $end
$scope module _10_ $end
$var wire 1 9 C $end
$var wire 1 r" D $end
$var reg 1 n" Q $end
$upscope $end
$scope module _11_ $end
$var wire 1 9 C $end
$var wire 1 q" D $end
$var reg 1 m" Q $end
$upscope $end
$upscope $end
$scope module mux_A $end
$var wire 1 9 clk $end
$var wire 8 u" in0 [7:0] $end
$var wire 8 v" in1 [7:0] $end
$var wire 8 w" in2 [7:0] $end
$var wire 8 x" in3 [7:0] $end
$var wire 8 y" out0 [7:0] $end
$var wire 8 z" out1 [7:0] $end
$var wire 1 1 reset $end
$var wire 4 {" valid [3:0] $end
$var wire 8 |" wout1 [7:0] $end
$var wire 8 }" wout0 [7:0] $end
$var wire 1 ~" validoutB $end
$var wire 1 !# validoutA $end
$var wire 2 "# validout [1:0] $end
$scope module mux_A $end
$var wire 1 ## _07_ $end
$var wire 1 9 clk $end
$var wire 8 $# in0 [7:0] $end
$var wire 8 %# in1 [7:0] $end
$var wire 1 1 reset $end
$var wire 2 &# valid [1:0] $end
$var wire 1 !# validout $end
$var wire 1 '# selector $end
$var wire 8 (# out [7:0] $end
$var wire 8 )# _06_ [7:0] $end
$var wire 8 *# _05_ [7:0] $end
$var wire 1 +# _04_ $end
$var wire 8 ,# _03_ [7:0] $end
$var wire 1 -# _02_ $end
$var wire 1 .# _01_ $end
$var wire 8 /# _00_ [7:0] $end
$scope module _44_ $end
$var wire 1 9 C $end
$var wire 1 -# D $end
$var reg 1 !# Q $end
$upscope $end
$scope module _45_ $end
$var wire 1 9 C $end
$var wire 1 0# D $end
$var reg 1 1# Q $end
$upscope $end
$scope module _46_ $end
$var wire 1 9 C $end
$var wire 1 2# D $end
$var reg 1 3# Q $end
$upscope $end
$scope module _47_ $end
$var wire 1 9 C $end
$var wire 1 4# D $end
$var reg 1 5# Q $end
$upscope $end
$scope module _48_ $end
$var wire 1 9 C $end
$var wire 1 6# D $end
$var reg 1 7# Q $end
$upscope $end
$scope module _49_ $end
$var wire 1 9 C $end
$var wire 1 8# D $end
$var reg 1 9# Q $end
$upscope $end
$scope module _50_ $end
$var wire 1 9 C $end
$var wire 1 :# D $end
$var reg 1 ;# Q $end
$upscope $end
$scope module _51_ $end
$var wire 1 9 C $end
$var wire 1 <# D $end
$var reg 1 =# Q $end
$upscope $end
$scope module _52_ $end
$var wire 1 9 C $end
$var wire 1 ># D $end
$var reg 1 ?# Q $end
$upscope $end
$scope module _53_ $end
$var wire 1 9 C $end
$var wire 1 .# D $end
$var reg 1 '# Q $end
$upscope $end
$upscope $end
$scope module mux_B $end
$var wire 1 @# _07_ $end
$var wire 1 9 clk $end
$var wire 8 A# in0 [7:0] $end
$var wire 8 B# in1 [7:0] $end
$var wire 1 1 reset $end
$var wire 2 C# valid [1:0] $end
$var wire 1 ~" validout $end
$var wire 1 D# selector $end
$var wire 8 E# out [7:0] $end
$var wire 8 F# _06_ [7:0] $end
$var wire 8 G# _05_ [7:0] $end
$var wire 1 H# _04_ $end
$var wire 8 I# _03_ [7:0] $end
$var wire 1 J# _02_ $end
$var wire 1 K# _01_ $end
$var wire 8 L# _00_ [7:0] $end
$scope module _44_ $end
$var wire 1 9 C $end
$var wire 1 J# D $end
$var reg 1 ~" Q $end
$upscope $end
$scope module _45_ $end
$var wire 1 9 C $end
$var wire 1 M# D $end
$var reg 1 N# Q $end
$upscope $end
$scope module _46_ $end
$var wire 1 9 C $end
$var wire 1 O# D $end
$var reg 1 P# Q $end
$upscope $end
$scope module _47_ $end
$var wire 1 9 C $end
$var wire 1 Q# D $end
$var reg 1 R# Q $end
$upscope $end
$scope module _48_ $end
$var wire 1 9 C $end
$var wire 1 S# D $end
$var reg 1 T# Q $end
$upscope $end
$scope module _49_ $end
$var wire 1 9 C $end
$var wire 1 U# D $end
$var reg 1 V# Q $end
$upscope $end
$scope module _50_ $end
$var wire 1 9 C $end
$var wire 1 W# D $end
$var reg 1 X# Q $end
$upscope $end
$scope module _51_ $end
$var wire 1 9 C $end
$var wire 1 Y# D $end
$var reg 1 Z# Q $end
$upscope $end
$scope module _52_ $end
$var wire 1 9 C $end
$var wire 1 [# D $end
$var reg 1 \# Q $end
$upscope $end
$scope module _53_ $end
$var wire 1 9 C $end
$var wire 1 K# D $end
$var reg 1 D# Q $end
$upscope $end
$upscope $end
$upscope $end
$scope module mux_B $end
$var wire 1 ]# _07_ $end
$var wire 1 8 clk $end
$var wire 8 ^# in0 [7:0] $end
$var wire 8 _# in1 [7:0] $end
$var wire 1 1 reset $end
$var wire 2 `# valid [1:0] $end
$var wire 1 *" validout $end
$var wire 1 a# selector $end
$var wire 8 b# out [7:0] $end
$var wire 8 c# _06_ [7:0] $end
$var wire 8 d# _05_ [7:0] $end
$var wire 1 e# _04_ $end
$var wire 8 f# _03_ [7:0] $end
$var wire 1 g# _02_ $end
$var wire 1 h# _01_ $end
$var wire 8 i# _00_ [7:0] $end
$scope module _44_ $end
$var wire 1 8 C $end
$var wire 1 g# D $end
$var reg 1 *" Q $end
$upscope $end
$scope module _45_ $end
$var wire 1 8 C $end
$var wire 1 j# D $end
$var reg 1 k# Q $end
$upscope $end
$scope module _46_ $end
$var wire 1 8 C $end
$var wire 1 l# D $end
$var reg 1 m# Q $end
$upscope $end
$scope module _47_ $end
$var wire 1 8 C $end
$var wire 1 n# D $end
$var reg 1 o# Q $end
$upscope $end
$scope module _48_ $end
$var wire 1 8 C $end
$var wire 1 p# D $end
$var reg 1 q# Q $end
$upscope $end
$scope module _49_ $end
$var wire 1 8 C $end
$var wire 1 r# D $end
$var reg 1 s# Q $end
$upscope $end
$scope module _50_ $end
$var wire 1 8 C $end
$var wire 1 t# D $end
$var reg 1 u# Q $end
$upscope $end
$scope module _51_ $end
$var wire 1 8 C $end
$var wire 1 v# D $end
$var reg 1 w# Q $end
$upscope $end
$scope module _52_ $end
$var wire 1 8 C $end
$var wire 1 x# D $end
$var reg 1 y# Q $end
$upscope $end
$scope module _53_ $end
$var wire 1 8 C $end
$var wire 1 h# D $end
$var reg 1 a# Q $end
$upscope $end
$upscope $end
$upscope $end
$upscope $end
$scope module ff1in1o $end
$var wire 1 z# clkf $end
$var wire 8 {# in [7:0] $end
$var wire 1 |# reset $end
$var reg 8 }# out [7:0] $end
$upscope $end
$scope module ff4in4o $end
$var wire 1 ~# clkf $end
$var wire 8 !$ in0 [7:0] $end
$var wire 8 "$ in1 [7:0] $end
$var wire 8 #$ in2 [7:0] $end
$var wire 8 $$ in3 [7:0] $end
$var wire 1 %$ reset $end
$var reg 8 &$ out0 [7:0] $end
$var reg 8 '$ out1 [7:0] $end
$var reg 8 ($ out2 [7:0] $end
$var reg 8 )$ out3 [7:0] $end
$upscope $end
$enddefinitions $end
#0
$dumpvars
bx )$
bx ($
bx '$
bx &$
z%$
bz $$
bz #$
bz "$
bz !$
z~#
bx }#
z|#
bz {#
zz#
xy#
xx#
xw#
xv#
xu#
xt#
xs#
xr#
xq#
xp#
xo#
xn#
xm#
xl#
xk#
xj#
bx i#
xh#
xg#
bx f#
xe#
bx d#
bx c#
bx b#
xa#
bx `#
bx _#
bx ^#
x]#
x\#
0[#
xZ#
0Y#
xX#
0W#
xV#
0U#
xT#
0S#
xR#
0Q#
xP#
0O#
xN#
0M#
b0 L#
xK#
xJ#
b0 I#
1H#
b0 G#
b0 F#
bx E#
xD#
b11 C#
b0 B#
b0 A#
x@#
x?#
0>#
x=#
0<#
x;#
0:#
x9#
08#
x7#
06#
x5#
04#
x3#
02#
x1#
00#
b0 /#
x.#
x-#
b0 ,#
1+#
b0 *#
b0 )#
bx (#
x'#
b11 &#
b0 %#
b0 $#
x##
bx "#
x!#
x~"
bx }"
bx |"
b1111 {"
bx z"
bx y"
b0 x"
b0 w"
b0 v"
b0 u"
xt"
xs"
xr"
xq"
xp"
xo"
xn"
xm"
zl"
zk"
xj"
xi"
xh"
xg"
xf"
xe"
xd"
xc"
xb"
xa"
x`"
x_"
x^"
x]"
x\"
x["
xZ"
xY"
xX"
xW"
xV"
xU"
xT"
xS"
xR"
xQ"
xP"
xO"
xN"
xM"
xL"
xK"
xJ"
xI"
bx H"
bx G"
bx F"
bx E"
bx D"
bx C"
xB"
xA"
x@"
x?"
x>"
x="
x<"
x;"
x:"
x9"
x8"
x7"
x6"
x5"
x4"
x3"
bx 2"
x1"
bx 0"
bx /"
bx ."
bx -"
bx ,"
bx +"
x*"
bx )"
bx ("
x'"
b1111 &"
b0 %"
b0 $"
b0 #"
b0 ""
x!"
bx ~
bx }
bx |
bx {
xz
bx y
b11 x
b0 w
b0 v
xu
bx t
b11 s
b0 r
b0 q
bx p
bx o
bx n
xm
xl
bx k
bx j
b1111 i
b0 h
b0 g
b0 f
b0 e
xd
xc
xb
xa
z`
z_
x^
x]
bx \
bx [
bx Z
bx Y
xX
bx W
bx V
bx U
bx T
bx S
bx R
xQ
bx P
bx O
b1111 N
b0 M
b0 L
b0 K
b0 J
b1111 I
xH
b0 G
b0 F
b0 E
b0 D
b0 C
b0 B
0A
0@
0?
0>
bx =
bx <
z;
0:
09
08
b0 7
b0 6
b0 5
b0 4
bx 3
bx 2
x1
b1111 0
z/
z.
x-
z,
z+
x*
z)
z(
x'
z&
z%
z$
z#
z"
z!
$end
#2000
03"
05"
07"
09"
0;"
0="
0?"
0A"
0Y"
0["
0]"
0_"
0a"
0c"
0e"
0g"
0I"
0K"
0M"
0O"
0Q"
0S"
0U"
0W"
0j#
0l#
0n#
0p#
0r#
0t#
0v#
0x#
b0 2"
01"
b0 G"
b0 H"
0t"
0q"
0r"
0s"
0.#
0-#
0K#
0J#
0h#
0g#
b0 i#
01
#5000
0e#
0i"
1##
0j"
1@#
0u
0z
0d
0c
0b
b0 P
b0 }
0a
0p"
b0 )"
b0 `#
0o"
0n"
0m"
0!#
01#
03#
05#
07#
09#
0;#
0=#
b0 0"
b0 F"
b0 y"
b0 }"
b0 (#
0?#
0'#
b0 ("
b0 "#
0~"
0N#
0P#
0R#
0T#
0V#
0X#
0Z#
b0 /"
b0 E"
b0 z"
b0 |"
b0 E#
0\#
0D#
1:
b0 f#
0^
0]
b0 d#
b0 c#
b0 O
b0 p
b0 U
b0 Y
b0 o
b0 V
b0 Z
b0 n
1]#
0m
b0 k
b0 t
0l
b0 j
b0 y
b0 S
b0 \
b0 |
b0 T
b0 [
b0 {
0!"
0X
b0 3
b0 =
b0 W
0'"
04"
06"
08"
0:"
0<"
0>"
0@"
b0 2
b0 <
b0 +"
0B"
0J"
0L"
0N"
0P"
0R"
0T"
0V"
b0 ."
b0 D"
b0 ^#
0X"
0Z"
0\"
0^"
0`"
0b"
0d"
0f"
b0 -"
b0 C"
b0 _#
0h"
0*"
0k#
0m#
0o#
0q#
0s#
0u#
0w#
b0 ,"
b0 b#
0y#
0a#
19
0Q
b0 R
b0 ~
18
1A
1?
1@
1H
1>
#10000
0>
#15000
0@
1>
#20000
0>
#25000
0?
1@
1>
#30000
0>
#35000
0@
1>
#40000
0>
#45000
0A
1?
1@
1>
#50000
0>
#55000
0@
1>
#60000
0>
#65000
0?
1@
1>
#69000
zq"
zr"
1.#
1-#
1K#
1J#
1h#
11
#70000
0>
#75000
0@
1>
#80000
0>
#85000
08
1A
1?
1@
1>
#90000
0>
#95000
0@
1>
#100000
0>
#105000
0?
1@
1>
#110000
0>
#115000
0@
1>
#120000
0>
#125000
0A
1?
1@
1>
#130000
0>
#135000
0@
1>
#140000
0>
#145000
0?
1@
1>
#150000
0>
#155000
0@
1>
#160000
0>
#165000
0h#
0]#
09
1a#
1!"
18
1A
1?
1@
1>
#170000
0>
#175000
0@
1>
#180000
0>
#185000
0?
1@
1>
#190000
0>
#195000
0@
1>
#200000
0>
#205000
0A
1?
1@
1>
#210000
0>
#215000
0@
1>
#220000
0>
#225000
0?
1@
1>
#230000
0>
#235000
0@
1>
#240000
0>
#245000
08
1A
1?
1@
1>
#250000
0>
#255000
0@
1>
#260000
0>
#265000
0?
1@
1>
#270000
0>
#275000
0@
1>
#280000
0>
#285000
0A
1?
1@
1>
#290000
0>
#295000
0@
1>
#300000
0>
#305000
0?
1@
1>
#310000
0>
#315000
0@
1>
#320000
0>
#325000
0K#
1s"
0.#
1t"
0@#
1j"
0##
1i"
0:
1D#
1~"
1'#
b11 ("
b11 "#
1!#
zm"
zn"
zd
zc
1z
1u
1^
1]
1h#
b11 O
b11 p
1]#
1l
1m
0!"
0a#
19
18
1A
1?
1@
1>
#330000
0>
#335000
0@
1>
#340000
0>
#345000
0?
1@
1>
#350000
0>
#355000
0@
1>
#360000
0>
#365000
0A
1?
1@
1>
#370000
0>
#375000
0@
1>
#380000
0>
#385000
0?
1@
1>
#390000
0>
#395000
0@
1>
#400000
0>
#405000
08
1A
1?
1@
1>
#410000
0>
#415000
0@
1>
#420000
0>
#425000
0?
1@
1>
#430000
0>
#435000
0@
1>
#440000
0>
#445000
0A
1?
1@
1>
#450000
0>
#455000
0@
1>
#460000
0>
#465000
0?
1@
1>
#470000
0>
#475000
0@
1>
#480000
0>
#485000
0h#
0]#
09
1a#
1!"
18
1A
1?
1@
1>
#490000
0>
#495000
0@
1>
#500000
0>
#505000
0?
1@
1>
#510000
0>
#515000
0@
1>
#520000
0>
#525000
0A
1?
1@
1>
#530000
0>
#535000
0@
1>
#540000
0>
#545000
0?
1@
1>
#550000
0>
#555000
0@
1>
#560000
0>
#565000
08
1A
1?
1@
1>
#570000
0>
#575000
0@
1>
#580000
0>
#585000
0?
1@
1>
#590000
0>
#595000
0@
1>
#600000
0>
#605000
0A
1?
1@
1>
#610000
0>
#615000
0@
1>
#620000
0>
#625000
0?
1@
1>
#630000
0>
#635000
0@
1>
#640000
0>
#645000
1M#
1Q#
1S#
1U#
1Y#
1[#
10#
12#
14#
16#
18#
1:#
1<#
1>#
b11011101 L#
b11111111 /#
b11011101 I#
b11111111 ,#
b11001100 G#
b11011101 F#
b11101110 *#
b11111111 )#
b11001100 4
b11001100 G
b11001100 M
b11001100 h
b11001100 w
b11001100 %"
b11001100 x"
b11001100 B#
b11011101 5
b11011101 F
b11011101 L
b11011101 g
b11011101 v
b11011101 $"
b11011101 w"
b11011101 A#
b11101110 6
b11101110 E
b11101110 K
b11101110 f
b11101110 r
b11101110 #"
b11101110 v"
b11101110 %#
b11111111 7
b11111111 D
b11111111 J
b11111111 e
b11111111 q
b11111111 ""
b11111111 u"
b11111111 $#
1g#
1e#
1.#
1K#
1##
1@#
0u
0z
1b
b11 P
b11 }
1a
1p"
b11 )"
b11 `#
1o"
0'#
0D#
1:
1h#
1]#
0!"
0a#
19
18
1A
1?
1@
1>
#650000
0>
#655000
0@
1>
#660000
0>
#665000
0?
1@
1>
#670000
0>
#675000
0@
1>
#680000
0>
#685000
0A
1?
1@
1>
#690000
0>
#695000
0@
1>
#700000
0>
#705000
0?
1@
1>
#710000
0>
#715000
0@
1>
#720000
0>
#725000
08
1A
1?
1@
1>
#730000
0>
#735000
0@
1>
#740000
0>
#745000
0?
1@
1>
#750000
0>
#755000
0@
1>
#760000
0>
#765000
0A
1?
1@
1>
#770000
0>
#775000
0@
1>
#780000
0>
#785000
0?
1@
1>
#790000
0>
#795000
0@
1>
#800000
0>
#805000
0h#
0]#
11"
09
1a#
1*"
1!"
1X
1Q
18
1A
1?
1@
1>
#810000
0>
#815000
0@
1>
#820000
0>
#825000
0?
1@
1>
#830000
0>
#835000
0@
1>
#840000
0>
#845000
0A
1?
1@
1>
#850000
0>
#855000
0@
1>
#860000
0>
#865000
0?
1@
1>
#870000
0>
#875000
0@
1>
#880000
0>
#885000
08
1A
1?
1@
1>
#890000
0>
#895000
0@
1>
#900000
0>
#905000
0?
1@
1>
#910000
0>
#915000
0@
1>
#920000
0>
#925000
0A
1?
1@
1>
#930000
0>
#935000
0@
1>
#940000
0>
#945000
0?
1@
1>
#950000
0>
#955000
0@
1>
#960000
0>
#965000
0U#
0M#
08#
00#
b11001100 L#
1g"
1e"
1a"
1_"
1]"
1Y"
b11101110 /#
1W"
1U"
1S"
1Q"
1O"
1M"
1K"
1I"
0K#
b11011101 G"
0.#
b11111111 H"
b11001100 I#
0@#
b11101110 ,#
0##
0:
1D#
1\#
1Z#
1V#
1T#
1R#
b11011101 /"
b11011101 E"
b11011101 z"
b11011101 |"
b11011101 E#
1N#
1'#
1?#
1=#
1;#
19#
17#
15#
13#
b11111111 0"
b11111111 F"
b11111111 y"
b11111111 }"
b11111111 (#
11#
1z
1u
1h#
b11011101 U
b11011101 Y
b11011101 o
b11111111 V
b11111111 Z
b11111111 n
1]#
b11011101 j
b11011101 y
b11111111 k
b11111111 t
0!"
1'"
0a#
19
18
1A
1?
1@
1>
#970000
0>
#975000
0@
1>
#980000
0>
#985000
0?
1@
1>
#990000
0>
#995000
0@
1>
#1000000
0>
#1005000
0A
1?
1@
1>
#1010000
0>
#1015000
0@
1>
#1020000
0>
#1025000
0?
1@
1>
#1030000
0>
#1035000
0@
1>
#1040000
0>
#1045000
08
1A
1?
1@
1>
#1050000
0>
#1055000
0@
1>
#1060000
0>
#1065000
0?
1@
1>
#1070000
0>
#1075000
0@
1>
#1080000
0>
#1085000
0A
1?
1@
1>
#1090000
0>
#1095000
0@
1>
#1100000
0>
#1105000
0?
1@
1>
#1110000
0>
#1115000
0@
1>
#1120000
0>
#1125000
1x#
1v#
1r#
1p#
1n#
1j#
b11011101 i#
b11011101 f#
0h#
b11011101 d#
b11111111 c#
0]#
09
1a#
1h"
1f"
1b"
1`"
1^"
b11011101 -"
b11011101 C"
b11011101 _#
1Z"
1X"
1V"
1T"
1R"
1P"
1N"
1L"
b11111111 ."
b11111111 D"
b11111111 ^#
1J"
1!"
b11011101 S
b11011101 \
b11011101 |
b11111111 T
b11111111 [
b11111111 {
18
1A
1?
1@
1>
#1130000
0>
#1135000
0@
1>
#1140000
0>
#1145000
0?
1@
1>
#1150000
0>
#1155000
0@
1>
#1160000
0>
#1165000
0A
1?
1@
1>
#1170000
0>
#1175000
0@
1>
#1180000
0>
#1185000
0?
1@
1>
#1190000
0>
#1195000
0@
1>
#1200000
0>
#1205000
08
1A
1?
1@
1>
#1210000
0>
#1215000
0@
1>
#1220000
0>
#1225000
0?
1@
1>
#1230000
0>
#1235000
0@
1>
#1240000
0>
#1245000
0A
1?
1@
1>
#1250000
0>
#1255000
0@
1>
#1260000
0>
#1265000
0?
1@
1>
#1270000
0>
#1275000
0@
1>
#1280000
0>
#1285000
0Q#
0Y#
04#
0<#
b10001000 G#
b10011001 F#
b10101010 *#
b10111011 )#
b10001000 4
b10001000 G
b10001000 M
b10001000 h
b10001000 w
b10001000 %"
b10001000 x"
b10001000 B#
b10011001 5
b10011001 F
b10011001 L
b10011001 g
b10011001 v
b10011001 $"
b10011001 w"
b10011001 A#
b10101010 6
b10101010 E
b10101010 K
b10101010 f
b10101010 r
b10101010 #"
b10101010 v"
b10101010 %#
b10111011 7
b10111011 D
b10111011 J
b10111011 e
b10111011 q
b10111011 ""
b10111011 u"
b10111011 $#
18#
10#
1U#
1M#
0I"
0Q"
b10111011 /#
0Y"
0a"
b10011001 L#
b11101110 H"
1.#
b11001100 G"
1K#
b10111011 ,#
1##
b10011001 I#
1@#
0u
0z
01#
b11101110 0"
b11101110 F"
b11101110 y"
b11101110 }"
b11101110 (#
09#
0'#
0N#
b11001100 /"
b11001100 E"
b11001100 z"
b11001100 |"
b11001100 E#
0V#
0D#
1:
1t#
1l#
13"
17"
19"
1;"
1?"
1A"
b11111111 i#
b11011101 2"
1h#
b11001100 U
b11001100 Y
b11001100 o
b11101110 V
b11101110 Z
b11101110 n
b11111111 f#
1]#
b11101110 k
b11101110 t
b11001100 j
b11001100 y
0!"
1k#
1o#
1q#
1s#
1w#
b11011101 ,"
b11011101 b#
1y#
0a#
19
b11011101 R
b11011101 ~
18
1A
1?
1@
1>
#1290000
0>
#1295000
0@
1>
#1300000
0>
#1305000
0?
1@
1>
#1310000
0>
#1315000
0@
1>
#1320000
0>
#1325000
0A
1?
1@
1>
#1330000
0>
#1335000
0@
1>
#1340000
0>
#1345000
0?
1@
1>
#1350000
0>
#1355000
0@
1>
#1360000
0>
#1365000
08
1A
1?
1@
1>
#1370000
0>
#1375000
0@
1>
#1380000
0>
#1385000
0?
1@
1>
#1390000
0>
#1395000
0@
1>
#1400000
0>
#1405000
0A
1?
1@
1>
#1410000
0>
#1415000
0@
1>
#1420000
0>
#1425000
0?
1@
1>
#1430000
0>
#1435000
0@
1>
#1440000
0>
